(kicad_sch (version 20230121) (generator eeschema)

  (uuid e5ef2bfe-0c58-421f-87f9-1e71f2cfa41e)

  (paper "A4")

  (lib_symbols
    (symbol "74xx:74HC595" (in_bom yes) (on_board yes)
      (property "Reference" "U" (at -7.62 13.97 0)
        (effects (font (size 1.27 1.27)))
      )
      (property "Value" "74HC595" (at -7.62 -16.51 0)
        (effects (font (size 1.27 1.27)))
      )
      (property "Footprint" "" (at 0 0 0)
        (effects (font (size 1.27 1.27)) hide)
      )
      (property "Datasheet" "http://www.ti.com/lit/ds/symlink/sn74hc595.pdf" (at 0 0 0)
        (effects (font (size 1.27 1.27)) hide)
      )
      (property "ki_keywords" "HCMOS SR 3State" (at 0 0 0)
        (effects (font (size 1.27 1.27)) hide)
      )
      (property "ki_description" "8-bit serial in/out Shift Register 3-State Outputs" (at 0 0 0)
        (effects (font (size 1.27 1.27)) hide)
      )
      (property "ki_fp_filters" "DIP*W7.62mm* SOIC*3.9x9.9mm*P1.27mm* TSSOP*4.4x5mm*P0.65mm* SOIC*5.3x10.2mm*P1.27mm* SOIC*7.5x10.3mm*P1.27mm*" (at 0 0 0)
        (effects (font (size 1.27 1.27)) hide)
      )
      (symbol "74HC595_1_0"
        (pin tri_state line (at 10.16 7.62 180) (length 2.54)
          (name "QB" (effects (font (size 1.27 1.27))))
          (number "1" (effects (font (size 1.27 1.27))))
        )
        (pin input line (at -10.16 2.54 0) (length 2.54)
          (name "~{SRCLR}" (effects (font (size 1.27 1.27))))
          (number "10" (effects (font (size 1.27 1.27))))
        )
        (pin input line (at -10.16 5.08 0) (length 2.54)
          (name "SRCLK" (effects (font (size 1.27 1.27))))
          (number "11" (effects (font (size 1.27 1.27))))
        )
        (pin input line (at -10.16 -2.54 0) (length 2.54)
          (name "RCLK" (effects (font (size 1.27 1.27))))
          (number "12" (effects (font (size 1.27 1.27))))
        )
        (pin input line (at -10.16 -5.08 0) (length 2.54)
          (name "~{OE}" (effects (font (size 1.27 1.27))))
          (number "13" (effects (font (size 1.27 1.27))))
        )
        (pin input line (at -10.16 10.16 0) (length 2.54)
          (name "SER" (effects (font (size 1.27 1.27))))
          (number "14" (effects (font (size 1.27 1.27))))
        )
        (pin tri_state line (at 10.16 10.16 180) (length 2.54)
          (name "QA" (effects (font (size 1.27 1.27))))
          (number "15" (effects (font (size 1.27 1.27))))
        )
        (pin power_in line (at 0 15.24 270) (length 2.54)
          (name "VCC" (effects (font (size 1.27 1.27))))
          (number "16" (effects (font (size 1.27 1.27))))
        )
        (pin tri_state line (at 10.16 5.08 180) (length 2.54)
          (name "QC" (effects (font (size 1.27 1.27))))
          (number "2" (effects (font (size 1.27 1.27))))
        )
        (pin tri_state line (at 10.16 2.54 180) (length 2.54)
          (name "QD" (effects (font (size 1.27 1.27))))
          (number "3" (effects (font (size 1.27 1.27))))
        )
        (pin tri_state line (at 10.16 0 180) (length 2.54)
          (name "QE" (effects (font (size 1.27 1.27))))
          (number "4" (effects (font (size 1.27 1.27))))
        )
        (pin tri_state line (at 10.16 -2.54 180) (length 2.54)
          (name "QF" (effects (font (size 1.27 1.27))))
          (number "5" (effects (font (size 1.27 1.27))))
        )
        (pin tri_state line (at 10.16 -5.08 180) (length 2.54)
          (name "QG" (effects (font (size 1.27 1.27))))
          (number "6" (effects (font (size 1.27 1.27))))
        )
        (pin tri_state line (at 10.16 -7.62 180) (length 2.54)
          (name "QH" (effects (font (size 1.27 1.27))))
          (number "7" (effects (font (size 1.27 1.27))))
        )
        (pin power_in line (at 0 -17.78 90) (length 2.54)
          (name "GND" (effects (font (size 1.27 1.27))))
          (number "8" (effects (font (size 1.27 1.27))))
        )
        (pin output line (at 10.16 -12.7 180) (length 2.54)
          (name "QH'" (effects (font (size 1.27 1.27))))
          (number "9" (effects (font (size 1.27 1.27))))
        )
      )
      (symbol "74HC595_1_1"
        (rectangle (start -7.62 12.7) (end 7.62 -15.24)
          (stroke (width 0.254) (type default))
          (fill (type background))
        )
      )
    )
    (symbol "Device:C" (pin_numbers hide) (pin_names (offset 0.254)) (in_bom yes) (on_board yes)
      (property "Reference" "C" (at 0.635 2.54 0)
        (effects (font (size 1.27 1.27)) (justify left))
      )
      (property "Value" "C" (at 0.635 -2.54 0)
        (effects (font (size 1.27 1.27)) (justify left))
      )
      (property "Footprint" "" (at 0.9652 -3.81 0)
        (effects (font (size 1.27 1.27)) hide)
      )
      (property "Datasheet" "~" (at 0 0 0)
        (effects (font (size 1.27 1.27)) hide)
      )
      (property "ki_keywords" "cap capacitor" (at 0 0 0)
        (effects (font (size 1.27 1.27)) hide)
      )
      (property "ki_description" "Unpolarized capacitor" (at 0 0 0)
        (effects (font (size 1.27 1.27)) hide)
      )
      (property "ki_fp_filters" "C_*" (at 0 0 0)
        (effects (font (size 1.27 1.27)) hide)
      )
      (symbol "C_0_1"
        (polyline
          (pts
            (xy -2.032 -0.762)
            (xy 2.032 -0.762)
          )
          (stroke (width 0.508) (type default))
          (fill (type none))
        )
        (polyline
          (pts
            (xy -2.032 0.762)
            (xy 2.032 0.762)
          )
          (stroke (width 0.508) (type default))
          (fill (type none))
        )
      )
      (symbol "C_1_1"
        (pin passive line (at 0 3.81 270) (length 2.794)
          (name "~" (effects (font (size 1.27 1.27))))
          (number "1" (effects (font (size 1.27 1.27))))
        )
        (pin passive line (at 0 -3.81 90) (length 2.794)
          (name "~" (effects (font (size 1.27 1.27))))
          (number "2" (effects (font (size 1.27 1.27))))
        )
      )
    )
    (symbol "Device:LED" (pin_numbers hide) (pin_names (offset 1.016) hide) (in_bom yes) (on_board yes)
      (property "Reference" "D" (at 0 2.54 0)
        (effects (font (size 1.27 1.27)))
      )
      (property "Value" "LED" (at 0 -2.54 0)
        (effects (font (size 1.27 1.27)))
      )
      (property "Footprint" "" (at 0 0 0)
        (effects (font (size 1.27 1.27)) hide)
      )
      (property "Datasheet" "~" (at 0 0 0)
        (effects (font (size 1.27 1.27)) hide)
      )
      (property "ki_keywords" "LED diode" (at 0 0 0)
        (effects (font (size 1.27 1.27)) hide)
      )
      (property "ki_description" "Light emitting diode" (at 0 0 0)
        (effects (font (size 1.27 1.27)) hide)
      )
      (property "ki_fp_filters" "LED* LED_SMD:* LED_THT:*" (at 0 0 0)
        (effects (font (size 1.27 1.27)) hide)
      )
      (symbol "LED_0_1"
        (polyline
          (pts
            (xy -1.27 -1.27)
            (xy -1.27 1.27)
          )
          (stroke (width 0.254) (type default))
          (fill (type none))
        )
        (polyline
          (pts
            (xy -1.27 0)
            (xy 1.27 0)
          )
          (stroke (width 0) (type default))
          (fill (type none))
        )
        (polyline
          (pts
            (xy 1.27 -1.27)
            (xy 1.27 1.27)
            (xy -1.27 0)
            (xy 1.27 -1.27)
          )
          (stroke (width 0.254) (type default))
          (fill (type none))
        )
        (polyline
          (pts
            (xy -3.048 -0.762)
            (xy -4.572 -2.286)
            (xy -3.81 -2.286)
            (xy -4.572 -2.286)
            (xy -4.572 -1.524)
          )
          (stroke (width 0) (type default))
          (fill (type none))
        )
        (polyline
          (pts
            (xy -1.778 -0.762)
            (xy -3.302 -2.286)
            (xy -2.54 -2.286)
            (xy -3.302 -2.286)
            (xy -3.302 -1.524)
          )
          (stroke (width 0) (type default))
          (fill (type none))
        )
      )
      (symbol "LED_1_1"
        (pin passive line (at -3.81 0 0) (length 2.54)
          (name "K" (effects (font (size 1.27 1.27))))
          (number "1" (effects (font (size 1.27 1.27))))
        )
        (pin passive line (at 3.81 0 180) (length 2.54)
          (name "A" (effects (font (size 1.27 1.27))))
          (number "2" (effects (font (size 1.27 1.27))))
        )
      )
    )
    (symbol "Device:R" (pin_numbers hide) (pin_names (offset 0)) (in_bom yes) (on_board yes)
      (property "Reference" "R" (at 2.032 0 90)
        (effects (font (size 1.27 1.27)))
      )
      (property "Value" "R" (at 0 0 90)
        (effects (font (size 1.27 1.27)))
      )
      (property "Footprint" "" (at -1.778 0 90)
        (effects (font (size 1.27 1.27)) hide)
      )
      (property "Datasheet" "~" (at 0 0 0)
        (effects (font (size 1.27 1.27)) hide)
      )
      (property "ki_keywords" "R res resistor" (at 0 0 0)
        (effects (font (size 1.27 1.27)) hide)
      )
      (property "ki_description" "Resistor" (at 0 0 0)
        (effects (font (size 1.27 1.27)) hide)
      )
      (property "ki_fp_filters" "R_*" (at 0 0 0)
        (effects (font (size 1.27 1.27)) hide)
      )
      (symbol "R_0_1"
        (rectangle (start -1.016 -2.54) (end 1.016 2.54)
          (stroke (width 0.254) (type default))
          (fill (type none))
        )
      )
      (symbol "R_1_1"
        (pin passive line (at 0 3.81 270) (length 1.27)
          (name "~" (effects (font (size 1.27 1.27))))
          (number "1" (effects (font (size 1.27 1.27))))
        )
        (pin passive line (at 0 -3.81 90) (length 1.27)
          (name "~" (effects (font (size 1.27 1.27))))
          (number "2" (effects (font (size 1.27 1.27))))
        )
      )
    )
    (symbol "power:+5V" (power) (pin_names (offset 0)) (in_bom yes) (on_board yes)
      (property "Reference" "#PWR" (at 0 -3.81 0)
        (effects (font (size 1.27 1.27)) hide)
      )
      (property "Value" "+5V" (at 0 3.556 0)
        (effects (font (size 1.27 1.27)))
      )
      (property "Footprint" "" (at 0 0 0)
        (effects (font (size 1.27 1.27)) hide)
      )
      (property "Datasheet" "" (at 0 0 0)
        (effects (font (size 1.27 1.27)) hide)
      )
      (property "ki_keywords" "global power" (at 0 0 0)
        (effects (font (size 1.27 1.27)) hide)
      )
      (property "ki_description" "Power symbol creates a global label with name \"+5V\"" (at 0 0 0)
        (effects (font (size 1.27 1.27)) hide)
      )
      (symbol "+5V_0_1"
        (polyline
          (pts
            (xy -0.762 1.27)
            (xy 0 2.54)
          )
          (stroke (width 0) (type default))
          (fill (type none))
        )
        (polyline
          (pts
            (xy 0 0)
            (xy 0 2.54)
          )
          (stroke (width 0) (type default))
          (fill (type none))
        )
        (polyline
          (pts
            (xy 0 2.54)
            (xy 0.762 1.27)
          )
          (stroke (width 0) (type default))
          (fill (type none))
        )
      )
      (symbol "+5V_1_1"
        (pin power_in line (at 0 0 90) (length 0) hide
          (name "+5V" (effects (font (size 1.27 1.27))))
          (number "1" (effects (font (size 1.27 1.27))))
        )
      )
    )
    (symbol "power:GND" (power) (pin_names (offset 0)) (in_bom yes) (on_board yes)
      (property "Reference" "#PWR" (at 0 -6.35 0)
        (effects (font (size 1.27 1.27)) hide)
      )
      (property "Value" "GND" (at 0 -3.81 0)
        (effects (font (size 1.27 1.27)))
      )
      (property "Footprint" "" (at 0 0 0)
        (effects (font (size 1.27 1.27)) hide)
      )
      (property "Datasheet" "" (at 0 0 0)
        (effects (font (size 1.27 1.27)) hide)
      )
      (property "ki_keywords" "global power" (at 0 0 0)
        (effects (font (size 1.27 1.27)) hide)
      )
      (property "ki_description" "Power symbol creates a global label with name \"GND\" , ground" (at 0 0 0)
        (effects (font (size 1.27 1.27)) hide)
      )
      (symbol "GND_0_1"
        (polyline
          (pts
            (xy 0 0)
            (xy 0 -1.27)
            (xy 1.27 -1.27)
            (xy 0 -2.54)
            (xy -1.27 -1.27)
            (xy 0 -1.27)
          )
          (stroke (width 0) (type default))
          (fill (type none))
        )
      )
      (symbol "GND_1_1"
        (pin power_in line (at 0 0 270) (length 0) hide
          (name "GND" (effects (font (size 1.27 1.27))))
          (number "1" (effects (font (size 1.27 1.27))))
        )
      )
    )
  )

  (junction (at 170.18 80.01) (diameter 0) (color 0 0 0 0)
    (uuid 4bb5c993-f55c-47de-8962-64b5fb7ac685)
  )
  (junction (at 114.3 105.41) (diameter 0) (color 0 0 0 0)
    (uuid 75f2c242-4532-4d6d-8db5-42d99ce11de6)
  )
  (junction (at 170.18 102.87) (diameter 0) (color 0 0 0 0)
    (uuid 79f83007-c6d2-4ab6-83e4-cc67adb74d77)
  )
  (junction (at 170.18 95.25) (diameter 0) (color 0 0 0 0)
    (uuid 8b62c85f-e0af-4c5a-be77-306431d679a5)
  )
  (junction (at 170.18 116.84) (diameter 0) (color 0 0 0 0)
    (uuid 8c67d8e7-481e-4ab9-92cc-e35cb49a2d42)
  )
  (junction (at 170.18 87.63) (diameter 0) (color 0 0 0 0)
    (uuid a4c61fd6-7471-48ad-a565-abd0ff3242b6)
  )
  (junction (at 170.18 72.39) (diameter 0) (color 0 0 0 0)
    (uuid d2b2819e-fa60-46bd-a333-54ce13981882)
  )
  (junction (at 170.18 109.22) (diameter 0) (color 0 0 0 0)
    (uuid df30be3a-434c-4e56-8bf9-677ea73b0097)
  )

  (wire (pts (xy 170.18 116.84) (xy 166.37 116.84))
    (stroke (width 0) (type default))
    (uuid 026d7948-5066-40a8-b109-50fb58bd1efa)
  )
  (wire (pts (xy 140.97 95.25) (xy 146.05 95.25))
    (stroke (width 0) (type default))
    (uuid 0a698fbf-5058-4d55-a77f-6c6bcfe9bd7e)
  )
  (wire (pts (xy 124.46 95.25) (xy 134.62 95.25))
    (stroke (width 0) (type default))
    (uuid 0af273f7-3878-41ff-87d8-f5ca008714c3)
  )
  (wire (pts (xy 153.67 95.25) (xy 158.75 95.25))
    (stroke (width 0) (type default))
    (uuid 155c0cf5-78b8-4452-b5cf-ea8f1d7a56f1)
  )
  (wire (pts (xy 124.46 87.63) (xy 140.97 87.63))
    (stroke (width 0) (type default))
    (uuid 17c3082b-58a1-4095-89b1-c53f7199dc06)
  )
  (wire (pts (xy 142.24 87.63) (xy 146.05 87.63))
    (stroke (width 0) (type default))
    (uuid 1cdb29f0-41c8-40e6-9091-05345a4db8a3)
  )
  (wire (pts (xy 170.18 72.39) (xy 170.18 80.01))
    (stroke (width 0) (type default))
    (uuid 1d32c80c-b44d-440d-bd8c-1272459f45a7)
  )
  (wire (pts (xy 134.62 95.25) (xy 134.62 116.84))
    (stroke (width 0) (type default))
    (uuid 2225f6e0-f547-424e-8fae-a912099cc4ff)
  )
  (wire (pts (xy 138.43 102.87) (xy 138.43 90.17))
    (stroke (width 0) (type default))
    (uuid 27fcf89c-641a-4b2f-9cb3-d7add00da319)
  )
  (wire (pts (xy 170.18 118.11) (xy 170.18 116.84))
    (stroke (width 0) (type default))
    (uuid 2b8f8d39-463a-4a9c-8139-6c76db39591a)
  )
  (wire (pts (xy 124.46 80.01) (xy 134.62 80.01))
    (stroke (width 0) (type default))
    (uuid 2ee515e7-e5b0-46a8-b273-3f344fef6adb)
  )
  (wire (pts (xy 135.89 109.22) (xy 146.05 109.22))
    (stroke (width 0) (type default))
    (uuid 3119bd0b-1466-4600-b986-d863f1c25586)
  )
  (wire (pts (xy 170.18 72.39) (xy 166.37 72.39))
    (stroke (width 0) (type default))
    (uuid 3d3fe4c6-27ce-4d06-8b01-18f07aa7de7d)
  )
  (wire (pts (xy 170.18 64.77) (xy 170.18 72.39))
    (stroke (width 0) (type default))
    (uuid 3ddd646b-a24b-4eca-8117-5d2e997d0436)
  )
  (wire (pts (xy 135.89 92.71) (xy 135.89 109.22))
    (stroke (width 0) (type default))
    (uuid 54e47669-5165-4d8e-9c9b-d6c78d5a8f71)
  )
  (wire (pts (xy 134.62 72.39) (xy 146.05 72.39))
    (stroke (width 0) (type default))
    (uuid 55877ac0-60db-4626-a5e3-6016fb47b691)
  )
  (wire (pts (xy 170.18 95.25) (xy 170.18 102.87))
    (stroke (width 0) (type default))
    (uuid 57110c77-057d-4ee7-9125-ab397ac65a69)
  )
  (wire (pts (xy 124.46 82.55) (xy 135.89 82.55))
    (stroke (width 0) (type default))
    (uuid 57587f16-7b2f-496a-b546-7357d5d38e94)
  )
  (wire (pts (xy 135.89 80.01) (xy 146.05 80.01))
    (stroke (width 0) (type default))
    (uuid 59bcb572-9c76-423b-851d-05a5024d8046)
  )
  (wire (pts (xy 124.46 85.09) (xy 142.24 85.09))
    (stroke (width 0) (type default))
    (uuid 5cd10366-e973-4af5-9596-21e5b7f3a8d7)
  )
  (wire (pts (xy 114.3 106.68) (xy 114.3 105.41))
    (stroke (width 0) (type default))
    (uuid 5f935187-0b6d-4736-aae8-54664abcb1eb)
  )
  (wire (pts (xy 170.18 102.87) (xy 170.18 109.22))
    (stroke (width 0) (type default))
    (uuid 666ff48f-e85b-47ce-899f-9782fc672cc9)
  )
  (wire (pts (xy 170.18 87.63) (xy 166.37 87.63))
    (stroke (width 0) (type default))
    (uuid 6ef73078-b823-4c83-b542-3b89f5821239)
  )
  (wire (pts (xy 142.24 85.09) (xy 142.24 87.63))
    (stroke (width 0) (type default))
    (uuid 70d33c05-2eb5-416c-8e29-95f92092de23)
  )
  (wire (pts (xy 153.67 80.01) (xy 158.75 80.01))
    (stroke (width 0) (type default))
    (uuid 72d4ad6d-4d3f-4848-b2ca-ec6500daa052)
  )
  (wire (pts (xy 100.33 90.17) (xy 104.14 90.17))
    (stroke (width 0) (type default))
    (uuid 75a7c8a3-9869-406b-825f-b9b3e086d391)
  )
  (wire (pts (xy 138.43 90.17) (xy 124.46 90.17))
    (stroke (width 0) (type default))
    (uuid 80155e76-9704-4187-9849-2175ad592268)
  )
  (wire (pts (xy 140.97 87.63) (xy 140.97 95.25))
    (stroke (width 0) (type default))
    (uuid 80373e08-b589-45be-bdca-1a177e5065c9)
  )
  (wire (pts (xy 170.18 109.22) (xy 170.18 116.84))
    (stroke (width 0) (type default))
    (uuid 8669aa85-8604-477f-be2a-e329874b29f6)
  )
  (wire (pts (xy 170.18 80.01) (xy 166.37 80.01))
    (stroke (width 0) (type default))
    (uuid 8c0261d7-36d6-4a84-8306-851cfa638d1c)
  )
  (wire (pts (xy 135.89 82.55) (xy 135.89 80.01))
    (stroke (width 0) (type default))
    (uuid 9311dc32-5f9d-4754-99b0-5dc256172caf)
  )
  (wire (pts (xy 134.62 116.84) (xy 146.05 116.84))
    (stroke (width 0) (type default))
    (uuid 96059026-2041-478c-a488-ab52bf53d8e5)
  )
  (wire (pts (xy 134.62 80.01) (xy 134.62 72.39))
    (stroke (width 0) (type default))
    (uuid 98fbcbb2-1827-4014-8f89-2fb325583be2)
  )
  (wire (pts (xy 133.35 77.47) (xy 124.46 77.47))
    (stroke (width 0) (type default))
    (uuid 9add803f-b1ab-4b83-b323-2c061a91d00e)
  )
  (wire (pts (xy 170.18 87.63) (xy 170.18 95.25))
    (stroke (width 0) (type default))
    (uuid a1c76c30-d5f8-494d-a0af-2b6916addccc)
  )
  (wire (pts (xy 170.18 102.87) (xy 166.37 102.87))
    (stroke (width 0) (type default))
    (uuid a2afe5ce-414d-46d2-85a0-ce7186a69904)
  )
  (wire (pts (xy 124.46 92.71) (xy 135.89 92.71))
    (stroke (width 0) (type default))
    (uuid a612f957-6c6f-47ee-8bb2-1a0a8f740820)
  )
  (wire (pts (xy 153.67 64.77) (xy 158.75 64.77))
    (stroke (width 0) (type default))
    (uuid ade6124f-32b4-434f-9e72-573b666d55ae)
  )
  (wire (pts (xy 100.33 85.09) (xy 104.14 85.09))
    (stroke (width 0) (type default))
    (uuid b077ba61-ee55-4a8f-bdda-cbe11e4bd6c2)
  )
  (wire (pts (xy 153.67 102.87) (xy 158.75 102.87))
    (stroke (width 0) (type default))
    (uuid b2b7e0e0-9f9c-4a0b-a93a-92b60913bf4e)
  )
  (wire (pts (xy 104.14 92.71) (xy 104.14 105.41))
    (stroke (width 0) (type default))
    (uuid b6014847-c40d-4110-9a79-c235c3399945)
  )
  (wire (pts (xy 138.43 102.87) (xy 146.05 102.87))
    (stroke (width 0) (type default))
    (uuid b60f99b2-2700-471d-8e53-01e177cade08)
  )
  (wire (pts (xy 170.18 109.22) (xy 166.37 109.22))
    (stroke (width 0) (type default))
    (uuid bdeb5838-9554-42fe-a0ec-7da990eb6aa2)
  )
  (wire (pts (xy 133.35 77.47) (xy 133.35 64.77))
    (stroke (width 0) (type default))
    (uuid bfcc782c-d73f-4611-ba66-f209f5f61671)
  )
  (wire (pts (xy 104.14 105.41) (xy 114.3 105.41))
    (stroke (width 0) (type default))
    (uuid c0be46df-55a8-430b-b601-ca8585bf0898)
  )
  (wire (pts (xy 114.3 68.58) (xy 114.3 72.39))
    (stroke (width 0) (type default))
    (uuid c229c507-889d-4fe8-8b2f-2e3b916990ad)
  )
  (wire (pts (xy 100.33 77.47) (xy 104.14 77.47))
    (stroke (width 0) (type default))
    (uuid c2d1a8a4-660a-4969-92c8-5709340ed536)
  )
  (wire (pts (xy 133.35 64.77) (xy 146.05 64.77))
    (stroke (width 0) (type default))
    (uuid c4864c32-0baf-4cda-bbcc-354713ca8489)
  )
  (wire (pts (xy 170.18 64.77) (xy 166.37 64.77))
    (stroke (width 0) (type default))
    (uuid cc03a761-0cc3-40cd-8404-9e629e2196fb)
  )
  (wire (pts (xy 153.67 72.39) (xy 158.75 72.39))
    (stroke (width 0) (type default))
    (uuid d1d74a58-efaa-43a7-b6ab-69812854f61a)
  )
  (wire (pts (xy 170.18 95.25) (xy 166.37 95.25))
    (stroke (width 0) (type default))
    (uuid d7bcb201-11d6-4c9d-836b-fc697fa59e09)
  )
  (wire (pts (xy 153.67 109.22) (xy 158.75 109.22))
    (stroke (width 0) (type default))
    (uuid d85024a3-cf92-4f7f-9f34-f29902ee1843)
  )
  (wire (pts (xy 153.67 116.84) (xy 158.75 116.84))
    (stroke (width 0) (type default))
    (uuid e9a95163-c4a0-4e75-93e2-48dfe8c67722)
  )
  (wire (pts (xy 100.33 82.55) (xy 104.14 82.55))
    (stroke (width 0) (type default))
    (uuid f0ccffc8-b2c5-46f6-a073-3f678fbdd17e)
  )
  (wire (pts (xy 153.67 87.63) (xy 158.75 87.63))
    (stroke (width 0) (type default))
    (uuid f289b358-98d2-4440-842f-0fa675333399)
  )
  (wire (pts (xy 170.18 80.01) (xy 170.18 87.63))
    (stroke (width 0) (type default))
    (uuid fc8ea552-a6b4-4090-be64-e14944a130ee)
  )

  (hierarchical_label "DATA" (shape input) (at 100.33 77.47 180) (fields_autoplaced)
    (effects (font (size 1.27 1.27)) (justify right))
    (uuid 341018ba-bfef-40f5-a029-9e7024dc8eba)
  )
  (hierarchical_label "CLOCK" (shape input) (at 100.33 82.55 180) (fields_autoplaced)
    (effects (font (size 1.27 1.27)) (justify right))
    (uuid 480582f2-f2d7-43b4-98de-a628de7f7a28)
  )
  (hierarchical_label "QH'" (shape input) (at 124.46 100.33 0) (fields_autoplaced)
    (effects (font (size 1.27 1.27)) (justify left))
    (uuid 61f48fd9-3ae3-44a8-bc0f-668ee3395342)
  )
  (hierarchical_label "LATCH" (shape input) (at 100.33 90.17 180) (fields_autoplaced)
    (effects (font (size 1.27 1.27)) (justify right))
    (uuid 7aed5a29-f68a-414d-9f78-fb3b83238f13)
  )
  (hierarchical_label "RESET" (shape input) (at 100.33 85.09 180) (fields_autoplaced)
    (effects (font (size 1.27 1.27)) (justify right))
    (uuid e87a4228-162c-4c8f-84f1-c38eb4762fce)
  )

  (symbol (lib_id "power:GND") (at 170.18 118.11 0) (unit 1)
    (in_bom yes) (on_board yes) (dnp no) (fields_autoplaced)
    (uuid 13b78437-4fe1-429d-8db7-a1fdaaaebbe7)
    (property "Reference" "#PWR027" (at 170.18 124.46 0)
      (effects (font (size 1.27 1.27)) hide)
    )
    (property "Value" "GND" (at 170.18 123.19 0)
      (effects (font (size 1.27 1.27)))
    )
    (property "Footprint" "" (at 170.18 118.11 0)
      (effects (font (size 1.27 1.27)) hide)
    )
    (property "Datasheet" "" (at 170.18 118.11 0)
      (effects (font (size 1.27 1.27)) hide)
    )
    (pin "1" (uuid 511e02cc-60e5-4c68-bd25-c5c90fde87f5))
    (instances
      (project "lesson_12"
        (path "/690162bd-eb3e-4aee-95c1-fe643d11941e/3eb9b5e2-3377-4edd-aaf2-3f5efa216c94"
          (reference "#PWR027") (unit 1)
        )
        (path "/690162bd-eb3e-4aee-95c1-fe643d11941e/cdac15bb-4718-4a56-bd0e-da4f89314503"
          (reference "#PWR030") (unit 1)
        )
      )
    )
  )

  (symbol (lib_id "Device:R") (at 149.86 102.87 90) (unit 1)
    (in_bom yes) (on_board yes) (dnp no)
    (uuid 1e6c0dce-00cf-4875-8a34-352d91a0fe93)
    (property "Reference" "R15" (at 175.26 101.6 90)
      (effects (font (size 1.27 1.27)))
    )
    (property "Value" "470" (at 175.26 104.14 90)
      (effects (font (size 1.27 1.27)))
    )
    (property "Footprint" "Resistor_SMD:R_0402_1005Metric" (at 149.86 104.648 90)
      (effects (font (size 1.27 1.27)) hide)
    )
    (property "Datasheet" "~" (at 149.86 102.87 0)
      (effects (font (size 1.27 1.27)) hide)
    )
    (pin "1" (uuid 9cc4bda0-d8fc-488c-856a-07b282130985))
    (pin "2" (uuid da8e7176-e3d6-4c42-86ff-4643724fb7fc))
    (instances
      (project "lesson_12"
        (path "/690162bd-eb3e-4aee-95c1-fe643d11941e/3eb9b5e2-3377-4edd-aaf2-3f5efa216c94"
          (reference "R15") (unit 1)
        )
        (path "/690162bd-eb3e-4aee-95c1-fe643d11941e/cdac15bb-4718-4a56-bd0e-da4f89314503"
          (reference "R23") (unit 1)
        )
      )
    )
  )

  (symbol (lib_id "Device:R") (at 149.86 95.25 90) (unit 1)
    (in_bom yes) (on_board yes) (dnp no)
    (uuid 22c5ec45-1757-4625-a8f5-9247ae255bf0)
    (property "Reference" "R14" (at 175.26 93.98 90)
      (effects (font (size 1.27 1.27)))
    )
    (property "Value" "470" (at 175.26 96.52 90)
      (effects (font (size 1.27 1.27)))
    )
    (property "Footprint" "Resistor_SMD:R_0402_1005Metric" (at 149.86 97.028 90)
      (effects (font (size 1.27 1.27)) hide)
    )
    (property "Datasheet" "~" (at 149.86 95.25 0)
      (effects (font (size 1.27 1.27)) hide)
    )
    (pin "1" (uuid bac5fce8-2573-480c-a2a1-0596871eaa61))
    (pin "2" (uuid 5dbb5ed2-6a62-4575-a6c7-b49c94138591))
    (instances
      (project "lesson_12"
        (path "/690162bd-eb3e-4aee-95c1-fe643d11941e/3eb9b5e2-3377-4edd-aaf2-3f5efa216c94"
          (reference "R14") (unit 1)
        )
        (path "/690162bd-eb3e-4aee-95c1-fe643d11941e/cdac15bb-4718-4a56-bd0e-da4f89314503"
          (reference "R22") (unit 1)
        )
      )
    )
  )

  (symbol (lib_id "Device:LED") (at 162.56 109.22 180) (unit 1)
    (in_bom yes) (on_board yes) (dnp no)
    (uuid 3c22f9c1-a0c7-4664-9fa1-e4021e83cb2c)
    (property "Reference" "D8" (at 180.34 107.95 0)
      (effects (font (size 1.27 1.27)))
    )
    (property "Value" "LED" (at 180.34 110.49 0)
      (effects (font (size 1.27 1.27)))
    )
    (property "Footprint" "LED_SMD:LED_0603_1608Metric" (at 162.56 109.22 0)
      (effects (font (size 1.27 1.27)) hide)
    )
    (property "Datasheet" "~" (at 162.56 109.22 0)
      (effects (font (size 1.27 1.27)) hide)
    )
    (pin "1" (uuid b459d427-4597-4ff4-98fd-cd5a100d9b02))
    (pin "2" (uuid f1597707-3c58-48fc-be6c-34478deb1b04))
    (instances
      (project "lesson_12"
        (path "/690162bd-eb3e-4aee-95c1-fe643d11941e/3eb9b5e2-3377-4edd-aaf2-3f5efa216c94"
          (reference "D8") (unit 1)
        )
        (path "/690162bd-eb3e-4aee-95c1-fe643d11941e/cdac15bb-4718-4a56-bd0e-da4f89314503"
          (reference "D16") (unit 1)
        )
      )
    )
  )

  (symbol (lib_id "Device:R") (at 149.86 72.39 90) (unit 1)
    (in_bom yes) (on_board yes) (dnp no)
    (uuid 4425a528-6c95-4f4f-aa3e-8c0ade87b805)
    (property "Reference" "R11" (at 175.26 71.12 90)
      (effects (font (size 1.27 1.27)))
    )
    (property "Value" "470" (at 175.26 73.66 90)
      (effects (font (size 1.27 1.27)))
    )
    (property "Footprint" "Resistor_SMD:R_0402_1005Metric" (at 149.86 74.168 90)
      (effects (font (size 1.27 1.27)) hide)
    )
    (property "Datasheet" "~" (at 149.86 72.39 0)
      (effects (font (size 1.27 1.27)) hide)
    )
    (pin "1" (uuid 420c8c90-f75b-43b1-aa0e-5568e8f91824))
    (pin "2" (uuid 7a22db2d-2eab-468e-afbb-ebd9e31ab293))
    (instances
      (project "lesson_12"
        (path "/690162bd-eb3e-4aee-95c1-fe643d11941e/3eb9b5e2-3377-4edd-aaf2-3f5efa216c94"
          (reference "R11") (unit 1)
        )
        (path "/690162bd-eb3e-4aee-95c1-fe643d11941e/cdac15bb-4718-4a56-bd0e-da4f89314503"
          (reference "R19") (unit 1)
        )
      )
    )
  )

  (symbol (lib_id "74xx:74HC595") (at 114.3 87.63 0) (unit 1)
    (in_bom yes) (on_board yes) (dnp no) (fields_autoplaced)
    (uuid 51eed55d-2e09-46ef-b505-ee4dc2fa4877)
    (property "Reference" "U4" (at 116.4941 69.85 0)
      (effects (font (size 1.27 1.27)) (justify left))
    )
    (property "Value" "74HC595" (at 116.4941 72.39 0)
      (effects (font (size 1.27 1.27)) (justify left))
    )
    (property "Footprint" "Package_SO:SOIC-16_3.9x9.9mm_P1.27mm" (at 114.3 87.63 0)
      (effects (font (size 1.27 1.27)) hide)
    )
    (property "Datasheet" "http://www.ti.com/lit/ds/symlink/sn74hc595.pdf" (at 114.3 87.63 0)
      (effects (font (size 1.27 1.27)) hide)
    )
    (pin "12" (uuid 7d4755ba-c0e0-48c0-8551-33a32f3a63e1))
    (pin "5" (uuid 19bee50f-f5aa-4b35-8724-e028d6461c52))
    (pin "11" (uuid e6c386ee-90c0-421b-b323-5a7f74b6abf1))
    (pin "7" (uuid dc6199b1-de84-442d-92fb-6fba74033f49))
    (pin "3" (uuid 4a990f02-c073-4759-8a50-9ccf0fd70652))
    (pin "10" (uuid 06d2e743-6588-49c5-9c02-6d4d30999e4f))
    (pin "1" (uuid a9a2de80-0e26-4c74-8a4c-3a70c875a97a))
    (pin "13" (uuid 4cfa6a5c-00ae-4467-87a1-5204b4104f73))
    (pin "16" (uuid 5102c00f-06ca-453f-b0ef-81ae3fe300ca))
    (pin "8" (uuid 3555759e-ba66-48c6-ac86-c911f7b0d707))
    (pin "6" (uuid c5c2e7d0-a86e-43ab-96e8-118734d6e60c))
    (pin "2" (uuid 19e36745-f5ef-416e-bd3d-b4ce75ac649b))
    (pin "4" (uuid 9ec3e4d0-ee77-4e26-98b1-d3db7c4d5b90))
    (pin "15" (uuid 651e34ce-1a28-4827-940f-86ee2e59a8dd))
    (pin "9" (uuid e9b0ad99-2661-4a16-80e7-06adfa24e5ad))
    (pin "14" (uuid 54b8291f-bd7d-415a-a4af-9d2577268840))
    (instances
      (project "lesson_12"
        (path "/690162bd-eb3e-4aee-95c1-fe643d11941e/3eb9b5e2-3377-4edd-aaf2-3f5efa216c94"
          (reference "U4") (unit 1)
        )
        (path "/690162bd-eb3e-4aee-95c1-fe643d11941e/cdac15bb-4718-4a56-bd0e-da4f89314503"
          (reference "U5") (unit 1)
        )
      )
    )
  )

  (symbol (lib_id "power:+5V") (at 114.3 68.58 0) (unit 1)
    (in_bom yes) (on_board yes) (dnp no) (fields_autoplaced)
    (uuid 630ea283-018e-445e-8fb5-bd019984b359)
    (property "Reference" "#PWR025" (at 114.3 72.39 0)
      (effects (font (size 1.27 1.27)) hide)
    )
    (property "Value" "+5V" (at 114.3 63.5 0)
      (effects (font (size 1.27 1.27)))
    )
    (property "Footprint" "" (at 114.3 68.58 0)
      (effects (font (size 1.27 1.27)) hide)
    )
    (property "Datasheet" "" (at 114.3 68.58 0)
      (effects (font (size 1.27 1.27)) hide)
    )
    (pin "1" (uuid 8432613b-b949-4072-99ad-99ef0ae872b1))
    (instances
      (project "lesson_12"
        (path "/690162bd-eb3e-4aee-95c1-fe643d11941e/3eb9b5e2-3377-4edd-aaf2-3f5efa216c94"
          (reference "#PWR025") (unit 1)
        )
        (path "/690162bd-eb3e-4aee-95c1-fe643d11941e/cdac15bb-4718-4a56-bd0e-da4f89314503"
          (reference "#PWR028") (unit 1)
        )
      )
    )
  )

  (symbol (lib_id "Device:LED") (at 162.56 95.25 180) (unit 1)
    (in_bom yes) (on_board yes) (dnp no)
    (uuid 6a0f09a6-e024-49dd-9856-92438b71fe5c)
    (property "Reference" "D6" (at 180.34 93.98 0)
      (effects (font (size 1.27 1.27)))
    )
    (property "Value" "LED" (at 180.34 96.52 0)
      (effects (font (size 1.27 1.27)))
    )
    (property "Footprint" "LED_SMD:LED_0603_1608Metric" (at 162.56 95.25 0)
      (effects (font (size 1.27 1.27)) hide)
    )
    (property "Datasheet" "~" (at 162.56 95.25 0)
      (effects (font (size 1.27 1.27)) hide)
    )
    (pin "1" (uuid 3e38d625-cd83-4572-84fb-1b2c9e356f2c))
    (pin "2" (uuid b5cc310c-4202-448e-9598-084adbc4bb52))
    (instances
      (project "lesson_12"
        (path "/690162bd-eb3e-4aee-95c1-fe643d11941e/3eb9b5e2-3377-4edd-aaf2-3f5efa216c94"
          (reference "D6") (unit 1)
        )
        (path "/690162bd-eb3e-4aee-95c1-fe643d11941e/cdac15bb-4718-4a56-bd0e-da4f89314503"
          (reference "D14") (unit 1)
        )
      )
    )
  )

  (symbol (lib_id "power:GND") (at 96.52 62.23 0) (unit 1)
    (in_bom yes) (on_board yes) (dnp no)
    (uuid 77ace6b6-408c-4302-8225-e86813902f69)
    (property "Reference" "#PWR032" (at 96.52 68.58 0)
      (effects (font (size 1.27 1.27)) hide)
    )
    (property "Value" "GND" (at 96.52 66.04 0)
      (effects (font (size 1.27 1.27)))
    )
    (property "Footprint" "" (at 96.52 62.23 0)
      (effects (font (size 1.27 1.27)) hide)
    )
    (property "Datasheet" "" (at 96.52 62.23 0)
      (effects (font (size 1.27 1.27)) hide)
    )
    (pin "1" (uuid cc6a29c3-3be8-45cc-9880-ef34053d4e4b))
    (instances
      (project "lesson_12"
        (path "/690162bd-eb3e-4aee-95c1-fe643d11941e/3eb9b5e2-3377-4edd-aaf2-3f5efa216c94"
          (reference "#PWR032") (unit 1)
        )
        (path "/690162bd-eb3e-4aee-95c1-fe643d11941e/cdac15bb-4718-4a56-bd0e-da4f89314503"
          (reference "#PWR033") (unit 1)
        )
      )
    )
  )

  (symbol (lib_id "Device:LED") (at 162.56 64.77 180) (unit 1)
    (in_bom yes) (on_board yes) (dnp no)
    (uuid 86c3d5a8-91f2-401d-b63f-dcdc0c449d46)
    (property "Reference" "D2" (at 180.34 63.5 0)
      (effects (font (size 1.27 1.27)))
    )
    (property "Value" "LED" (at 180.34 66.04 0)
      (effects (font (size 1.27 1.27)))
    )
    (property "Footprint" "LED_SMD:LED_0603_1608Metric" (at 162.56 64.77 0)
      (effects (font (size 1.27 1.27)) hide)
    )
    (property "Datasheet" "~" (at 162.56 64.77 0)
      (effects (font (size 1.27 1.27)) hide)
    )
    (pin "1" (uuid a8dc0574-c4be-4ee6-858e-249ab47aaec9))
    (pin "2" (uuid 7f39b0d1-bf9f-4c49-a7da-b4188693c4c4))
    (instances
      (project "lesson_12"
        (path "/690162bd-eb3e-4aee-95c1-fe643d11941e/3eb9b5e2-3377-4edd-aaf2-3f5efa216c94"
          (reference "D2") (unit 1)
        )
        (path "/690162bd-eb3e-4aee-95c1-fe643d11941e/cdac15bb-4718-4a56-bd0e-da4f89314503"
          (reference "D10") (unit 1)
        )
      )
    )
  )

  (symbol (lib_id "Device:R") (at 149.86 80.01 90) (unit 1)
    (in_bom yes) (on_board yes) (dnp no)
    (uuid 8a0dd9b5-81d9-4cb3-a38d-b00e04870eca)
    (property "Reference" "R12" (at 175.26 78.74 90)
      (effects (font (size 1.27 1.27)))
    )
    (property "Value" "470" (at 175.26 81.28 90)
      (effects (font (size 1.27 1.27)))
    )
    (property "Footprint" "Resistor_SMD:R_0402_1005Metric" (at 149.86 81.788 90)
      (effects (font (size 1.27 1.27)) hide)
    )
    (property "Datasheet" "~" (at 149.86 80.01 0)
      (effects (font (size 1.27 1.27)) hide)
    )
    (pin "1" (uuid 4ea6d7a8-a0ca-4a24-bd9e-3a80892880da))
    (pin "2" (uuid b1591444-f78e-4ace-8409-1e5131ab1eef))
    (instances
      (project "lesson_12"
        (path "/690162bd-eb3e-4aee-95c1-fe643d11941e/3eb9b5e2-3377-4edd-aaf2-3f5efa216c94"
          (reference "R12") (unit 1)
        )
        (path "/690162bd-eb3e-4aee-95c1-fe643d11941e/cdac15bb-4718-4a56-bd0e-da4f89314503"
          (reference "R20") (unit 1)
        )
      )
    )
  )

  (symbol (lib_id "power:GND") (at 114.3 106.68 0) (unit 1)
    (in_bom yes) (on_board yes) (dnp no)
    (uuid 8bb8f6c1-604e-467f-82ad-0bb09d042b13)
    (property "Reference" "#PWR026" (at 114.3 113.03 0)
      (effects (font (size 1.27 1.27)) hide)
    )
    (property "Value" "GND" (at 118.11 109.22 0)
      (effects (font (size 1.27 1.27)))
    )
    (property "Footprint" "" (at 114.3 106.68 0)
      (effects (font (size 1.27 1.27)) hide)
    )
    (property "Datasheet" "" (at 114.3 106.68 0)
      (effects (font (size 1.27 1.27)) hide)
    )
    (pin "1" (uuid 2c23c9ba-7bee-4c8d-ae99-c0017cbf1a10))
    (instances
      (project "lesson_12"
        (path "/690162bd-eb3e-4aee-95c1-fe643d11941e/3eb9b5e2-3377-4edd-aaf2-3f5efa216c94"
          (reference "#PWR026") (unit 1)
        )
        (path "/690162bd-eb3e-4aee-95c1-fe643d11941e/cdac15bb-4718-4a56-bd0e-da4f89314503"
          (reference "#PWR029") (unit 1)
        )
      )
    )
  )

  (symbol (lib_id "Device:R") (at 149.86 109.22 90) (unit 1)
    (in_bom yes) (on_board yes) (dnp no)
    (uuid a5da053b-a94d-4727-ba65-6e1894cf5e69)
    (property "Reference" "R16" (at 175.26 107.95 90)
      (effects (font (size 1.27 1.27)))
    )
    (property "Value" "470" (at 175.26 110.49 90)
      (effects (font (size 1.27 1.27)))
    )
    (property "Footprint" "Resistor_SMD:R_0402_1005Metric" (at 149.86 110.998 90)
      (effects (font (size 1.27 1.27)) hide)
    )
    (property "Datasheet" "~" (at 149.86 109.22 0)
      (effects (font (size 1.27 1.27)) hide)
    )
    (pin "1" (uuid d4f43ef0-2b14-454b-9acb-714e413f2201))
    (pin "2" (uuid 2a3518f1-4b25-4560-954c-1a2554b6f8b3))
    (instances
      (project "lesson_12"
        (path "/690162bd-eb3e-4aee-95c1-fe643d11941e/3eb9b5e2-3377-4edd-aaf2-3f5efa216c94"
          (reference "R16") (unit 1)
        )
        (path "/690162bd-eb3e-4aee-95c1-fe643d11941e/cdac15bb-4718-4a56-bd0e-da4f89314503"
          (reference "R24") (unit 1)
        )
      )
    )
  )

  (symbol (lib_id "Device:R") (at 149.86 64.77 90) (unit 1)
    (in_bom yes) (on_board yes) (dnp no)
    (uuid b1ec4fb3-fa3d-44fd-ab38-f8a5469841ad)
    (property "Reference" "R10" (at 175.26 63.5 90)
      (effects (font (size 1.27 1.27)))
    )
    (property "Value" "470" (at 175.26 66.04 90)
      (effects (font (size 1.27 1.27)))
    )
    (property "Footprint" "Resistor_SMD:R_0402_1005Metric" (at 149.86 66.548 90)
      (effects (font (size 1.27 1.27)) hide)
    )
    (property "Datasheet" "~" (at 149.86 64.77 0)
      (effects (font (size 1.27 1.27)) hide)
    )
    (pin "1" (uuid 33676ebc-1858-4cbc-8474-5cfbf792d05a))
    (pin "2" (uuid 16edccb7-1d37-4b43-a971-fb2757299791))
    (instances
      (project "lesson_12"
        (path "/690162bd-eb3e-4aee-95c1-fe643d11941e/3eb9b5e2-3377-4edd-aaf2-3f5efa216c94"
          (reference "R10") (unit 1)
        )
        (path "/690162bd-eb3e-4aee-95c1-fe643d11941e/cdac15bb-4718-4a56-bd0e-da4f89314503"
          (reference "R18") (unit 1)
        )
      )
    )
  )

  (symbol (lib_id "Device:LED") (at 162.56 72.39 180) (unit 1)
    (in_bom yes) (on_board yes) (dnp no)
    (uuid b6759ce7-a409-4bb8-9f4f-c23db2a8f858)
    (property "Reference" "D3" (at 180.34 71.12 0)
      (effects (font (size 1.27 1.27)))
    )
    (property "Value" "LED" (at 180.34 73.66 0)
      (effects (font (size 1.27 1.27)))
    )
    (property "Footprint" "LED_SMD:LED_0603_1608Metric" (at 162.56 72.39 0)
      (effects (font (size 1.27 1.27)) hide)
    )
    (property "Datasheet" "~" (at 162.56 72.39 0)
      (effects (font (size 1.27 1.27)) hide)
    )
    (pin "1" (uuid 624dc50d-be25-49f9-8b63-be3960474d0e))
    (pin "2" (uuid 144ac0e1-3669-486a-be5b-7bbe9f749293))
    (instances
      (project "lesson_12"
        (path "/690162bd-eb3e-4aee-95c1-fe643d11941e/3eb9b5e2-3377-4edd-aaf2-3f5efa216c94"
          (reference "D3") (unit 1)
        )
        (path "/690162bd-eb3e-4aee-95c1-fe643d11941e/cdac15bb-4718-4a56-bd0e-da4f89314503"
          (reference "D11") (unit 1)
        )
      )
    )
  )

  (symbol (lib_id "power:+5V") (at 96.52 54.61 0) (unit 1)
    (in_bom yes) (on_board yes) (dnp no) (fields_autoplaced)
    (uuid b8447420-a0eb-4075-aa04-99f85e965616)
    (property "Reference" "#PWR034" (at 96.52 58.42 0)
      (effects (font (size 1.27 1.27)) hide)
    )
    (property "Value" "+5V" (at 96.52 49.53 0)
      (effects (font (size 1.27 1.27)))
    )
    (property "Footprint" "" (at 96.52 54.61 0)
      (effects (font (size 1.27 1.27)) hide)
    )
    (property "Datasheet" "" (at 96.52 54.61 0)
      (effects (font (size 1.27 1.27)) hide)
    )
    (pin "1" (uuid fa342fca-9161-40ba-a3d2-4010085d9631))
    (instances
      (project "lesson_12"
        (path "/690162bd-eb3e-4aee-95c1-fe643d11941e/3eb9b5e2-3377-4edd-aaf2-3f5efa216c94"
          (reference "#PWR034") (unit 1)
        )
        (path "/690162bd-eb3e-4aee-95c1-fe643d11941e/cdac15bb-4718-4a56-bd0e-da4f89314503"
          (reference "#PWR035") (unit 1)
        )
      )
    )
  )

  (symbol (lib_id "Device:LED") (at 162.56 80.01 180) (unit 1)
    (in_bom yes) (on_board yes) (dnp no)
    (uuid bb750ba8-9276-41a5-a59d-e738a9624761)
    (property "Reference" "D4" (at 180.34 78.74 0)
      (effects (font (size 1.27 1.27)))
    )
    (property "Value" "LED" (at 180.34 81.28 0)
      (effects (font (size 1.27 1.27)))
    )
    (property "Footprint" "LED_SMD:LED_0603_1608Metric" (at 162.56 80.01 0)
      (effects (font (size 1.27 1.27)) hide)
    )
    (property "Datasheet" "~" (at 162.56 80.01 0)
      (effects (font (size 1.27 1.27)) hide)
    )
    (pin "1" (uuid 874ca807-50f1-4e5a-a53d-e5413f76ff67))
    (pin "2" (uuid 081268e3-6f90-4acc-b393-b055793746d4))
    (instances
      (project "lesson_12"
        (path "/690162bd-eb3e-4aee-95c1-fe643d11941e/3eb9b5e2-3377-4edd-aaf2-3f5efa216c94"
          (reference "D4") (unit 1)
        )
        (path "/690162bd-eb3e-4aee-95c1-fe643d11941e/cdac15bb-4718-4a56-bd0e-da4f89314503"
          (reference "D12") (unit 1)
        )
      )
    )
  )

  (symbol (lib_id "Device:C") (at 96.52 58.42 0) (unit 1)
    (in_bom yes) (on_board yes) (dnp no)
    (uuid c8569a71-c04a-42a2-be38-0126fe25e0a9)
    (property "Reference" "C10" (at 88.9 57.15 0)
      (effects (font (size 1.27 1.27)) (justify left))
    )
    (property "Value" "0.1u" (at 88.9 59.69 0)
      (effects (font (size 1.27 1.27)) (justify left))
    )
    (property "Footprint" "Capacitor_SMD:C_0402_1005Metric" (at 97.4852 62.23 0)
      (effects (font (size 1.27 1.27)) hide)
    )
    (property "Datasheet" "~" (at 96.52 58.42 0)
      (effects (font (size 1.27 1.27)) hide)
    )
    (pin "1" (uuid 15f05280-0610-44ef-876f-362d64a1f269))
    (pin "2" (uuid fc9309b9-7f8e-4acc-9918-3bd06f104cf2))
    (instances
      (project "lesson_12"
        (path "/690162bd-eb3e-4aee-95c1-fe643d11941e/3eb9b5e2-3377-4edd-aaf2-3f5efa216c94"
          (reference "C10") (unit 1)
        )
        (path "/690162bd-eb3e-4aee-95c1-fe643d11941e/cdac15bb-4718-4a56-bd0e-da4f89314503"
          (reference "C11") (unit 1)
        )
      )
    )
  )

  (symbol (lib_id "Device:LED") (at 162.56 102.87 180) (unit 1)
    (in_bom yes) (on_board yes) (dnp no)
    (uuid df6c8c19-7d5f-4678-8ac9-26b72d46c67d)
    (property "Reference" "D7" (at 180.34 101.6 0)
      (effects (font (size 1.27 1.27)))
    )
    (property "Value" "LED" (at 180.34 104.14 0)
      (effects (font (size 1.27 1.27)))
    )
    (property "Footprint" "LED_SMD:LED_0603_1608Metric" (at 162.56 102.87 0)
      (effects (font (size 1.27 1.27)) hide)
    )
    (property "Datasheet" "~" (at 162.56 102.87 0)
      (effects (font (size 1.27 1.27)) hide)
    )
    (pin "1" (uuid 85ac3ca3-3d98-4de8-9386-3026d051846c))
    (pin "2" (uuid 1c706c9a-317d-4d13-9032-50af64e910ab))
    (instances
      (project "lesson_12"
        (path "/690162bd-eb3e-4aee-95c1-fe643d11941e/3eb9b5e2-3377-4edd-aaf2-3f5efa216c94"
          (reference "D7") (unit 1)
        )
        (path "/690162bd-eb3e-4aee-95c1-fe643d11941e/cdac15bb-4718-4a56-bd0e-da4f89314503"
          (reference "D15") (unit 1)
        )
      )
    )
  )

  (symbol (lib_id "Device:LED") (at 162.56 116.84 180) (unit 1)
    (in_bom yes) (on_board yes) (dnp no)
    (uuid df7dcaa0-db25-4bd3-b3d3-0f116bd35dc0)
    (property "Reference" "D9" (at 180.34 115.57 0)
      (effects (font (size 1.27 1.27)))
    )
    (property "Value" "LED" (at 180.34 118.11 0)
      (effects (font (size 1.27 1.27)))
    )
    (property "Footprint" "LED_SMD:LED_0603_1608Metric" (at 162.56 116.84 0)
      (effects (font (size 1.27 1.27)) hide)
    )
    (property "Datasheet" "~" (at 162.56 116.84 0)
      (effects (font (size 1.27 1.27)) hide)
    )
    (pin "1" (uuid b3aa6479-59b2-40b7-b8bf-27aa7d819287))
    (pin "2" (uuid 73efb24b-cac5-41e2-a8aa-e60697678c25))
    (instances
      (project "lesson_12"
        (path "/690162bd-eb3e-4aee-95c1-fe643d11941e/3eb9b5e2-3377-4edd-aaf2-3f5efa216c94"
          (reference "D9") (unit 1)
        )
        (path "/690162bd-eb3e-4aee-95c1-fe643d11941e/cdac15bb-4718-4a56-bd0e-da4f89314503"
          (reference "D17") (unit 1)
        )
      )
    )
  )

  (symbol (lib_id "Device:R") (at 149.86 87.63 90) (unit 1)
    (in_bom yes) (on_board yes) (dnp no)
    (uuid e0e86df7-17b3-4373-b563-d26b7d85b507)
    (property "Reference" "R13" (at 175.26 86.36 90)
      (effects (font (size 1.27 1.27)))
    )
    (property "Value" "470" (at 175.26 88.9 90)
      (effects (font (size 1.27 1.27)))
    )
    (property "Footprint" "Resistor_SMD:R_0402_1005Metric" (at 149.86 89.408 90)
      (effects (font (size 1.27 1.27)) hide)
    )
    (property "Datasheet" "~" (at 149.86 87.63 0)
      (effects (font (size 1.27 1.27)) hide)
    )
    (pin "1" (uuid 943dc490-8ce0-4a2b-9a67-e62aae48ef9a))
    (pin "2" (uuid e00b0b38-5aad-48e5-affa-0c6d95d3da24))
    (instances
      (project "lesson_12"
        (path "/690162bd-eb3e-4aee-95c1-fe643d11941e/3eb9b5e2-3377-4edd-aaf2-3f5efa216c94"
          (reference "R13") (unit 1)
        )
        (path "/690162bd-eb3e-4aee-95c1-fe643d11941e/cdac15bb-4718-4a56-bd0e-da4f89314503"
          (reference "R21") (unit 1)
        )
      )
    )
  )

  (symbol (lib_id "Device:LED") (at 162.56 87.63 180) (unit 1)
    (in_bom yes) (on_board yes) (dnp no)
    (uuid e2b74dfb-20b6-469d-8d98-299562bde3b5)
    (property "Reference" "D5" (at 180.34 86.36 0)
      (effects (font (size 1.27 1.27)))
    )
    (property "Value" "LED" (at 180.34 88.9 0)
      (effects (font (size 1.27 1.27)))
    )
    (property "Footprint" "LED_SMD:LED_0603_1608Metric" (at 162.56 87.63 0)
      (effects (font (size 1.27 1.27)) hide)
    )
    (property "Datasheet" "~" (at 162.56 87.63 0)
      (effects (font (size 1.27 1.27)) hide)
    )
    (pin "1" (uuid 22c20a8c-f400-4687-9f72-f3a19f7c8615))
    (pin "2" (uuid 3ffe72db-5130-49b3-98ca-0c742c731e97))
    (instances
      (project "lesson_12"
        (path "/690162bd-eb3e-4aee-95c1-fe643d11941e/3eb9b5e2-3377-4edd-aaf2-3f5efa216c94"
          (reference "D5") (unit 1)
        )
        (path "/690162bd-eb3e-4aee-95c1-fe643d11941e/cdac15bb-4718-4a56-bd0e-da4f89314503"
          (reference "D13") (unit 1)
        )
      )
    )
  )

  (symbol (lib_id "Device:R") (at 149.86 116.84 90) (unit 1)
    (in_bom yes) (on_board yes) (dnp no)
    (uuid e3783a0a-4636-4b5c-a1f6-08c2210e7eae)
    (property "Reference" "R17" (at 175.26 115.57 90)
      (effects (font (size 1.27 1.27)))
    )
    (property "Value" "470" (at 175.26 118.11 90)
      (effects (font (size 1.27 1.27)))
    )
    (property "Footprint" "Resistor_SMD:R_0402_1005Metric" (at 149.86 118.618 90)
      (effects (font (size 1.27 1.27)) hide)
    )
    (property "Datasheet" "~" (at 149.86 116.84 0)
      (effects (font (size 1.27 1.27)) hide)
    )
    (pin "1" (uuid 2e2b4b09-3b7b-466b-92ec-0e05b2064cf5))
    (pin "2" (uuid d79fea03-3210-48ae-a754-56c5ed30c40c))
    (instances
      (project "lesson_12"
        (path "/690162bd-eb3e-4aee-95c1-fe643d11941e/3eb9b5e2-3377-4edd-aaf2-3f5efa216c94"
          (reference "R17") (unit 1)
        )
        (path "/690162bd-eb3e-4aee-95c1-fe643d11941e/cdac15bb-4718-4a56-bd0e-da4f89314503"
          (reference "R25") (unit 1)
        )
      )
    )
  )
)
