(kicad_sch
	(version 20231120)
	(generator "eeschema")
	(generator_version "8.0")
	(uuid "9392b240-eb47-4930-b737-3a61f4b7c1ec")
	(paper "A4")
	(lib_symbols
		(symbol "Device:C"
			(pin_numbers hide)
			(pin_names
				(offset 0.254)
			)
			(exclude_from_sim no)
			(in_bom yes)
			(on_board yes)
			(property "Reference" "C"
				(at 0.635 2.54 0)
				(effects
					(font
						(size 1.27 1.27)
					)
					(justify left)
				)
			)
			(property "Value" "C"
				(at 0.635 -2.54 0)
				(effects
					(font
						(size 1.27 1.27)
					)
					(justify left)
				)
			)
			(property "Footprint" ""
				(at 0.9652 -3.81 0)
				(effects
					(font
						(size 1.27 1.27)
					)
					(hide yes)
				)
			)
			(property "Datasheet" "~"
				(at 0 0 0)
				(effects
					(font
						(size 1.27 1.27)
					)
					(hide yes)
				)
			)
			(property "Description" "Unpolarized capacitor"
				(at 0 0 0)
				(effects
					(font
						(size 1.27 1.27)
					)
					(hide yes)
				)
			)
			(property "ki_keywords" "cap capacitor"
				(at 0 0 0)
				(effects
					(font
						(size 1.27 1.27)
					)
					(hide yes)
				)
			)
			(property "ki_fp_filters" "C_*"
				(at 0 0 0)
				(effects
					(font
						(size 1.27 1.27)
					)
					(hide yes)
				)
			)
			(symbol "C_0_1"
				(polyline
					(pts
						(xy -2.032 -0.762) (xy 2.032 -0.762)
					)
					(stroke
						(width 0.508)
						(type default)
					)
					(fill
						(type none)
					)
				)
				(polyline
					(pts
						(xy -2.032 0.762) (xy 2.032 0.762)
					)
					(stroke
						(width 0.508)
						(type default)
					)
					(fill
						(type none)
					)
				)
			)
			(symbol "C_1_1"
				(pin passive line
					(at 0 3.81 270)
					(length 2.794)
					(name "~"
						(effects
							(font
								(size 1.27 1.27)
							)
						)
					)
					(number "1"
						(effects
							(font
								(size 1.27 1.27)
							)
						)
					)
				)
				(pin passive line
					(at 0 -3.81 90)
					(length 2.794)
					(name "~"
						(effects
							(font
								(size 1.27 1.27)
							)
						)
					)
					(number "2"
						(effects
							(font
								(size 1.27 1.27)
							)
						)
					)
				)
			)
		)
		(symbol "Device:C_Polarized"
			(pin_numbers hide)
			(pin_names
				(offset 0.254)
			)
			(exclude_from_sim no)
			(in_bom yes)
			(on_board yes)
			(property "Reference" "C"
				(at 0.635 2.54 0)
				(effects
					(font
						(size 1.27 1.27)
					)
					(justify left)
				)
			)
			(property "Value" "C_Polarized"
				(at 0.635 -2.54 0)
				(effects
					(font
						(size 1.27 1.27)
					)
					(justify left)
				)
			)
			(property "Footprint" ""
				(at 0.9652 -3.81 0)
				(effects
					(font
						(size 1.27 1.27)
					)
					(hide yes)
				)
			)
			(property "Datasheet" "~"
				(at 0 0 0)
				(effects
					(font
						(size 1.27 1.27)
					)
					(hide yes)
				)
			)
			(property "Description" "Polarized capacitor"
				(at 0 0 0)
				(effects
					(font
						(size 1.27 1.27)
					)
					(hide yes)
				)
			)
			(property "ki_keywords" "cap capacitor"
				(at 0 0 0)
				(effects
					(font
						(size 1.27 1.27)
					)
					(hide yes)
				)
			)
			(property "ki_fp_filters" "CP_*"
				(at 0 0 0)
				(effects
					(font
						(size 1.27 1.27)
					)
					(hide yes)
				)
			)
			(symbol "C_Polarized_0_1"
				(rectangle
					(start -2.286 0.508)
					(end 2.286 1.016)
					(stroke
						(width 0)
						(type default)
					)
					(fill
						(type none)
					)
				)
				(polyline
					(pts
						(xy -1.778 2.286) (xy -0.762 2.286)
					)
					(stroke
						(width 0)
						(type default)
					)
					(fill
						(type none)
					)
				)
				(polyline
					(pts
						(xy -1.27 2.794) (xy -1.27 1.778)
					)
					(stroke
						(width 0)
						(type default)
					)
					(fill
						(type none)
					)
				)
				(rectangle
					(start 2.286 -0.508)
					(end -2.286 -1.016)
					(stroke
						(width 0)
						(type default)
					)
					(fill
						(type outline)
					)
				)
			)
			(symbol "C_Polarized_1_1"
				(pin passive line
					(at 0 3.81 270)
					(length 2.794)
					(name "~"
						(effects
							(font
								(size 1.27 1.27)
							)
						)
					)
					(number "1"
						(effects
							(font
								(size 1.27 1.27)
							)
						)
					)
				)
				(pin passive line
					(at 0 -3.81 90)
					(length 2.794)
					(name "~"
						(effects
							(font
								(size 1.27 1.27)
							)
						)
					)
					(number "2"
						(effects
							(font
								(size 1.27 1.27)
							)
						)
					)
				)
			)
		)
		(symbol "Device:D_Schottky"
			(pin_numbers hide)
			(pin_names
				(offset 1.016) hide)
			(exclude_from_sim no)
			(in_bom yes)
			(on_board yes)
			(property "Reference" "D"
				(at 0 2.54 0)
				(effects
					(font
						(size 1.27 1.27)
					)
				)
			)
			(property "Value" "D_Schottky"
				(at 0 -2.54 0)
				(effects
					(font
						(size 1.27 1.27)
					)
				)
			)
			(property "Footprint" ""
				(at 0 0 0)
				(effects
					(font
						(size 1.27 1.27)
					)
					(hide yes)
				)
			)
			(property "Datasheet" "~"
				(at 0 0 0)
				(effects
					(font
						(size 1.27 1.27)
					)
					(hide yes)
				)
			)
			(property "Description" "Schottky diode"
				(at 0 0 0)
				(effects
					(font
						(size 1.27 1.27)
					)
					(hide yes)
				)
			)
			(property "ki_keywords" "diode Schottky"
				(at 0 0 0)
				(effects
					(font
						(size 1.27 1.27)
					)
					(hide yes)
				)
			)
			(property "ki_fp_filters" "TO-???* *_Diode_* *SingleDiode* D_*"
				(at 0 0 0)
				(effects
					(font
						(size 1.27 1.27)
					)
					(hide yes)
				)
			)
			(symbol "D_Schottky_0_1"
				(polyline
					(pts
						(xy 1.27 0) (xy -1.27 0)
					)
					(stroke
						(width 0)
						(type default)
					)
					(fill
						(type none)
					)
				)
				(polyline
					(pts
						(xy 1.27 1.27) (xy 1.27 -1.27) (xy -1.27 0) (xy 1.27 1.27)
					)
					(stroke
						(width 0.254)
						(type default)
					)
					(fill
						(type none)
					)
				)
				(polyline
					(pts
						(xy -1.905 0.635) (xy -1.905 1.27) (xy -1.27 1.27) (xy -1.27 -1.27) (xy -0.635 -1.27) (xy -0.635 -0.635)
					)
					(stroke
						(width 0.254)
						(type default)
					)
					(fill
						(type none)
					)
				)
			)
			(symbol "D_Schottky_1_1"
				(pin passive line
					(at -3.81 0 0)
					(length 2.54)
					(name "K"
						(effects
							(font
								(size 1.27 1.27)
							)
						)
					)
					(number "1"
						(effects
							(font
								(size 1.27 1.27)
							)
						)
					)
				)
				(pin passive line
					(at 3.81 0 180)
					(length 2.54)
					(name "A"
						(effects
							(font
								(size 1.27 1.27)
							)
						)
					)
					(number "2"
						(effects
							(font
								(size 1.27 1.27)
							)
						)
					)
				)
			)
		)
		(symbol "Device:L"
			(pin_numbers hide)
			(pin_names
				(offset 1.016) hide)
			(exclude_from_sim no)
			(in_bom yes)
			(on_board yes)
			(property "Reference" "L"
				(at -1.27 0 90)
				(effects
					(font
						(size 1.27 1.27)
					)
				)
			)
			(property "Value" "L"
				(at 1.905 0 90)
				(effects
					(font
						(size 1.27 1.27)
					)
				)
			)
			(property "Footprint" ""
				(at 0 0 0)
				(effects
					(font
						(size 1.27 1.27)
					)
					(hide yes)
				)
			)
			(property "Datasheet" "~"
				(at 0 0 0)
				(effects
					(font
						(size 1.27 1.27)
					)
					(hide yes)
				)
			)
			(property "Description" "Inductor"
				(at 0 0 0)
				(effects
					(font
						(size 1.27 1.27)
					)
					(hide yes)
				)
			)
			(property "ki_keywords" "inductor choke coil reactor magnetic"
				(at 0 0 0)
				(effects
					(font
						(size 1.27 1.27)
					)
					(hide yes)
				)
			)
			(property "ki_fp_filters" "Choke_* *Coil* Inductor_* L_*"
				(at 0 0 0)
				(effects
					(font
						(size 1.27 1.27)
					)
					(hide yes)
				)
			)
			(symbol "L_0_1"
				(arc
					(start 0 -2.54)
					(mid 0.6323 -1.905)
					(end 0 -1.27)
					(stroke
						(width 0)
						(type default)
					)
					(fill
						(type none)
					)
				)
				(arc
					(start 0 -1.27)
					(mid 0.6323 -0.635)
					(end 0 0)
					(stroke
						(width 0)
						(type default)
					)
					(fill
						(type none)
					)
				)
				(arc
					(start 0 0)
					(mid 0.6323 0.635)
					(end 0 1.27)
					(stroke
						(width 0)
						(type default)
					)
					(fill
						(type none)
					)
				)
				(arc
					(start 0 1.27)
					(mid 0.6323 1.905)
					(end 0 2.54)
					(stroke
						(width 0)
						(type default)
					)
					(fill
						(type none)
					)
				)
			)
			(symbol "L_1_1"
				(pin passive line
					(at 0 3.81 270)
					(length 1.27)
					(name "1"
						(effects
							(font
								(size 1.27 1.27)
							)
						)
					)
					(number "1"
						(effects
							(font
								(size 1.27 1.27)
							)
						)
					)
				)
				(pin passive line
					(at 0 -3.81 90)
					(length 1.27)
					(name "2"
						(effects
							(font
								(size 1.27 1.27)
							)
						)
					)
					(number "2"
						(effects
							(font
								(size 1.27 1.27)
							)
						)
					)
				)
			)
		)
		(symbol "Device:R"
			(pin_numbers hide)
			(pin_names
				(offset 0)
			)
			(exclude_from_sim no)
			(in_bom yes)
			(on_board yes)
			(property "Reference" "R"
				(at 2.032 0 90)
				(effects
					(font
						(size 1.27 1.27)
					)
				)
			)
			(property "Value" "R"
				(at 0 0 90)
				(effects
					(font
						(size 1.27 1.27)
					)
				)
			)
			(property "Footprint" ""
				(at -1.778 0 90)
				(effects
					(font
						(size 1.27 1.27)
					)
					(hide yes)
				)
			)
			(property "Datasheet" "~"
				(at 0 0 0)
				(effects
					(font
						(size 1.27 1.27)
					)
					(hide yes)
				)
			)
			(property "Description" "Resistor"
				(at 0 0 0)
				(effects
					(font
						(size 1.27 1.27)
					)
					(hide yes)
				)
			)
			(property "ki_keywords" "R res resistor"
				(at 0 0 0)
				(effects
					(font
						(size 1.27 1.27)
					)
					(hide yes)
				)
			)
			(property "ki_fp_filters" "R_*"
				(at 0 0 0)
				(effects
					(font
						(size 1.27 1.27)
					)
					(hide yes)
				)
			)
			(symbol "R_0_1"
				(rectangle
					(start -1.016 -2.54)
					(end 1.016 2.54)
					(stroke
						(width 0.254)
						(type default)
					)
					(fill
						(type none)
					)
				)
			)
			(symbol "R_1_1"
				(pin passive line
					(at 0 3.81 270)
					(length 1.27)
					(name "~"
						(effects
							(font
								(size 1.27 1.27)
							)
						)
					)
					(number "1"
						(effects
							(font
								(size 1.27 1.27)
							)
						)
					)
				)
				(pin passive line
					(at 0 -3.81 90)
					(length 1.27)
					(name "~"
						(effects
							(font
								(size 1.27 1.27)
							)
						)
					)
					(number "2"
						(effects
							(font
								(size 1.27 1.27)
							)
						)
					)
				)
			)
		)
		(symbol "Regulator_Linear:L7805"
			(pin_names
				(offset 0.254)
			)
			(exclude_from_sim no)
			(in_bom yes)
			(on_board yes)
			(property "Reference" "U"
				(at -3.81 3.175 0)
				(effects
					(font
						(size 1.27 1.27)
					)
				)
			)
			(property "Value" "L7805"
				(at 0 3.175 0)
				(effects
					(font
						(size 1.27 1.27)
					)
					(justify left)
				)
			)
			(property "Footprint" ""
				(at 0.635 -3.81 0)
				(effects
					(font
						(size 1.27 1.27)
						(italic yes)
					)
					(justify left)
					(hide yes)
				)
			)
			(property "Datasheet" "http://www.st.com/content/ccc/resource/technical/document/datasheet/41/4f/b3/b0/12/d4/47/88/CD00000444.pdf/files/CD00000444.pdf/jcr:content/translations/en.CD00000444.pdf"
				(at 0 -1.27 0)
				(effects
					(font
						(size 1.27 1.27)
					)
					(hide yes)
				)
			)
			(property "Description" "Positive 1.5A 35V Linear Regulator, Fixed Output 5V, TO-220/TO-263/TO-252"
				(at 0 0 0)
				(effects
					(font
						(size 1.27 1.27)
					)
					(hide yes)
				)
			)
			(property "ki_keywords" "Voltage Regulator 1.5A Positive"
				(at 0 0 0)
				(effects
					(font
						(size 1.27 1.27)
					)
					(hide yes)
				)
			)
			(property "ki_fp_filters" "TO?252* TO?263* TO?220*"
				(at 0 0 0)
				(effects
					(font
						(size 1.27 1.27)
					)
					(hide yes)
				)
			)
			(symbol "L7805_0_1"
				(rectangle
					(start -5.08 1.905)
					(end 5.08 -5.08)
					(stroke
						(width 0.254)
						(type default)
					)
					(fill
						(type background)
					)
				)
			)
			(symbol "L7805_1_1"
				(pin power_in line
					(at -7.62 0 0)
					(length 2.54)
					(name "IN"
						(effects
							(font
								(size 1.27 1.27)
							)
						)
					)
					(number "1"
						(effects
							(font
								(size 1.27 1.27)
							)
						)
					)
				)
				(pin power_in line
					(at 0 -7.62 90)
					(length 2.54)
					(name "GND"
						(effects
							(font
								(size 1.27 1.27)
							)
						)
					)
					(number "2"
						(effects
							(font
								(size 1.27 1.27)
							)
						)
					)
				)
				(pin power_out line
					(at 7.62 0 180)
					(length 2.54)
					(name "OUT"
						(effects
							(font
								(size 1.27 1.27)
							)
						)
					)
					(number "3"
						(effects
							(font
								(size 1.27 1.27)
							)
						)
					)
				)
			)
		)
		(symbol "Regulator_Switching:MC34063AD"
			(exclude_from_sim no)
			(in_bom yes)
			(on_board yes)
			(property "Reference" "U"
				(at -7.62 8.89 0)
				(effects
					(font
						(size 1.27 1.27)
					)
					(justify left)
				)
			)
			(property "Value" "MC34063AD"
				(at 0 8.89 0)
				(effects
					(font
						(size 1.27 1.27)
					)
					(justify left)
				)
			)
			(property "Footprint" "Package_SO:SOIC-8_3.9x4.9mm_P1.27mm"
				(at 1.27 -11.43 0)
				(effects
					(font
						(size 1.27 1.27)
					)
					(justify left)
					(hide yes)
				)
			)
			(property "Datasheet" "http://www.onsemi.com/pub_link/Collateral/MC34063A-D.PDF"
				(at 12.7 -2.54 0)
				(effects
					(font
						(size 1.27 1.27)
					)
					(hide yes)
				)
			)
			(property "Description" "1.5A, step-up/down/inverting switching regulator, 3-40V Vin, 100kHz, SO-8"
				(at 0 0 0)
				(effects
					(font
						(size 1.27 1.27)
					)
					(hide yes)
				)
			)
			(property "ki_keywords" "smps buck boost inverting"
				(at 0 0 0)
				(effects
					(font
						(size 1.27 1.27)
					)
					(hide yes)
				)
			)
			(property "ki_fp_filters" "SOIC*3.9x4.9mm*P1.27mm*"
				(at 0 0 0)
				(effects
					(font
						(size 1.27 1.27)
					)
					(hide yes)
				)
			)
			(symbol "MC34063AD_0_1"
				(rectangle
					(start -7.62 7.62)
					(end 7.62 -10.16)
					(stroke
						(width 0.254)
						(type default)
					)
					(fill
						(type background)
					)
				)
			)
			(symbol "MC34063AD_1_1"
				(pin open_collector line
					(at 10.16 0 180)
					(length 2.54)
					(name "SwC"
						(effects
							(font
								(size 1.27 1.27)
							)
						)
					)
					(number "1"
						(effects
							(font
								(size 1.27 1.27)
							)
						)
					)
				)
				(pin open_emitter line
					(at 10.16 -5.08 180)
					(length 2.54)
					(name "SwE"
						(effects
							(font
								(size 1.27 1.27)
							)
						)
					)
					(number "2"
						(effects
							(font
								(size 1.27 1.27)
							)
						)
					)
				)
				(pin passive line
					(at -10.16 -5.08 0)
					(length 2.54)
					(name "TC"
						(effects
							(font
								(size 1.27 1.27)
							)
						)
					)
					(number "3"
						(effects
							(font
								(size 1.27 1.27)
							)
						)
					)
				)
				(pin power_in line
					(at 0 -12.7 90)
					(length 2.54)
					(name "GND"
						(effects
							(font
								(size 1.27 1.27)
							)
						)
					)
					(number "4"
						(effects
							(font
								(size 1.27 1.27)
							)
						)
					)
				)
				(pin input line
					(at 10.16 -7.62 180)
					(length 2.54)
					(name "Vfb"
						(effects
							(font
								(size 1.27 1.27)
							)
						)
					)
					(number "5"
						(effects
							(font
								(size 1.27 1.27)
							)
						)
					)
				)
				(pin power_in line
					(at -10.16 5.08 0)
					(length 2.54)
					(name "Vin"
						(effects
							(font
								(size 1.27 1.27)
							)
						)
					)
					(number "6"
						(effects
							(font
								(size 1.27 1.27)
							)
						)
					)
				)
				(pin input line
					(at 10.16 5.08 180)
					(length 2.54)
					(name "Ipk"
						(effects
							(font
								(size 1.27 1.27)
							)
						)
					)
					(number "7"
						(effects
							(font
								(size 1.27 1.27)
							)
						)
					)
				)
				(pin open_collector line
					(at 10.16 2.54 180)
					(length 2.54)
					(name "DC"
						(effects
							(font
								(size 1.27 1.27)
							)
						)
					)
					(number "8"
						(effects
							(font
								(size 1.27 1.27)
							)
						)
					)
				)
			)
		)
		(symbol "power:+9V"
			(power)
			(pin_names
				(offset 0)
			)
			(exclude_from_sim no)
			(in_bom yes)
			(on_board yes)
			(property "Reference" "#PWR"
				(at 0 -3.81 0)
				(effects
					(font
						(size 1.27 1.27)
					)
					(hide yes)
				)
			)
			(property "Value" "+9V"
				(at 0 3.556 0)
				(effects
					(font
						(size 1.27 1.27)
					)
				)
			)
			(property "Footprint" ""
				(at 0 0 0)
				(effects
					(font
						(size 1.27 1.27)
					)
					(hide yes)
				)
			)
			(property "Datasheet" ""
				(at 0 0 0)
				(effects
					(font
						(size 1.27 1.27)
					)
					(hide yes)
				)
			)
			(property "Description" "Power symbol creates a global label with name \"+9V\""
				(at 0 0 0)
				(effects
					(font
						(size 1.27 1.27)
					)
					(hide yes)
				)
			)
			(property "ki_keywords" "global power"
				(at 0 0 0)
				(effects
					(font
						(size 1.27 1.27)
					)
					(hide yes)
				)
			)
			(symbol "+9V_0_1"
				(polyline
					(pts
						(xy -0.762 1.27) (xy 0 2.54)
					)
					(stroke
						(width 0)
						(type default)
					)
					(fill
						(type none)
					)
				)
				(polyline
					(pts
						(xy 0 0) (xy 0 2.54)
					)
					(stroke
						(width 0)
						(type default)
					)
					(fill
						(type none)
					)
				)
				(polyline
					(pts
						(xy 0 2.54) (xy 0.762 1.27)
					)
					(stroke
						(width 0)
						(type default)
					)
					(fill
						(type none)
					)
				)
			)
			(symbol "+9V_1_1"
				(pin power_in line
					(at 0 0 90)
					(length 0) hide
					(name "+9V"
						(effects
							(font
								(size 1.27 1.27)
							)
						)
					)
					(number "1"
						(effects
							(font
								(size 1.27 1.27)
							)
						)
					)
				)
			)
		)
		(symbol "power:GND"
			(power)
			(pin_names
				(offset 0)
			)
			(exclude_from_sim no)
			(in_bom yes)
			(on_board yes)
			(property "Reference" "#PWR"
				(at 0 -6.35 0)
				(effects
					(font
						(size 1.27 1.27)
					)
					(hide yes)
				)
			)
			(property "Value" "GND"
				(at 0 -3.81 0)
				(effects
					(font
						(size 1.27 1.27)
					)
				)
			)
			(property "Footprint" ""
				(at 0 0 0)
				(effects
					(font
						(size 1.27 1.27)
					)
					(hide yes)
				)
			)
			(property "Datasheet" ""
				(at 0 0 0)
				(effects
					(font
						(size 1.27 1.27)
					)
					(hide yes)
				)
			)
			(property "Description" "Power symbol creates a global label with name \"GND\" , ground"
				(at 0 0 0)
				(effects
					(font
						(size 1.27 1.27)
					)
					(hide yes)
				)
			)
			(property "ki_keywords" "global power"
				(at 0 0 0)
				(effects
					(font
						(size 1.27 1.27)
					)
					(hide yes)
				)
			)
			(symbol "GND_0_1"
				(polyline
					(pts
						(xy 0 0) (xy 0 -1.27) (xy 1.27 -1.27) (xy 0 -2.54) (xy -1.27 -1.27) (xy 0 -1.27)
					)
					(stroke
						(width 0)
						(type default)
					)
					(fill
						(type none)
					)
				)
			)
			(symbol "GND_1_1"
				(pin power_in line
					(at 0 0 270)
					(length 0) hide
					(name "GND"
						(effects
							(font
								(size 1.27 1.27)
							)
						)
					)
					(number "1"
						(effects
							(font
								(size 1.27 1.27)
							)
						)
					)
				)
			)
		)
		(symbol "power:PWR_FLAG"
			(power)
			(pin_numbers hide)
			(pin_names
				(offset 0) hide)
			(exclude_from_sim no)
			(in_bom yes)
			(on_board yes)
			(property "Reference" "#FLG"
				(at 0 1.905 0)
				(effects
					(font
						(size 1.27 1.27)
					)
					(hide yes)
				)
			)
			(property "Value" "PWR_FLAG"
				(at 0 3.81 0)
				(effects
					(font
						(size 1.27 1.27)
					)
				)
			)
			(property "Footprint" ""
				(at 0 0 0)
				(effects
					(font
						(size 1.27 1.27)
					)
					(hide yes)
				)
			)
			(property "Datasheet" "~"
				(at 0 0 0)
				(effects
					(font
						(size 1.27 1.27)
					)
					(hide yes)
				)
			)
			(property "Description" "Special symbol for telling ERC where power comes from"
				(at 0 0 0)
				(effects
					(font
						(size 1.27 1.27)
					)
					(hide yes)
				)
			)
			(property "ki_keywords" "flag power"
				(at 0 0 0)
				(effects
					(font
						(size 1.27 1.27)
					)
					(hide yes)
				)
			)
			(symbol "PWR_FLAG_0_0"
				(pin power_out line
					(at 0 0 90)
					(length 0)
					(name "pwr"
						(effects
							(font
								(size 1.27 1.27)
							)
						)
					)
					(number "1"
						(effects
							(font
								(size 1.27 1.27)
							)
						)
					)
				)
			)
			(symbol "PWR_FLAG_0_1"
				(polyline
					(pts
						(xy 0 0) (xy 0 1.27) (xy -1.016 1.905) (xy 0 2.54) (xy 1.016 1.905) (xy 0 1.27)
					)
					(stroke
						(width 0)
						(type default)
					)
					(fill
						(type none)
					)
				)
			)
		)
	)
	(junction
		(at 173.99 72.39)
		(diameter 0)
		(color 0 0 0 0)
		(uuid "02c57c53-708d-44ce-b988-1d8e85744215")
	)
	(junction
		(at 152.4 72.39)
		(diameter 0)
		(color 0 0 0 0)
		(uuid "0ae4ecd7-9aab-4e5a-b5a3-65a8d877e0df")
	)
	(junction
		(at 92.71 104.14)
		(diameter 0)
		(color 0 0 0 0)
		(uuid "1a47e3bc-9579-4512-96e0-82e19461a26d")
	)
	(junction
		(at 133.35 38.1)
		(diameter 0)
		(color 0 0 0 0)
		(uuid "2692ee2a-4321-4f4e-ad76-346660add242")
	)
	(junction
		(at 127 72.39)
		(diameter 0)
		(color 0 0 0 0)
		(uuid "36450c5b-65c2-448c-85bb-ff120ae444ef")
	)
	(junction
		(at 115.57 87.63)
		(diameter 0)
		(color 0 0 0 0)
		(uuid "4b76894b-3ba9-40e9-ac0e-dd31ff7e6ee4")
	)
	(junction
		(at 160.02 38.1)
		(diameter 0)
		(color 0 0 0 0)
		(uuid "55a689df-d01e-4d73-8618-614932de63a7")
	)
	(junction
		(at 144.78 72.39)
		(diameter 0)
		(color 0 0 0 0)
		(uuid "764bf3ca-6025-498b-9743-06d9cf0352f0")
	)
	(junction
		(at 93.98 60.96)
		(diameter 0)
		(color 0 0 0 0)
		(uuid "a1077941-1b75-4f57-b7b9-e1e40e1fdb7e")
	)
	(junction
		(at 115.57 85.09)
		(diameter 0)
		(color 0 0 0 0)
		(uuid "b9f14520-8d6f-412f-911c-f5b92158df19")
	)
	(junction
		(at 104.14 60.96)
		(diameter 0)
		(color 0 0 0 0)
		(uuid "ba0da7b0-9d57-48fc-b82c-90e41dfb357a")
	)
	(junction
		(at 144.78 97.79)
		(diameter 0)
		(color 0 0 0 0)
		(uuid "daf8e282-46b0-44ec-95a0-c9d54dbc0998")
	)
	(junction
		(at 146.05 50.8)
		(diameter 0)
		(color 0 0 0 0)
		(uuid "e2605ae2-12fb-4de6-a0ed-83d20737974a")
	)
	(wire
		(pts
			(xy 146.05 50.8) (xy 160.02 50.8)
		)
		(stroke
			(width 0)
			(type default)
		)
		(uuid "0245d00d-7df9-44a9-a15a-e553549458b0")
	)
	(wire
		(pts
			(xy 92.71 104.14) (xy 101.6 104.14)
		)
		(stroke
			(width 0)
			(type default)
		)
		(uuid "06e1c68d-a05e-46e6-b605-45351c21b24c")
	)
	(wire
		(pts
			(xy 115.57 90.17) (xy 115.57 87.63)
		)
		(stroke
			(width 0)
			(type default)
		)
		(uuid "0955e024-a773-47ca-b335-12cb78fe89a5")
	)
	(wire
		(pts
			(xy 76.2 82.55) (xy 76.2 85.09)
		)
		(stroke
			(width 0)
			(type default)
		)
		(uuid "0b2cb739-1184-4071-83d2-072d89d78e01")
	)
	(wire
		(pts
			(xy 127 72.39) (xy 127 74.93)
		)
		(stroke
			(width 0)
			(type default)
		)
		(uuid "0c76df40-4a9a-4246-8992-6a066694ff3a")
	)
	(wire
		(pts
			(xy 76.2 85.09) (xy 91.44 85.09)
		)
		(stroke
			(width 0)
			(type default)
		)
		(uuid "1a5c6f75-0809-42d2-9c14-4276673d20c2")
	)
	(wire
		(pts
			(xy 160.02 50.8) (xy 160.02 48.26)
		)
		(stroke
			(width 0)
			(type default)
		)
		(uuid "1bdd72e9-470f-411e-984d-bc72216ce24b")
	)
	(wire
		(pts
			(xy 146.05 50.8) (xy 146.05 45.72)
		)
		(stroke
			(width 0)
			(type default)
		)
		(uuid "1c1e1db9-e2d0-45a9-866d-58c0c40035ea")
	)
	(wire
		(pts
			(xy 91.44 95.25) (xy 85.09 95.25)
		)
		(stroke
			(width 0)
			(type default)
		)
		(uuid "20e047c3-96af-4ad5-ac82-73bc01053d84")
	)
	(wire
		(pts
			(xy 167.64 72.39) (xy 173.99 72.39)
		)
		(stroke
			(width 0)
			(type default)
		)
		(uuid "287a9d62-0260-4076-aa41-8c44f71282c5")
	)
	(wire
		(pts
			(xy 127 72.39) (xy 132.08 72.39)
		)
		(stroke
			(width 0)
			(type default)
		)
		(uuid "298ed308-4e33-4b2f-acd3-7d81f161b4c2")
	)
	(wire
		(pts
			(xy 152.4 72.39) (xy 152.4 74.93)
		)
		(stroke
			(width 0)
			(type default)
		)
		(uuid "3200ec73-9394-4635-aef2-1fad3d0df08d")
	)
	(wire
		(pts
			(xy 152.4 72.39) (xy 160.02 72.39)
		)
		(stroke
			(width 0)
			(type default)
		)
		(uuid "33ff659f-c33e-44f8-b7e0-824c2365686d")
	)
	(wire
		(pts
			(xy 127 83.82) (xy 127 82.55)
		)
		(stroke
			(width 0)
			(type default)
		)
		(uuid "3966f718-27fb-41f8-b6ab-a477edf8ca26")
	)
	(wire
		(pts
			(xy 160.02 38.1) (xy 166.37 38.1)
		)
		(stroke
			(width 0)
			(type default)
		)
		(uuid "43f4a088-9c6d-4e15-91a9-186172f6c9fe")
	)
	(wire
		(pts
			(xy 133.35 50.8) (xy 146.05 50.8)
		)
		(stroke
			(width 0)
			(type default)
		)
		(uuid "532f816b-5113-441c-ac9f-1f9b7b05d628")
	)
	(wire
		(pts
			(xy 139.7 72.39) (xy 144.78 72.39)
		)
		(stroke
			(width 0)
			(type default)
		)
		(uuid "582e9ab0-e6a5-4fd4-bb82-2990f5e0c708")
	)
	(wire
		(pts
			(xy 128.27 38.1) (xy 133.35 38.1)
		)
		(stroke
			(width 0)
			(type default)
		)
		(uuid "58de5a75-56bb-4283-ad78-f1e51dd4bbb6")
	)
	(wire
		(pts
			(xy 173.99 82.55) (xy 173.99 85.09)
		)
		(stroke
			(width 0)
			(type default)
		)
		(uuid "6170a308-9a9f-436a-ada2-34d068fb9513")
	)
	(wire
		(pts
			(xy 152.4 83.82) (xy 152.4 82.55)
		)
		(stroke
			(width 0)
			(type default)
		)
		(uuid "632126b5-3e93-40e8-aefe-d88dcb11fbb5")
	)
	(wire
		(pts
			(xy 104.14 60.96) (xy 115.57 60.96)
		)
		(stroke
			(width 0)
			(type default)
		)
		(uuid "63999ab2-831e-46cb-a36f-16a1b3846a5f")
	)
	(wire
		(pts
			(xy 133.35 38.1) (xy 138.43 38.1)
		)
		(stroke
			(width 0)
			(type default)
		)
		(uuid "68f141d7-13ad-4b74-b6e5-ce89a03217e9")
	)
	(wire
		(pts
			(xy 133.35 40.64) (xy 133.35 38.1)
		)
		(stroke
			(width 0)
			(type default)
		)
		(uuid "79167333-f3c8-460f-be32-16f602e56acf")
	)
	(wire
		(pts
			(xy 173.99 72.39) (xy 173.99 74.93)
		)
		(stroke
			(width 0)
			(type default)
		)
		(uuid "83768a5a-7929-4ec1-97fa-adeb2c934bb9")
	)
	(wire
		(pts
			(xy 146.05 52.07) (xy 146.05 50.8)
		)
		(stroke
			(width 0)
			(type default)
		)
		(uuid "8497411b-ed1a-4022-8f55-35d090502546")
	)
	(wire
		(pts
			(xy 111.76 97.79) (xy 144.78 97.79)
		)
		(stroke
			(width 0)
			(type default)
		)
		(uuid "8a3d7012-0a4d-4bf5-b5cc-20a83c17267e")
	)
	(wire
		(pts
			(xy 144.78 72.39) (xy 152.4 72.39)
		)
		(stroke
			(width 0)
			(type default)
		)
		(uuid "901320d4-defb-49b3-a13b-e39c17daec48")
	)
	(wire
		(pts
			(xy 173.99 67.31) (xy 173.99 72.39)
		)
		(stroke
			(width 0)
			(type default)
		)
		(uuid "91244e31-4d53-4432-be11-b68bc563ee23")
	)
	(wire
		(pts
			(xy 115.57 60.96) (xy 115.57 85.09)
		)
		(stroke
			(width 0)
			(type default)
		)
		(uuid "92a342af-82c0-46ec-abbb-2ecfad59949d")
	)
	(wire
		(pts
			(xy 93.98 60.96) (xy 104.14 60.96)
		)
		(stroke
			(width 0)
			(type default)
		)
		(uuid "9a4571a0-05ec-4ac9-9434-5e83a8a2fa79")
	)
	(wire
		(pts
			(xy 85.09 104.14) (xy 92.71 104.14)
		)
		(stroke
			(width 0)
			(type default)
		)
		(uuid "9b2d00a6-4fc5-4578-a4d8-9b7c9a9cf6b9")
	)
	(wire
		(pts
			(xy 101.6 104.14) (xy 101.6 102.87)
		)
		(stroke
			(width 0)
			(type default)
		)
		(uuid "a508ad1b-3231-4c05-8d98-1a37e4e8d674")
	)
	(wire
		(pts
			(xy 111.76 95.25) (xy 120.65 95.25)
		)
		(stroke
			(width 0)
			(type default)
		)
		(uuid "a81c71e8-6150-4e23-ac9c-40b072b049dc")
	)
	(wire
		(pts
			(xy 115.57 87.63) (xy 115.57 85.09)
		)
		(stroke
			(width 0)
			(type default)
		)
		(uuid "a94f4331-c3aa-4811-89f2-bbd5c0fb73ae")
	)
	(wire
		(pts
			(xy 111.76 90.17) (xy 115.57 90.17)
		)
		(stroke
			(width 0)
			(type default)
		)
		(uuid "acff622f-28cf-49a1-9c5a-f0d019bf5f50")
	)
	(wire
		(pts
			(xy 160.02 38.1) (xy 160.02 40.64)
		)
		(stroke
			(width 0)
			(type default)
		)
		(uuid "ad518943-ec25-4296-ab44-97e9e9948768")
	)
	(wire
		(pts
			(xy 144.78 106.68) (xy 144.78 109.22)
		)
		(stroke
			(width 0)
			(type default)
		)
		(uuid "b3476af6-4e66-40c4-bb08-e897737d8991")
	)
	(wire
		(pts
			(xy 144.78 96.52) (xy 144.78 97.79)
		)
		(stroke
			(width 0)
			(type default)
		)
		(uuid "b3acd7dd-03ff-4037-bbf9-d284c28c68d0")
	)
	(wire
		(pts
			(xy 120.65 72.39) (xy 127 72.39)
		)
		(stroke
			(width 0)
			(type default)
		)
		(uuid "b712703d-e1f9-435c-8282-de0648cdf30b")
	)
	(wire
		(pts
			(xy 93.98 54.61) (xy 93.98 60.96)
		)
		(stroke
			(width 0)
			(type default)
		)
		(uuid "bc9cca17-d0ae-4490-876b-dee72ce3e1b3")
	)
	(wire
		(pts
			(xy 111.76 85.09) (xy 115.57 85.09)
		)
		(stroke
			(width 0)
			(type default)
		)
		(uuid "bd08bb25-548e-458c-b9fa-ce83861884a0")
	)
	(wire
		(pts
			(xy 92.71 104.14) (xy 92.71 107.95)
		)
		(stroke
			(width 0)
			(type default)
		)
		(uuid "cabc375f-e52c-4cdb-a97e-8e1e2c8316e8")
	)
	(wire
		(pts
			(xy 85.09 95.25) (xy 85.09 96.52)
		)
		(stroke
			(width 0)
			(type default)
		)
		(uuid "cecf321d-a78d-41cd-8e62-1f2800ffabf7")
	)
	(wire
		(pts
			(xy 144.78 72.39) (xy 144.78 88.9)
		)
		(stroke
			(width 0)
			(type default)
		)
		(uuid "d8165dc0-8a88-4664-9088-172f53ff5bde")
	)
	(wire
		(pts
			(xy 120.65 72.39) (xy 120.65 95.25)
		)
		(stroke
			(width 0)
			(type default)
		)
		(uuid "db36ee1a-acd1-448e-b1a7-75efea44f55b")
	)
	(wire
		(pts
			(xy 153.67 38.1) (xy 160.02 38.1)
		)
		(stroke
			(width 0)
			(type default)
		)
		(uuid "e554d7bd-be6c-4fe6-946c-d9ef84b9b16d")
	)
	(wire
		(pts
			(xy 111.76 87.63) (xy 115.57 87.63)
		)
		(stroke
			(width 0)
			(type default)
		)
		(uuid "f0efcb01-9abc-4711-8776-89c56e0ee7f5")
	)
	(wire
		(pts
			(xy 144.78 97.79) (xy 144.78 99.06)
		)
		(stroke
			(width 0)
			(type default)
		)
		(uuid "f2728de4-ee2d-46da-9982-787dc1cfb9b2")
	)
	(wire
		(pts
			(xy 133.35 50.8) (xy 133.35 48.26)
		)
		(stroke
			(width 0)
			(type default)
		)
		(uuid "f5ff649a-cf9b-44e9-8b57-7edf833867d2")
	)
	(label "9V_NF"
		(at 147.32 72.39 0)
		(fields_autoplaced yes)
		(effects
			(font
				(size 1.27 1.27)
			)
			(justify left bottom)
		)
		(uuid "0a1f0735-3f2a-4448-b497-df4f6787c522")
	)
	(label "SW_L"
		(at 120.65 72.39 0)
		(fields_autoplaced yes)
		(effects
			(font
				(size 1.27 1.27)
			)
			(justify left bottom)
		)
		(uuid "4fb49e20-0bdf-4197-93ed-ae3b8d54c71c")
	)
	(hierarchical_label "+5V"
		(shape input)
		(at 166.37 38.1 0)
		(fields_autoplaced yes)
		(effects
			(font
				(size 1.27 1.27)
			)
			(justify left)
		)
		(uuid "0a044f34-2139-4380-8d5a-7c7fefa4889d")
	)
	(hierarchical_label "VIN"
		(shape input)
		(at 93.98 54.61 90)
		(fields_autoplaced yes)
		(effects
			(font
				(size 1.27 1.27)
			)
			(justify left)
		)
		(uuid "6d6cadda-daa1-40e2-9ff9-874c6603add9")
	)
	(hierarchical_label "VIN"
		(shape input)
		(at 76.2 82.55 90)
		(fields_autoplaced yes)
		(effects
			(font
				(size 1.27 1.27)
			)
			(justify left)
		)
		(uuid "c02ef4d8-c68e-469e-8141-583ed99c4874")
	)
	(hierarchical_label "+9V"
		(shape input)
		(at 173.99 67.31 90)
		(fields_autoplaced yes)
		(effects
			(font
				(size 1.27 1.27)
			)
			(justify left)
		)
		(uuid "ef0eb4a9-ed7a-4a6d-9fb8-007237bc0479")
	)
	(symbol
		(lib_id "power:GND")
		(at 144.78 109.22 0)
		(unit 1)
		(exclude_from_sim no)
		(in_bom yes)
		(on_board yes)
		(dnp no)
		(fields_autoplaced yes)
		(uuid "041eaf92-adea-4eb1-ace5-a95927c9f3cf")
		(property "Reference" "#PWR014"
			(at 144.78 115.57 0)
			(effects
				(font
					(size 1.27 1.27)
				)
				(hide yes)
			)
		)
		(property "Value" "GND"
			(at 144.78 114.3 0)
			(effects
				(font
					(size 1.27 1.27)
				)
			)
		)
		(property "Footprint" ""
			(at 144.78 109.22 0)
			(effects
				(font
					(size 1.27 1.27)
				)
				(hide yes)
			)
		)
		(property "Datasheet" ""
			(at 144.78 109.22 0)
			(effects
				(font
					(size 1.27 1.27)
				)
				(hide yes)
			)
		)
		(property "Description" ""
			(at 144.78 109.22 0)
			(effects
				(font
					(size 1.27 1.27)
				)
				(hide yes)
			)
		)
		(pin "1"
			(uuid "c2afc077-d941-44e9-937d-5cd4cb67e5be")
		)
		(instances
			(project "lesson_13"
				(path "/e6a6ad6f-84c3-445c-9666-4af97280d88e/513d6395-526a-49e9-b4e8-3f969214a5ed"
					(reference "#PWR014")
					(unit 1)
				)
			)
		)
	)
	(symbol
		(lib_id "power:GND")
		(at 127 83.82 0)
		(unit 1)
		(exclude_from_sim no)
		(in_bom yes)
		(on_board yes)
		(dnp no)
		(uuid "23199561-f8e7-4caa-9ea2-32ead63aff78")
		(property "Reference" "#PWR012"
			(at 127 90.17 0)
			(effects
				(font
					(size 1.27 1.27)
				)
				(hide yes)
			)
		)
		(property "Value" "GND"
			(at 130.81 86.36 0)
			(effects
				(font
					(size 1.27 1.27)
				)
			)
		)
		(property "Footprint" ""
			(at 127 83.82 0)
			(effects
				(font
					(size 1.27 1.27)
				)
				(hide yes)
			)
		)
		(property "Datasheet" ""
			(at 127 83.82 0)
			(effects
				(font
					(size 1.27 1.27)
				)
				(hide yes)
			)
		)
		(property "Description" ""
			(at 127 83.82 0)
			(effects
				(font
					(size 1.27 1.27)
				)
				(hide yes)
			)
		)
		(pin "1"
			(uuid "1ec36366-9d46-4108-be58-8ff2c218a147")
		)
		(instances
			(project "lesson_13"
				(path "/e6a6ad6f-84c3-445c-9666-4af97280d88e/513d6395-526a-49e9-b4e8-3f969214a5ed"
					(reference "#PWR012")
					(unit 1)
				)
			)
		)
	)
	(symbol
		(lib_id "Device:R")
		(at 144.78 102.87 180)
		(unit 1)
		(exclude_from_sim no)
		(in_bom yes)
		(on_board yes)
		(dnp no)
		(fields_autoplaced yes)
		(uuid "269d51c7-8ab6-4fa3-be46-4b5fd1921efd")
		(property "Reference" "R5"
			(at 147.32 101.6 0)
			(effects
				(font
					(size 1.27 1.27)
				)
				(justify right)
			)
		)
		(property "Value" "1k"
			(at 147.32 104.14 0)
			(effects
				(font
					(size 1.27 1.27)
				)
				(justify right)
			)
		)
		(property "Footprint" "Resistor_SMD:R_0402_1005Metric"
			(at 146.558 102.87 90)
			(effects
				(font
					(size 1.27 1.27)
				)
				(hide yes)
			)
		)
		(property "Datasheet" "~"
			(at 144.78 102.87 0)
			(effects
				(font
					(size 1.27 1.27)
				)
				(hide yes)
			)
		)
		(property "Description" ""
			(at 144.78 102.87 0)
			(effects
				(font
					(size 1.27 1.27)
				)
				(hide yes)
			)
		)
		(pin "2"
			(uuid "2195ebd7-ca5c-4ce9-aa0e-c6a7056a9db9")
		)
		(pin "1"
			(uuid "07f8e6df-c1d1-44d7-a719-646c4bb1a21b")
		)
		(instances
			(project "lesson_13"
				(path "/e6a6ad6f-84c3-445c-9666-4af97280d88e/513d6395-526a-49e9-b4e8-3f969214a5ed"
					(reference "R5")
					(unit 1)
				)
			)
		)
	)
	(symbol
		(lib_id "power:GND")
		(at 173.99 85.09 0)
		(unit 1)
		(exclude_from_sim no)
		(in_bom yes)
		(on_board yes)
		(dnp no)
		(uuid "32d65023-a133-4180-a1fb-fe3106bf3c0f")
		(property "Reference" "#PWR017"
			(at 173.99 91.44 0)
			(effects
				(font
					(size 1.27 1.27)
				)
				(hide yes)
			)
		)
		(property "Value" "GND"
			(at 177.8 87.63 0)
			(effects
				(font
					(size 1.27 1.27)
				)
			)
		)
		(property "Footprint" ""
			(at 173.99 85.09 0)
			(effects
				(font
					(size 1.27 1.27)
				)
				(hide yes)
			)
		)
		(property "Datasheet" ""
			(at 173.99 85.09 0)
			(effects
				(font
					(size 1.27 1.27)
				)
				(hide yes)
			)
		)
		(property "Description" ""
			(at 173.99 85.09 0)
			(effects
				(font
					(size 1.27 1.27)
				)
				(hide yes)
			)
		)
		(pin "1"
			(uuid "321b6ee8-ba9f-4f83-972a-8c438535578d")
		)
		(instances
			(project "lesson_13"
				(path "/e6a6ad6f-84c3-445c-9666-4af97280d88e/513d6395-526a-49e9-b4e8-3f969214a5ed"
					(reference "#PWR017")
					(unit 1)
				)
			)
		)
	)
	(symbol
		(lib_id "Device:C")
		(at 85.09 100.33 0)
		(unit 1)
		(exclude_from_sim no)
		(in_bom yes)
		(on_board yes)
		(dnp no)
		(fields_autoplaced yes)
		(uuid "45f11de7-10c6-4960-b898-894ad5f88278")
		(property "Reference" "C2"
			(at 88.9 99.06 0)
			(effects
				(font
					(size 1.27 1.27)
				)
				(justify left)
			)
		)
		(property "Value" "825p"
			(at 88.9 101.6 0)
			(effects
				(font
					(size 1.27 1.27)
				)
				(justify left)
			)
		)
		(property "Footprint" "Capacitor_SMD:C_0402_1005Metric"
			(at 86.0552 104.14 0)
			(effects
				(font
					(size 1.27 1.27)
				)
				(hide yes)
			)
		)
		(property "Datasheet" "~"
			(at 85.09 100.33 0)
			(effects
				(font
					(size 1.27 1.27)
				)
				(hide yes)
			)
		)
		(property "Description" ""
			(at 85.09 100.33 0)
			(effects
				(font
					(size 1.27 1.27)
				)
				(hide yes)
			)
		)
		(pin "2"
			(uuid "2733db4c-fd19-43b6-a69d-e7713a84c7f5")
		)
		(pin "1"
			(uuid "ab17863e-83d3-41da-b928-a82ce7c4900d")
		)
		(instances
			(project "lesson_13"
				(path "/e6a6ad6f-84c3-445c-9666-4af97280d88e/513d6395-526a-49e9-b4e8-3f969214a5ed"
					(reference "C2")
					(unit 1)
				)
			)
		)
	)
	(symbol
		(lib_id "Device:C_Polarized")
		(at 173.99 78.74 0)
		(unit 1)
		(exclude_from_sim no)
		(in_bom yes)
		(on_board yes)
		(dnp no)
		(fields_autoplaced yes)
		(uuid "4a9b3d6a-cd27-4b96-bc73-ebe1c9e1a539")
		(property "Reference" "C7"
			(at 177.8 76.581 0)
			(effects
				(font
					(size 1.27 1.27)
				)
				(justify left)
			)
		)
		(property "Value" "100u"
			(at 177.8 79.121 0)
			(effects
				(font
					(size 1.27 1.27)
				)
				(justify left)
			)
		)
		(property "Footprint" "Capacitor_SMD:CP_Elec_8x10"
			(at 174.9552 82.55 0)
			(effects
				(font
					(size 1.27 1.27)
				)
				(hide yes)
			)
		)
		(property "Datasheet" "~"
			(at 173.99 78.74 0)
			(effects
				(font
					(size 1.27 1.27)
				)
				(hide yes)
			)
		)
		(property "Description" ""
			(at 173.99 78.74 0)
			(effects
				(font
					(size 1.27 1.27)
				)
				(hide yes)
			)
		)
		(pin "1"
			(uuid "b0aa1ff6-7391-4e5c-a4f4-e54c158228b5")
		)
		(pin "2"
			(uuid "b052a7b7-e7de-4bf3-b33c-785c9bb1d93d")
		)
		(instances
			(project "lesson_13"
				(path "/e6a6ad6f-84c3-445c-9666-4af97280d88e/513d6395-526a-49e9-b4e8-3f969214a5ed"
					(reference "C7")
					(unit 1)
				)
			)
		)
	)
	(symbol
		(lib_id "Regulator_Linear:L7805")
		(at 146.05 38.1 0)
		(unit 1)
		(exclude_from_sim no)
		(in_bom yes)
		(on_board yes)
		(dnp no)
		(fields_autoplaced yes)
		(uuid "54528d44-e851-4bb2-b1c2-4d3bc86b6a91")
		(property "Reference" "U2"
			(at 146.05 31.75 0)
			(effects
				(font
					(size 1.27 1.27)
				)
			)
		)
		(property "Value" "L7805"
			(at 146.05 34.29 0)
			(effects
				(font
					(size 1.27 1.27)
				)
			)
		)
		(property "Footprint" "Package_TO_SOT_SMD:SOT-223"
			(at 146.685 41.91 0)
			(effects
				(font
					(size 1.27 1.27)
					(italic yes)
				)
				(justify left)
				(hide yes)
			)
		)
		(property "Datasheet" "http://www.st.com/content/ccc/resource/technical/document/datasheet/41/4f/b3/b0/12/d4/47/88/CD00000444.pdf/files/CD00000444.pdf/jcr:content/translations/en.CD00000444.pdf"
			(at 146.05 39.37 0)
			(effects
				(font
					(size 1.27 1.27)
				)
				(hide yes)
			)
		)
		(property "Description" ""
			(at 146.05 38.1 0)
			(effects
				(font
					(size 1.27 1.27)
				)
				(hide yes)
			)
		)
		(pin "2"
			(uuid "b5b01ca9-65b1-4fd0-bcab-5ac847242ddc")
		)
		(pin "3"
			(uuid "82ce1176-6707-4069-a63d-82448b245852")
		)
		(pin "1"
			(uuid "e73b64ba-6189-42b9-b02a-35658c274f28")
		)
		(instances
			(project "lesson_13"
				(path "/e6a6ad6f-84c3-445c-9666-4af97280d88e/513d6395-526a-49e9-b4e8-3f969214a5ed"
					(reference "U2")
					(unit 1)
				)
			)
		)
	)
	(symbol
		(lib_id "Device:L")
		(at 163.83 72.39 90)
		(unit 1)
		(exclude_from_sim no)
		(in_bom yes)
		(on_board yes)
		(dnp no)
		(fields_autoplaced yes)
		(uuid "59adb381-03e7-440c-8700-461f830c412a")
		(property "Reference" "L2"
			(at 163.83 67.31 90)
			(effects
				(font
					(size 1.27 1.27)
				)
			)
		)
		(property "Value" "330"
			(at 163.83 69.85 90)
			(effects
				(font
					(size 1.27 1.27)
				)
			)
		)
		(property "Footprint" "Inductor_SMD:L_6.3x6.3_H3"
			(at 163.83 72.39 0)
			(effects
				(font
					(size 1.27 1.27)
				)
				(hide yes)
			)
		)
		(property "Datasheet" "~"
			(at 163.83 72.39 0)
			(effects
				(font
					(size 1.27 1.27)
				)
				(hide yes)
			)
		)
		(property "Description" ""
			(at 163.83 72.39 0)
			(effects
				(font
					(size 1.27 1.27)
				)
				(hide yes)
			)
		)
		(pin "1"
			(uuid "d5696a8c-1891-49b9-a781-1571b2d879a9")
		)
		(pin "2"
			(uuid "515f52c1-43dc-45e3-96dd-395789c86bae")
		)
		(instances
			(project "lesson_13"
				(path "/e6a6ad6f-84c3-445c-9666-4af97280d88e/513d6395-526a-49e9-b4e8-3f969214a5ed"
					(reference "L2")
					(unit 1)
				)
			)
		)
	)
	(symbol
		(lib_id "power:GND")
		(at 177.8 111.76 0)
		(unit 1)
		(exclude_from_sim no)
		(in_bom yes)
		(on_board yes)
		(dnp no)
		(fields_autoplaced yes)
		(uuid "5e62c282-70a6-4ece-9e65-c72947b6d23c")
		(property "Reference" "#PWR031"
			(at 177.8 118.11 0)
			(effects
				(font
					(size 1.27 1.27)
				)
				(hide yes)
			)
		)
		(property "Value" "GND"
			(at 177.8 116.84 0)
			(effects
				(font
					(size 1.27 1.27)
				)
			)
		)
		(property "Footprint" ""
			(at 177.8 111.76 0)
			(effects
				(font
					(size 1.27 1.27)
				)
				(hide yes)
			)
		)
		(property "Datasheet" ""
			(at 177.8 111.76 0)
			(effects
				(font
					(size 1.27 1.27)
				)
				(hide yes)
			)
		)
		(property "Description" ""
			(at 177.8 111.76 0)
			(effects
				(font
					(size 1.27 1.27)
				)
				(hide yes)
			)
		)
		(pin "1"
			(uuid "bdb41079-0b40-4e14-a222-a130dbaf5202")
		)
		(instances
			(project "lesson_13"
				(path "/e6a6ad6f-84c3-445c-9666-4af97280d88e/513d6395-526a-49e9-b4e8-3f969214a5ed"
					(reference "#PWR031")
					(unit 1)
				)
			)
		)
	)
	(symbol
		(lib_id "power:PWR_FLAG")
		(at 177.8 111.76 0)
		(unit 1)
		(exclude_from_sim no)
		(in_bom yes)
		(on_board yes)
		(dnp no)
		(fields_autoplaced yes)
		(uuid "64783bbe-0b5a-458d-acfd-acf47bef49e3")
		(property "Reference" "#FLG03"
			(at 177.8 109.855 0)
			(effects
				(font
					(size 1.27 1.27)
				)
				(hide yes)
			)
		)
		(property "Value" "PWR_FLAG"
			(at 177.8 106.68 0)
			(effects
				(font
					(size 1.27 1.27)
				)
			)
		)
		(property "Footprint" ""
			(at 177.8 111.76 0)
			(effects
				(font
					(size 1.27 1.27)
				)
				(hide yes)
			)
		)
		(property "Datasheet" "~"
			(at 177.8 111.76 0)
			(effects
				(font
					(size 1.27 1.27)
				)
				(hide yes)
			)
		)
		(property "Description" ""
			(at 177.8 111.76 0)
			(effects
				(font
					(size 1.27 1.27)
				)
				(hide yes)
			)
		)
		(pin "1"
			(uuid "646aa406-6ac9-4d73-acd3-a0f330e09b35")
		)
		(instances
			(project "lesson_13"
				(path "/e6a6ad6f-84c3-445c-9666-4af97280d88e/513d6395-526a-49e9-b4e8-3f969214a5ed"
					(reference "#FLG03")
					(unit 1)
				)
			)
		)
	)
	(symbol
		(lib_id "Device:R")
		(at 144.78 92.71 180)
		(unit 1)
		(exclude_from_sim no)
		(in_bom yes)
		(on_board yes)
		(dnp no)
		(fields_autoplaced yes)
		(uuid "a013f388-44df-4a23-85c7-920597f62a4d")
		(property "Reference" "R4"
			(at 147.32 91.44 0)
			(effects
				(font
					(size 1.27 1.27)
				)
				(justify right)
			)
		)
		(property "Value" "6.2k"
			(at 147.32 93.98 0)
			(effects
				(font
					(size 1.27 1.27)
				)
				(justify right)
			)
		)
		(property "Footprint" "Resistor_SMD:R_0402_1005Metric"
			(at 146.558 92.71 90)
			(effects
				(font
					(size 1.27 1.27)
				)
				(hide yes)
			)
		)
		(property "Datasheet" "~"
			(at 144.78 92.71 0)
			(effects
				(font
					(size 1.27 1.27)
				)
				(hide yes)
			)
		)
		(property "Description" ""
			(at 144.78 92.71 0)
			(effects
				(font
					(size 1.27 1.27)
				)
				(hide yes)
			)
		)
		(pin "2"
			(uuid "dd57d65c-5469-4459-a0a9-1f9e91a1ab86")
		)
		(pin "1"
			(uuid "98a47dd9-9b6e-4c97-8fd6-77e928d47b5c")
		)
		(instances
			(project "lesson_13"
				(path "/e6a6ad6f-84c3-445c-9666-4af97280d88e/513d6395-526a-49e9-b4e8-3f969214a5ed"
					(reference "R4")
					(unit 1)
				)
			)
		)
	)
	(symbol
		(lib_id "power:PWR_FLAG")
		(at 173.99 72.39 270)
		(unit 1)
		(exclude_from_sim no)
		(in_bom yes)
		(on_board yes)
		(dnp no)
		(fields_autoplaced yes)
		(uuid "a8a73ae9-b670-4ca2-97ef-3409f7945486")
		(property "Reference" "#FLG01"
			(at 175.895 72.39 0)
			(effects
				(font
					(size 1.27 1.27)
				)
				(hide yes)
			)
		)
		(property "Value" "PWR_FLAG"
			(at 177.8 72.39 90)
			(effects
				(font
					(size 1.27 1.27)
				)
				(justify left)
			)
		)
		(property "Footprint" ""
			(at 173.99 72.39 0)
			(effects
				(font
					(size 1.27 1.27)
				)
				(hide yes)
			)
		)
		(property "Datasheet" "~"
			(at 173.99 72.39 0)
			(effects
				(font
					(size 1.27 1.27)
				)
				(hide yes)
			)
		)
		(property "Description" ""
			(at 173.99 72.39 0)
			(effects
				(font
					(size 1.27 1.27)
				)
				(hide yes)
			)
		)
		(pin "1"
			(uuid "61d1d070-00e7-49cf-b88a-086663189a4c")
		)
		(instances
			(project "lesson_13"
				(path "/e6a6ad6f-84c3-445c-9666-4af97280d88e/513d6395-526a-49e9-b4e8-3f969214a5ed"
					(reference "#FLG01")
					(unit 1)
				)
			)
		)
	)
	(symbol
		(lib_id "Device:C")
		(at 133.35 44.45 0)
		(unit 1)
		(exclude_from_sim no)
		(in_bom yes)
		(on_board yes)
		(dnp no)
		(uuid "a9db6989-8224-4848-959e-4e84739e8589")
		(property "Reference" "C4"
			(at 124.46 43.18 0)
			(effects
				(font
					(size 1.27 1.27)
				)
				(justify left)
			)
		)
		(property "Value" "0.33u"
			(at 124.46 45.72 0)
			(effects
				(font
					(size 1.27 1.27)
				)
				(justify left)
			)
		)
		(property "Footprint" "Capacitor_SMD:C_0603_1608Metric"
			(at 134.3152 48.26 0)
			(effects
				(font
					(size 1.27 1.27)
				)
				(hide yes)
			)
		)
		(property "Datasheet" "~"
			(at 133.35 44.45 0)
			(effects
				(font
					(size 1.27 1.27)
				)
				(hide yes)
			)
		)
		(property "Description" ""
			(at 133.35 44.45 0)
			(effects
				(font
					(size 1.27 1.27)
				)
				(hide yes)
			)
		)
		(pin "1"
			(uuid "10ef6ae8-5f2b-4843-af3e-fd449e10961a")
		)
		(pin "2"
			(uuid "7b552f7a-c5b1-4825-8813-5eb805f91e89")
		)
		(instances
			(project "lesson_13"
				(path "/e6a6ad6f-84c3-445c-9666-4af97280d88e/513d6395-526a-49e9-b4e8-3f969214a5ed"
					(reference "C4")
					(unit 1)
				)
			)
		)
	)
	(symbol
		(lib_id "Regulator_Switching:MC34063AD")
		(at 101.6 90.17 0)
		(unit 1)
		(exclude_from_sim no)
		(in_bom yes)
		(on_board yes)
		(dnp no)
		(uuid "b898e1ae-b8e4-4790-9161-d5c4758ac08c")
		(property "Reference" "U1"
			(at 101.6 77.47 0)
			(effects
				(font
					(size 1.27 1.27)
				)
			)
		)
		(property "Value" "MC34063AD"
			(at 101.6 80.01 0)
			(effects
				(font
					(size 1.27 1.27)
				)
			)
		)
		(property "Footprint" "Package_SO:SOIC-8_3.9x4.9mm_P1.27mm"
			(at 102.87 101.6 0)
			(effects
				(font
					(size 1.27 1.27)
				)
				(justify left)
				(hide yes)
			)
		)
		(property "Datasheet" "http://www.onsemi.com/pub_link/Collateral/MC34063A-D.PDF"
			(at 114.3 92.71 0)
			(effects
				(font
					(size 1.27 1.27)
				)
				(hide yes)
			)
		)
		(property "Description" ""
			(at 101.6 90.17 0)
			(effects
				(font
					(size 1.27 1.27)
				)
				(hide yes)
			)
		)
		(pin "1"
			(uuid "bfa4e143-7268-4293-b28e-7a829c0ebc9f")
		)
		(pin "2"
			(uuid "c154b50a-2719-4ab4-8b3c-e2c79a757f32")
		)
		(pin "3"
			(uuid "d2b587b5-da54-4a7c-a3a9-1843d0a59305")
		)
		(pin "4"
			(uuid "fa189a70-26c4-4717-96dc-bf91a8a94b42")
		)
		(pin "5"
			(uuid "54d74840-ae59-4a78-9df2-f95d87592dc4")
		)
		(pin "6"
			(uuid "a9b4ed5b-3c54-41d2-9879-a1880af59d8a")
		)
		(pin "8"
			(uuid "0c6f64b0-0548-472e-8fee-b8ac26fe8fb1")
		)
		(pin "7"
			(uuid "3768580a-7753-4bf0-8d9e-832c2f9ba21c")
		)
		(instances
			(project "lesson_13"
				(path "/e6a6ad6f-84c3-445c-9666-4af97280d88e/513d6395-526a-49e9-b4e8-3f969214a5ed"
					(reference "U1")
					(unit 1)
				)
			)
		)
	)
	(symbol
		(lib_id "Device:D_Schottky")
		(at 127 78.74 270)
		(unit 1)
		(exclude_from_sim no)
		(in_bom yes)
		(on_board yes)
		(dnp no)
		(fields_autoplaced yes)
		(uuid "becf8a75-cb2f-4798-af69-880066176dc8")
		(property "Reference" "D1"
			(at 129.54 77.1525 90)
			(effects
				(font
					(size 1.27 1.27)
				)
				(justify left)
			)
		)
		(property "Value" "SS34"
			(at 129.54 79.6925 90)
			(effects
				(font
					(size 1.27 1.27)
				)
				(justify left)
			)
		)
		(property "Footprint" "Diode_SMD:D_SMA"
			(at 127 78.74 0)
			(effects
				(font
					(size 1.27 1.27)
				)
				(hide yes)
			)
		)
		(property "Datasheet" "~"
			(at 127 78.74 0)
			(effects
				(font
					(size 1.27 1.27)
				)
				(hide yes)
			)
		)
		(property "Description" ""
			(at 127 78.74 0)
			(effects
				(font
					(size 1.27 1.27)
				)
				(hide yes)
			)
		)
		(pin "1"
			(uuid "a96b4f41-bd7b-467c-adac-7d33351d4f89")
		)
		(pin "2"
			(uuid "9d9eab4b-69bc-4b85-9d6e-a4f5011b3cb9")
		)
		(instances
			(project "lesson_13"
				(path "/e6a6ad6f-84c3-445c-9666-4af97280d88e/513d6395-526a-49e9-b4e8-3f969214a5ed"
					(reference "D1")
					(unit 1)
				)
			)
		)
	)
	(symbol
		(lib_id "Device:C_Polarized")
		(at 93.98 64.77 0)
		(unit 1)
		(exclude_from_sim no)
		(in_bom yes)
		(on_board yes)
		(dnp no)
		(uuid "c0e6f28f-d887-4f86-82c9-b79c9d626d79")
		(property "Reference" "C3"
			(at 86.36 63.5 0)
			(effects
				(font
					(size 1.27 1.27)
				)
				(justify left)
			)
		)
		(property "Value" "220u"
			(at 86.36 66.04 0)
			(effects
				(font
					(size 1.27 1.27)
				)
				(justify left)
			)
		)
		(property "Footprint" "Capacitor_SMD:CP_Elec_8x10"
			(at 94.9452 68.58 0)
			(effects
				(font
					(size 1.27 1.27)
				)
				(hide yes)
			)
		)
		(property "Datasheet" "~"
			(at 93.98 64.77 0)
			(effects
				(font
					(size 1.27 1.27)
				)
				(hide yes)
			)
		)
		(property "Description" ""
			(at 93.98 64.77 0)
			(effects
				(font
					(size 1.27 1.27)
				)
				(hide yes)
			)
		)
		(pin "1"
			(uuid "50a67671-1d6b-4436-8788-9bbf7c808a97")
		)
		(pin "2"
			(uuid "fe7a6e32-9104-4e9a-833f-d1b8a64b287b")
		)
		(instances
			(project "lesson_13"
				(path "/e6a6ad6f-84c3-445c-9666-4af97280d88e/513d6395-526a-49e9-b4e8-3f969214a5ed"
					(reference "C3")
					(unit 1)
				)
			)
		)
	)
	(symbol
		(lib_id "power:GND")
		(at 93.98 68.58 0)
		(unit 1)
		(exclude_from_sim no)
		(in_bom yes)
		(on_board yes)
		(dnp no)
		(uuid "c22cbec8-02aa-4c25-9c63-a03a5b958e89")
		(property "Reference" "#PWR011"
			(at 93.98 74.93 0)
			(effects
				(font
					(size 1.27 1.27)
				)
				(hide yes)
			)
		)
		(property "Value" "GND"
			(at 97.79 71.12 0)
			(effects
				(font
					(size 1.27 1.27)
				)
			)
		)
		(property "Footprint" ""
			(at 93.98 68.58 0)
			(effects
				(font
					(size 1.27 1.27)
				)
				(hide yes)
			)
		)
		(property "Datasheet" ""
			(at 93.98 68.58 0)
			(effects
				(font
					(size 1.27 1.27)
				)
				(hide yes)
			)
		)
		(property "Description" ""
			(at 93.98 68.58 0)
			(effects
				(font
					(size 1.27 1.27)
				)
				(hide yes)
			)
		)
		(pin "1"
			(uuid "b3e5499e-b4f8-4017-8bed-0352754d478e")
		)
		(instances
			(project "lesson_13"
				(path "/e6a6ad6f-84c3-445c-9666-4af97280d88e/513d6395-526a-49e9-b4e8-3f969214a5ed"
					(reference "#PWR011")
					(unit 1)
				)
			)
		)
	)
	(symbol
		(lib_id "Device:L")
		(at 135.89 72.39 90)
		(unit 1)
		(exclude_from_sim no)
		(in_bom yes)
		(on_board yes)
		(dnp no)
		(fields_autoplaced yes)
		(uuid "cbbfc0ae-b32c-45f9-b55b-1a1569dbe146")
		(property "Reference" "L1"
			(at 135.89 67.31 90)
			(effects
				(font
					(size 1.27 1.27)
				)
			)
		)
		(property "Value" "330"
			(at 135.89 69.85 90)
			(effects
				(font
					(size 1.27 1.27)
				)
			)
		)
		(property "Footprint" "Inductor_SMD:L_6.3x6.3_H3"
			(at 135.89 72.39 0)
			(effects
				(font
					(size 1.27 1.27)
				)
				(hide yes)
			)
		)
		(property "Datasheet" "~"
			(at 135.89 72.39 0)
			(effects
				(font
					(size 1.27 1.27)
				)
				(hide yes)
			)
		)
		(property "Description" ""
			(at 135.89 72.39 0)
			(effects
				(font
					(size 1.27 1.27)
				)
				(hide yes)
			)
		)
		(pin "1"
			(uuid "d479acdb-d6f3-4576-b685-3a4a48cbe403")
		)
		(pin "2"
			(uuid "a99d6453-1158-4cac-9688-bca530f8a681")
		)
		(instances
			(project "lesson_13"
				(path "/e6a6ad6f-84c3-445c-9666-4af97280d88e/513d6395-526a-49e9-b4e8-3f969214a5ed"
					(reference "L1")
					(unit 1)
				)
			)
		)
	)
	(symbol
		(lib_id "power:PWR_FLAG")
		(at 104.14 60.96 0)
		(unit 1)
		(exclude_from_sim no)
		(in_bom yes)
		(on_board yes)
		(dnp no)
		(fields_autoplaced yes)
		(uuid "dca63f23-734b-4cc4-a86e-f9a673367ee4")
		(property "Reference" "#FLG02"
			(at 104.14 59.055 0)
			(effects
				(font
					(size 1.27 1.27)
				)
				(hide yes)
			)
		)
		(property "Value" "PWR_FLAG"
			(at 104.14 55.88 0)
			(effects
				(font
					(size 1.27 1.27)
				)
			)
		)
		(property "Footprint" ""
			(at 104.14 60.96 0)
			(effects
				(font
					(size 1.27 1.27)
				)
				(hide yes)
			)
		)
		(property "Datasheet" "~"
			(at 104.14 60.96 0)
			(effects
				(font
					(size 1.27 1.27)
				)
				(hide yes)
			)
		)
		(property "Description" ""
			(at 104.14 60.96 0)
			(effects
				(font
					(size 1.27 1.27)
				)
				(hide yes)
			)
		)
		(pin "1"
			(uuid "cd2738be-3f6a-405e-96bc-0e08192b82a1")
		)
		(instances
			(project "lesson_13"
				(path "/e6a6ad6f-84c3-445c-9666-4af97280d88e/513d6395-526a-49e9-b4e8-3f969214a5ed"
					(reference "#FLG02")
					(unit 1)
				)
			)
		)
	)
	(symbol
		(lib_id "power:GND")
		(at 152.4 83.82 0)
		(unit 1)
		(exclude_from_sim no)
		(in_bom yes)
		(on_board yes)
		(dnp no)
		(uuid "e235c331-8bd6-40bf-b68e-2afe18538a8a")
		(property "Reference" "#PWR016"
			(at 152.4 90.17 0)
			(effects
				(font
					(size 1.27 1.27)
				)
				(hide yes)
			)
		)
		(property "Value" "GND"
			(at 156.21 86.36 0)
			(effects
				(font
					(size 1.27 1.27)
				)
			)
		)
		(property "Footprint" ""
			(at 152.4 83.82 0)
			(effects
				(font
					(size 1.27 1.27)
				)
				(hide yes)
			)
		)
		(property "Datasheet" ""
			(at 152.4 83.82 0)
			(effects
				(font
					(size 1.27 1.27)
				)
				(hide yes)
			)
		)
		(property "Description" ""
			(at 152.4 83.82 0)
			(effects
				(font
					(size 1.27 1.27)
				)
				(hide yes)
			)
		)
		(pin "1"
			(uuid "28050182-9735-402b-847c-1ad642560ca6")
		)
		(instances
			(project "lesson_13"
				(path "/e6a6ad6f-84c3-445c-9666-4af97280d88e/513d6395-526a-49e9-b4e8-3f969214a5ed"
					(reference "#PWR016")
					(unit 1)
				)
			)
		)
	)
	(symbol
		(lib_id "power:+9V")
		(at 128.27 38.1 90)
		(unit 1)
		(exclude_from_sim no)
		(in_bom yes)
		(on_board yes)
		(dnp no)
		(fields_autoplaced yes)
		(uuid "e5c033bc-ab09-4c2b-9b65-ba6ec506cb66")
		(property "Reference" "#PWR013"
			(at 132.08 38.1 0)
			(effects
				(font
					(size 1.27 1.27)
				)
				(hide yes)
			)
		)
		(property "Value" "+9V"
			(at 124.46 38.1 90)
			(effects
				(font
					(size 1.27 1.27)
				)
				(justify left)
			)
		)
		(property "Footprint" ""
			(at 128.27 38.1 0)
			(effects
				(font
					(size 1.27 1.27)
				)
				(hide yes)
			)
		)
		(property "Datasheet" ""
			(at 128.27 38.1 0)
			(effects
				(font
					(size 1.27 1.27)
				)
				(hide yes)
			)
		)
		(property "Description" ""
			(at 128.27 38.1 0)
			(effects
				(font
					(size 1.27 1.27)
				)
				(hide yes)
			)
		)
		(pin "1"
			(uuid "3a85ec9b-3cec-46f9-ab2e-1aff737079eb")
		)
		(instances
			(project "lesson_13"
				(path "/e6a6ad6f-84c3-445c-9666-4af97280d88e/513d6395-526a-49e9-b4e8-3f969214a5ed"
					(reference "#PWR013")
					(unit 1)
				)
			)
		)
	)
	(symbol
		(lib_id "Device:C_Polarized")
		(at 152.4 78.74 0)
		(unit 1)
		(exclude_from_sim no)
		(in_bom yes)
		(on_board yes)
		(dnp no)
		(fields_autoplaced yes)
		(uuid "e861bcc6-8234-4d59-8530-dad031005e57")
		(property "Reference" "C5"
			(at 156.21 76.581 0)
			(effects
				(font
					(size 1.27 1.27)
				)
				(justify left)
			)
		)
		(property "Value" "220u"
			(at 156.21 79.121 0)
			(effects
				(font
					(size 1.27 1.27)
				)
				(justify left)
			)
		)
		(property "Footprint" "Capacitor_SMD:CP_Elec_8x10"
			(at 153.3652 82.55 0)
			(effects
				(font
					(size 1.27 1.27)
				)
				(hide yes)
			)
		)
		(property "Datasheet" "~"
			(at 152.4 78.74 0)
			(effects
				(font
					(size 1.27 1.27)
				)
				(hide yes)
			)
		)
		(property "Description" ""
			(at 152.4 78.74 0)
			(effects
				(font
					(size 1.27 1.27)
				)
				(hide yes)
			)
		)
		(pin "1"
			(uuid "367917dd-44d5-4033-baaa-5f9e6e45ea6e")
		)
		(pin "2"
			(uuid "5e00396e-1341-4078-b4f4-bc2eacaa5b64")
		)
		(instances
			(project "lesson_13"
				(path "/e6a6ad6f-84c3-445c-9666-4af97280d88e/513d6395-526a-49e9-b4e8-3f969214a5ed"
					(reference "C5")
					(unit 1)
				)
			)
		)
	)
	(symbol
		(lib_id "Device:C")
		(at 160.02 44.45 0)
		(unit 1)
		(exclude_from_sim no)
		(in_bom yes)
		(on_board yes)
		(dnp no)
		(uuid "e97b6c87-b8ee-41a4-8657-01806258f510")
		(property "Reference" "C6"
			(at 163.83 43.18 0)
			(effects
				(font
					(size 1.27 1.27)
				)
				(justify left)
			)
		)
		(property "Value" "0.1u"
			(at 163.83 45.72 0)
			(effects
				(font
					(size 1.27 1.27)
				)
				(justify left)
			)
		)
		(property "Footprint" "Capacitor_SMD:C_0402_1005Metric"
			(at 160.9852 48.26 0)
			(effects
				(font
					(size 1.27 1.27)
				)
				(hide yes)
			)
		)
		(property "Datasheet" "~"
			(at 160.02 44.45 0)
			(effects
				(font
					(size 1.27 1.27)
				)
				(hide yes)
			)
		)
		(property "Description" ""
			(at 160.02 44.45 0)
			(effects
				(font
					(size 1.27 1.27)
				)
				(hide yes)
			)
		)
		(pin "1"
			(uuid "3fb15f9e-2f03-4c01-b005-38ec9f6208a5")
		)
		(pin "2"
			(uuid "eca9add2-9ed4-4568-9ac3-64fc9f793aaf")
		)
		(instances
			(project "lesson_13"
				(path "/e6a6ad6f-84c3-445c-9666-4af97280d88e/513d6395-526a-49e9-b4e8-3f969214a5ed"
					(reference "C6")
					(unit 1)
				)
			)
		)
	)
	(symbol
		(lib_id "power:GND")
		(at 146.05 52.07 0)
		(unit 1)
		(exclude_from_sim no)
		(in_bom yes)
		(on_board yes)
		(dnp no)
		(uuid "ec8d9481-8c8c-4f35-963d-1a8f4eb0be4b")
		(property "Reference" "#PWR015"
			(at 146.05 58.42 0)
			(effects
				(font
					(size 1.27 1.27)
				)
				(hide yes)
			)
		)
		(property "Value" "GND"
			(at 149.86 54.61 0)
			(effects
				(font
					(size 1.27 1.27)
				)
			)
		)
		(property "Footprint" ""
			(at 146.05 52.07 0)
			(effects
				(font
					(size 1.27 1.27)
				)
				(hide yes)
			)
		)
		(property "Datasheet" ""
			(at 146.05 52.07 0)
			(effects
				(font
					(size 1.27 1.27)
				)
				(hide yes)
			)
		)
		(property "Description" ""
			(at 146.05 52.07 0)
			(effects
				(font
					(size 1.27 1.27)
				)
				(hide yes)
			)
		)
		(pin "1"
			(uuid "cd9a479b-fb1e-419f-97a7-5756bd03f690")
		)
		(instances
			(project "lesson_13"
				(path "/e6a6ad6f-84c3-445c-9666-4af97280d88e/513d6395-526a-49e9-b4e8-3f969214a5ed"
					(reference "#PWR015")
					(unit 1)
				)
			)
		)
	)
	(symbol
		(lib_id "power:GND")
		(at 92.71 107.95 0)
		(unit 1)
		(exclude_from_sim no)
		(in_bom yes)
		(on_board yes)
		(dnp no)
		(fields_autoplaced yes)
		(uuid "f6ce331d-5bd7-448e-be50-ee24cd3aa9cf")
		(property "Reference" "#PWR010"
			(at 92.71 114.3 0)
			(effects
				(font
					(size 1.27 1.27)
				)
				(hide yes)
			)
		)
		(property "Value" "GND"
			(at 92.71 113.03 0)
			(effects
				(font
					(size 1.27 1.27)
				)
			)
		)
		(property "Footprint" ""
			(at 92.71 107.95 0)
			(effects
				(font
					(size 1.27 1.27)
				)
				(hide yes)
			)
		)
		(property "Datasheet" ""
			(at 92.71 107.95 0)
			(effects
				(font
					(size 1.27 1.27)
				)
				(hide yes)
			)
		)
		(property "Description" ""
			(at 92.71 107.95 0)
			(effects
				(font
					(size 1.27 1.27)
				)
				(hide yes)
			)
		)
		(pin "1"
			(uuid "ba0b0342-8465-4d0a-8469-85bec7221a42")
		)
		(instances
			(project "lesson_13"
				(path "/e6a6ad6f-84c3-445c-9666-4af97280d88e/513d6395-526a-49e9-b4e8-3f969214a5ed"
					(reference "#PWR010")
					(unit 1)
				)
			)
		)
	)
)