(kicad_sch
	(version 20231120)
	(generator "eeschema")
	(generator_version "8.0")
	(uuid "68d4c7f9-9a0a-4ad6-b28a-634d774b34cc")
	(paper "A4")
	(lib_symbols
		(symbol "Connector:Screw_Terminal_01x06"
			(pin_names
				(offset 1.016) hide)
			(exclude_from_sim no)
			(in_bom yes)
			(on_board yes)
			(property "Reference" "J"
				(at 0 7.62 0)
				(effects
					(font
						(size 1.27 1.27)
					)
				)
			)
			(property "Value" "Screw_Terminal_01x06"
				(at 0 -10.16 0)
				(effects
					(font
						(size 1.27 1.27)
					)
				)
			)
			(property "Footprint" ""
				(at 0 0 0)
				(effects
					(font
						(size 1.27 1.27)
					)
					(hide yes)
				)
			)
			(property "Datasheet" "~"
				(at 0 0 0)
				(effects
					(font
						(size 1.27 1.27)
					)
					(hide yes)
				)
			)
			(property "Description" "Generic screw terminal, single row, 01x06, script generated (kicad-library-utils/schlib/autogen/connector/)"
				(at 0 0 0)
				(effects
					(font
						(size 1.27 1.27)
					)
					(hide yes)
				)
			)
			(property "ki_keywords" "screw terminal"
				(at 0 0 0)
				(effects
					(font
						(size 1.27 1.27)
					)
					(hide yes)
				)
			)
			(property "ki_fp_filters" "TerminalBlock*:*"
				(at 0 0 0)
				(effects
					(font
						(size 1.27 1.27)
					)
					(hide yes)
				)
			)
			(symbol "Screw_Terminal_01x06_1_1"
				(rectangle
					(start -1.27 6.35)
					(end 1.27 -8.89)
					(stroke
						(width 0.254)
						(type default)
					)
					(fill
						(type background)
					)
				)
				(circle
					(center 0 -7.62)
					(radius 0.635)
					(stroke
						(width 0.1524)
						(type default)
					)
					(fill
						(type none)
					)
				)
				(circle
					(center 0 -5.08)
					(radius 0.635)
					(stroke
						(width 0.1524)
						(type default)
					)
					(fill
						(type none)
					)
				)
				(circle
					(center 0 -2.54)
					(radius 0.635)
					(stroke
						(width 0.1524)
						(type default)
					)
					(fill
						(type none)
					)
				)
				(polyline
					(pts
						(xy -0.5334 -7.2898) (xy 0.3302 -8.128)
					)
					(stroke
						(width 0.1524)
						(type default)
					)
					(fill
						(type none)
					)
				)
				(polyline
					(pts
						(xy -0.5334 -4.7498) (xy 0.3302 -5.588)
					)
					(stroke
						(width 0.1524)
						(type default)
					)
					(fill
						(type none)
					)
				)
				(polyline
					(pts
						(xy -0.5334 -2.2098) (xy 0.3302 -3.048)
					)
					(stroke
						(width 0.1524)
						(type default)
					)
					(fill
						(type none)
					)
				)
				(polyline
					(pts
						(xy -0.5334 0.3302) (xy 0.3302 -0.508)
					)
					(stroke
						(width 0.1524)
						(type default)
					)
					(fill
						(type none)
					)
				)
				(polyline
					(pts
						(xy -0.5334 2.8702) (xy 0.3302 2.032)
					)
					(stroke
						(width 0.1524)
						(type default)
					)
					(fill
						(type none)
					)
				)
				(polyline
					(pts
						(xy -0.5334 5.4102) (xy 0.3302 4.572)
					)
					(stroke
						(width 0.1524)
						(type default)
					)
					(fill
						(type none)
					)
				)
				(polyline
					(pts
						(xy -0.3556 -7.112) (xy 0.508 -7.9502)
					)
					(stroke
						(width 0.1524)
						(type default)
					)
					(fill
						(type none)
					)
				)
				(polyline
					(pts
						(xy -0.3556 -4.572) (xy 0.508 -5.4102)
					)
					(stroke
						(width 0.1524)
						(type default)
					)
					(fill
						(type none)
					)
				)
				(polyline
					(pts
						(xy -0.3556 -2.032) (xy 0.508 -2.8702)
					)
					(stroke
						(width 0.1524)
						(type default)
					)
					(fill
						(type none)
					)
				)
				(polyline
					(pts
						(xy -0.3556 0.508) (xy 0.508 -0.3302)
					)
					(stroke
						(width 0.1524)
						(type default)
					)
					(fill
						(type none)
					)
				)
				(polyline
					(pts
						(xy -0.3556 3.048) (xy 0.508 2.2098)
					)
					(stroke
						(width 0.1524)
						(type default)
					)
					(fill
						(type none)
					)
				)
				(polyline
					(pts
						(xy -0.3556 5.588) (xy 0.508 4.7498)
					)
					(stroke
						(width 0.1524)
						(type default)
					)
					(fill
						(type none)
					)
				)
				(circle
					(center 0 0)
					(radius 0.635)
					(stroke
						(width 0.1524)
						(type default)
					)
					(fill
						(type none)
					)
				)
				(circle
					(center 0 2.54)
					(radius 0.635)
					(stroke
						(width 0.1524)
						(type default)
					)
					(fill
						(type none)
					)
				)
				(circle
					(center 0 5.08)
					(radius 0.635)
					(stroke
						(width 0.1524)
						(type default)
					)
					(fill
						(type none)
					)
				)
				(pin passive line
					(at -5.08 5.08 0)
					(length 3.81)
					(name "Pin_1"
						(effects
							(font
								(size 1.27 1.27)
							)
						)
					)
					(number "1"
						(effects
							(font
								(size 1.27 1.27)
							)
						)
					)
				)
				(pin passive line
					(at -5.08 2.54 0)
					(length 3.81)
					(name "Pin_2"
						(effects
							(font
								(size 1.27 1.27)
							)
						)
					)
					(number "2"
						(effects
							(font
								(size 1.27 1.27)
							)
						)
					)
				)
				(pin passive line
					(at -5.08 0 0)
					(length 3.81)
					(name "Pin_3"
						(effects
							(font
								(size 1.27 1.27)
							)
						)
					)
					(number "3"
						(effects
							(font
								(size 1.27 1.27)
							)
						)
					)
				)
				(pin passive line
					(at -5.08 -2.54 0)
					(length 3.81)
					(name "Pin_4"
						(effects
							(font
								(size 1.27 1.27)
							)
						)
					)
					(number "4"
						(effects
							(font
								(size 1.27 1.27)
							)
						)
					)
				)
				(pin passive line
					(at -5.08 -5.08 0)
					(length 3.81)
					(name "Pin_5"
						(effects
							(font
								(size 1.27 1.27)
							)
						)
					)
					(number "5"
						(effects
							(font
								(size 1.27 1.27)
							)
						)
					)
				)
				(pin passive line
					(at -5.08 -7.62 0)
					(length 3.81)
					(name "Pin_6"
						(effects
							(font
								(size 1.27 1.27)
							)
						)
					)
					(number "6"
						(effects
							(font
								(size 1.27 1.27)
							)
						)
					)
				)
			)
		)
		(symbol "Device:C"
			(pin_numbers hide)
			(pin_names
				(offset 0.254)
			)
			(exclude_from_sim no)
			(in_bom yes)
			(on_board yes)
			(property "Reference" "C"
				(at 0.635 2.54 0)
				(effects
					(font
						(size 1.27 1.27)
					)
					(justify left)
				)
			)
			(property "Value" "C"
				(at 0.635 -2.54 0)
				(effects
					(font
						(size 1.27 1.27)
					)
					(justify left)
				)
			)
			(property "Footprint" ""
				(at 0.9652 -3.81 0)
				(effects
					(font
						(size 1.27 1.27)
					)
					(hide yes)
				)
			)
			(property "Datasheet" "~"
				(at 0 0 0)
				(effects
					(font
						(size 1.27 1.27)
					)
					(hide yes)
				)
			)
			(property "Description" "Unpolarized capacitor"
				(at 0 0 0)
				(effects
					(font
						(size 1.27 1.27)
					)
					(hide yes)
				)
			)
			(property "ki_keywords" "cap capacitor"
				(at 0 0 0)
				(effects
					(font
						(size 1.27 1.27)
					)
					(hide yes)
				)
			)
			(property "ki_fp_filters" "C_*"
				(at 0 0 0)
				(effects
					(font
						(size 1.27 1.27)
					)
					(hide yes)
				)
			)
			(symbol "C_0_1"
				(polyline
					(pts
						(xy -2.032 -0.762) (xy 2.032 -0.762)
					)
					(stroke
						(width 0.508)
						(type default)
					)
					(fill
						(type none)
					)
				)
				(polyline
					(pts
						(xy -2.032 0.762) (xy 2.032 0.762)
					)
					(stroke
						(width 0.508)
						(type default)
					)
					(fill
						(type none)
					)
				)
			)
			(symbol "C_1_1"
				(pin passive line
					(at 0 3.81 270)
					(length 2.794)
					(name "~"
						(effects
							(font
								(size 1.27 1.27)
							)
						)
					)
					(number "1"
						(effects
							(font
								(size 1.27 1.27)
							)
						)
					)
				)
				(pin passive line
					(at 0 -3.81 90)
					(length 2.794)
					(name "~"
						(effects
							(font
								(size 1.27 1.27)
							)
						)
					)
					(number "2"
						(effects
							(font
								(size 1.27 1.27)
							)
						)
					)
				)
			)
		)
		(symbol "Device:C_Polarized"
			(pin_numbers hide)
			(pin_names
				(offset 0.254)
			)
			(exclude_from_sim no)
			(in_bom yes)
			(on_board yes)
			(property "Reference" "C"
				(at 0.635 2.54 0)
				(effects
					(font
						(size 1.27 1.27)
					)
					(justify left)
				)
			)
			(property "Value" "C_Polarized"
				(at 0.635 -2.54 0)
				(effects
					(font
						(size 1.27 1.27)
					)
					(justify left)
				)
			)
			(property "Footprint" ""
				(at 0.9652 -3.81 0)
				(effects
					(font
						(size 1.27 1.27)
					)
					(hide yes)
				)
			)
			(property "Datasheet" "~"
				(at 0 0 0)
				(effects
					(font
						(size 1.27 1.27)
					)
					(hide yes)
				)
			)
			(property "Description" "Polarized capacitor"
				(at 0 0 0)
				(effects
					(font
						(size 1.27 1.27)
					)
					(hide yes)
				)
			)
			(property "ki_keywords" "cap capacitor"
				(at 0 0 0)
				(effects
					(font
						(size 1.27 1.27)
					)
					(hide yes)
				)
			)
			(property "ki_fp_filters" "CP_*"
				(at 0 0 0)
				(effects
					(font
						(size 1.27 1.27)
					)
					(hide yes)
				)
			)
			(symbol "C_Polarized_0_1"
				(rectangle
					(start -2.286 0.508)
					(end 2.286 1.016)
					(stroke
						(width 0)
						(type default)
					)
					(fill
						(type none)
					)
				)
				(polyline
					(pts
						(xy -1.778 2.286) (xy -0.762 2.286)
					)
					(stroke
						(width 0)
						(type default)
					)
					(fill
						(type none)
					)
				)
				(polyline
					(pts
						(xy -1.27 2.794) (xy -1.27 1.778)
					)
					(stroke
						(width 0)
						(type default)
					)
					(fill
						(type none)
					)
				)
				(rectangle
					(start 2.286 -0.508)
					(end -2.286 -1.016)
					(stroke
						(width 0)
						(type default)
					)
					(fill
						(type outline)
					)
				)
			)
			(symbol "C_Polarized_1_1"
				(pin passive line
					(at 0 3.81 270)
					(length 2.794)
					(name "~"
						(effects
							(font
								(size 1.27 1.27)
							)
						)
					)
					(number "1"
						(effects
							(font
								(size 1.27 1.27)
							)
						)
					)
				)
				(pin passive line
					(at 0 -3.81 90)
					(length 2.794)
					(name "~"
						(effects
							(font
								(size 1.27 1.27)
							)
						)
					)
					(number "2"
						(effects
							(font
								(size 1.27 1.27)
							)
						)
					)
				)
			)
		)
		(symbol "Device:R"
			(pin_numbers hide)
			(pin_names
				(offset 0)
			)
			(exclude_from_sim no)
			(in_bom yes)
			(on_board yes)
			(property "Reference" "R"
				(at 2.032 0 90)
				(effects
					(font
						(size 1.27 1.27)
					)
				)
			)
			(property "Value" "R"
				(at 0 0 90)
				(effects
					(font
						(size 1.27 1.27)
					)
				)
			)
			(property "Footprint" ""
				(at -1.778 0 90)
				(effects
					(font
						(size 1.27 1.27)
					)
					(hide yes)
				)
			)
			(property "Datasheet" "~"
				(at 0 0 0)
				(effects
					(font
						(size 1.27 1.27)
					)
					(hide yes)
				)
			)
			(property "Description" "Resistor"
				(at 0 0 0)
				(effects
					(font
						(size 1.27 1.27)
					)
					(hide yes)
				)
			)
			(property "ki_keywords" "R res resistor"
				(at 0 0 0)
				(effects
					(font
						(size 1.27 1.27)
					)
					(hide yes)
				)
			)
			(property "ki_fp_filters" "R_*"
				(at 0 0 0)
				(effects
					(font
						(size 1.27 1.27)
					)
					(hide yes)
				)
			)
			(symbol "R_0_1"
				(rectangle
					(start -1.016 -2.54)
					(end 1.016 2.54)
					(stroke
						(width 0.254)
						(type default)
					)
					(fill
						(type none)
					)
				)
			)
			(symbol "R_1_1"
				(pin passive line
					(at 0 3.81 270)
					(length 1.27)
					(name "~"
						(effects
							(font
								(size 1.27 1.27)
							)
						)
					)
					(number "1"
						(effects
							(font
								(size 1.27 1.27)
							)
						)
					)
				)
				(pin passive line
					(at 0 -3.81 90)
					(length 1.27)
					(name "~"
						(effects
							(font
								(size 1.27 1.27)
							)
						)
					)
					(number "2"
						(effects
							(font
								(size 1.27 1.27)
							)
						)
					)
				)
			)
		)
		(symbol "Diode:US1A"
			(pin_numbers hide)
			(pin_names hide)
			(exclude_from_sim no)
			(in_bom yes)
			(on_board yes)
			(property "Reference" "D"
				(at 0 2.54 0)
				(effects
					(font
						(size 1.27 1.27)
					)
				)
			)
			(property "Value" "US1A"
				(at 0 -2.54 0)
				(effects
					(font
						(size 1.27 1.27)
					)
				)
			)
			(property "Footprint" "Diode_SMD:D_SMA"
				(at 0 -4.445 0)
				(effects
					(font
						(size 1.27 1.27)
					)
					(hide yes)
				)
			)
			(property "Datasheet" "https://www.diodes.com/assets/Datasheets/ds16008.pdf"
				(at 0 0 0)
				(effects
					(font
						(size 1.27 1.27)
					)
					(hide yes)
				)
			)
			(property "Description" "50V, 1A, General Purpose Rectifier Diode, SMA(DO-214AC)"
				(at 0 0 0)
				(effects
					(font
						(size 1.27 1.27)
					)
					(hide yes)
				)
			)
			(property "Sim.Device" "D"
				(at 0 0 0)
				(effects
					(font
						(size 1.27 1.27)
					)
					(hide yes)
				)
			)
			(property "Sim.Pins" "1=K 2=A"
				(at 0 0 0)
				(effects
					(font
						(size 1.27 1.27)
					)
					(hide yes)
				)
			)
			(property "ki_keywords" "Ultra Fast"
				(at 0 0 0)
				(effects
					(font
						(size 1.27 1.27)
					)
					(hide yes)
				)
			)
			(property "ki_fp_filters" "D*SMA*"
				(at 0 0 0)
				(effects
					(font
						(size 1.27 1.27)
					)
					(hide yes)
				)
			)
			(symbol "US1A_0_1"
				(polyline
					(pts
						(xy -1.27 1.27) (xy -1.27 -1.27)
					)
					(stroke
						(width 0.254)
						(type default)
					)
					(fill
						(type none)
					)
				)
				(polyline
					(pts
						(xy 1.27 0) (xy -1.27 0)
					)
					(stroke
						(width 0)
						(type default)
					)
					(fill
						(type none)
					)
				)
				(polyline
					(pts
						(xy 1.27 1.27) (xy 1.27 -1.27) (xy -1.27 0) (xy 1.27 1.27)
					)
					(stroke
						(width 0.254)
						(type default)
					)
					(fill
						(type none)
					)
				)
			)
			(symbol "US1A_1_1"
				(pin passive line
					(at -3.81 0 0)
					(length 2.54)
					(name "K"
						(effects
							(font
								(size 1.27 1.27)
							)
						)
					)
					(number "1"
						(effects
							(font
								(size 1.27 1.27)
							)
						)
					)
				)
				(pin passive line
					(at 3.81 0 180)
					(length 2.54)
					(name "A"
						(effects
							(font
								(size 1.27 1.27)
							)
						)
					)
					(number "2"
						(effects
							(font
								(size 1.27 1.27)
							)
						)
					)
				)
			)
		)
		(symbol "Regulator_Linear:LM317_TO-220"
			(pin_names
				(offset 0.254)
			)
			(exclude_from_sim no)
			(in_bom yes)
			(on_board yes)
			(property "Reference" "U"
				(at -3.81 3.175 0)
				(effects
					(font
						(size 1.27 1.27)
					)
				)
			)
			(property "Value" "LM317_TO-220"
				(at 0 3.175 0)
				(effects
					(font
						(size 1.27 1.27)
					)
					(justify left)
				)
			)
			(property "Footprint" "Package_TO_SOT_THT:TO-220-3_Vertical"
				(at 0 6.35 0)
				(effects
					(font
						(size 1.27 1.27)
						(italic yes)
					)
					(hide yes)
				)
			)
			(property "Datasheet" "http://www.ti.com/lit/ds/symlink/lm317.pdf"
				(at 0 0 0)
				(effects
					(font
						(size 1.27 1.27)
					)
					(hide yes)
				)
			)
			(property "Description" "1.5A 35V Adjustable Linear Regulator, TO-220"
				(at 0 0 0)
				(effects
					(font
						(size 1.27 1.27)
					)
					(hide yes)
				)
			)
			(property "ki_keywords" "Adjustable Voltage Regulator 1A Positive"
				(at 0 0 0)
				(effects
					(font
						(size 1.27 1.27)
					)
					(hide yes)
				)
			)
			(property "ki_fp_filters" "TO?220*"
				(at 0 0 0)
				(effects
					(font
						(size 1.27 1.27)
					)
					(hide yes)
				)
			)
			(symbol "LM317_TO-220_0_1"
				(rectangle
					(start -5.08 1.905)
					(end 5.08 -5.08)
					(stroke
						(width 0.254)
						(type default)
					)
					(fill
						(type background)
					)
				)
			)
			(symbol "LM317_TO-220_1_1"
				(pin input line
					(at 0 -7.62 90)
					(length 2.54)
					(name "ADJ"
						(effects
							(font
								(size 1.27 1.27)
							)
						)
					)
					(number "1"
						(effects
							(font
								(size 1.27 1.27)
							)
						)
					)
				)
				(pin power_out line
					(at 7.62 0 180)
					(length 2.54)
					(name "VO"
						(effects
							(font
								(size 1.27 1.27)
							)
						)
					)
					(number "2"
						(effects
							(font
								(size 1.27 1.27)
							)
						)
					)
				)
				(pin power_in line
					(at -7.62 0 0)
					(length 2.54)
					(name "VI"
						(effects
							(font
								(size 1.27 1.27)
							)
						)
					)
					(number "3"
						(effects
							(font
								(size 1.27 1.27)
							)
						)
					)
				)
			)
		)
		(symbol "power:+12V"
			(power)
			(pin_numbers hide)
			(pin_names
				(offset 0) hide)
			(exclude_from_sim no)
			(in_bom yes)
			(on_board yes)
			(property "Reference" "#PWR"
				(at 0 -3.81 0)
				(effects
					(font
						(size 1.27 1.27)
					)
					(hide yes)
				)
			)
			(property "Value" "+12V"
				(at 0 3.556 0)
				(effects
					(font
						(size 1.27 1.27)
					)
				)
			)
			(property "Footprint" ""
				(at 0 0 0)
				(effects
					(font
						(size 1.27 1.27)
					)
					(hide yes)
				)
			)
			(property "Datasheet" ""
				(at 0 0 0)
				(effects
					(font
						(size 1.27 1.27)
					)
					(hide yes)
				)
			)
			(property "Description" "Power symbol creates a global label with name \"+12V\""
				(at 0 0 0)
				(effects
					(font
						(size 1.27 1.27)
					)
					(hide yes)
				)
			)
			(property "ki_keywords" "global power"
				(at 0 0 0)
				(effects
					(font
						(size 1.27 1.27)
					)
					(hide yes)
				)
			)
			(symbol "+12V_0_1"
				(polyline
					(pts
						(xy -0.762 1.27) (xy 0 2.54)
					)
					(stroke
						(width 0)
						(type default)
					)
					(fill
						(type none)
					)
				)
				(polyline
					(pts
						(xy 0 0) (xy 0 2.54)
					)
					(stroke
						(width 0)
						(type default)
					)
					(fill
						(type none)
					)
				)
				(polyline
					(pts
						(xy 0 2.54) (xy 0.762 1.27)
					)
					(stroke
						(width 0)
						(type default)
					)
					(fill
						(type none)
					)
				)
			)
			(symbol "+12V_1_1"
				(pin power_in line
					(at 0 0 90)
					(length 0)
					(name "~"
						(effects
							(font
								(size 1.27 1.27)
							)
						)
					)
					(number "1"
						(effects
							(font
								(size 1.27 1.27)
							)
						)
					)
				)
			)
		)
		(symbol "power:+5V"
			(power)
			(pin_numbers hide)
			(pin_names
				(offset 0) hide)
			(exclude_from_sim no)
			(in_bom yes)
			(on_board yes)
			(property "Reference" "#PWR"
				(at 0 -3.81 0)
				(effects
					(font
						(size 1.27 1.27)
					)
					(hide yes)
				)
			)
			(property "Value" "+5V"
				(at 0 3.556 0)
				(effects
					(font
						(size 1.27 1.27)
					)
				)
			)
			(property "Footprint" ""
				(at 0 0 0)
				(effects
					(font
						(size 1.27 1.27)
					)
					(hide yes)
				)
			)
			(property "Datasheet" ""
				(at 0 0 0)
				(effects
					(font
						(size 1.27 1.27)
					)
					(hide yes)
				)
			)
			(property "Description" "Power symbol creates a global label with name \"+5V\""
				(at 0 0 0)
				(effects
					(font
						(size 1.27 1.27)
					)
					(hide yes)
				)
			)
			(property "ki_keywords" "global power"
				(at 0 0 0)
				(effects
					(font
						(size 1.27 1.27)
					)
					(hide yes)
				)
			)
			(symbol "+5V_0_1"
				(polyline
					(pts
						(xy -0.762 1.27) (xy 0 2.54)
					)
					(stroke
						(width 0)
						(type default)
					)
					(fill
						(type none)
					)
				)
				(polyline
					(pts
						(xy 0 0) (xy 0 2.54)
					)
					(stroke
						(width 0)
						(type default)
					)
					(fill
						(type none)
					)
				)
				(polyline
					(pts
						(xy 0 2.54) (xy 0.762 1.27)
					)
					(stroke
						(width 0)
						(type default)
					)
					(fill
						(type none)
					)
				)
			)
			(symbol "+5V_1_1"
				(pin power_in line
					(at 0 0 90)
					(length 0)
					(name "~"
						(effects
							(font
								(size 1.27 1.27)
							)
						)
					)
					(number "1"
						(effects
							(font
								(size 1.27 1.27)
							)
						)
					)
				)
			)
		)
		(symbol "power:GND1"
			(power)
			(pin_numbers hide)
			(pin_names
				(offset 0) hide)
			(exclude_from_sim no)
			(in_bom yes)
			(on_board yes)
			(property "Reference" "#PWR"
				(at 0 -6.35 0)
				(effects
					(font
						(size 1.27 1.27)
					)
					(hide yes)
				)
			)
			(property "Value" "GND1"
				(at 0 -3.81 0)
				(effects
					(font
						(size 1.27 1.27)
					)
				)
			)
			(property "Footprint" ""
				(at 0 0 0)
				(effects
					(font
						(size 1.27 1.27)
					)
					(hide yes)
				)
			)
			(property "Datasheet" ""
				(at 0 0 0)
				(effects
					(font
						(size 1.27 1.27)
					)
					(hide yes)
				)
			)
			(property "Description" "Power symbol creates a global label with name \"GND1\" , ground"
				(at 0 0 0)
				(effects
					(font
						(size 1.27 1.27)
					)
					(hide yes)
				)
			)
			(property "ki_keywords" "global power"
				(at 0 0 0)
				(effects
					(font
						(size 1.27 1.27)
					)
					(hide yes)
				)
			)
			(symbol "GND1_0_1"
				(polyline
					(pts
						(xy 0 0) (xy 0 -1.27) (xy 1.27 -1.27) (xy 0 -2.54) (xy -1.27 -1.27) (xy 0 -1.27)
					)
					(stroke
						(width 0)
						(type default)
					)
					(fill
						(type none)
					)
				)
			)
			(symbol "GND1_1_1"
				(pin power_in line
					(at 0 0 270)
					(length 0)
					(name "~"
						(effects
							(font
								(size 1.27 1.27)
							)
						)
					)
					(number "1"
						(effects
							(font
								(size 1.27 1.27)
							)
						)
					)
				)
			)
		)
		(symbol "power:PWR_FLAG"
			(power)
			(pin_numbers hide)
			(pin_names
				(offset 0) hide)
			(exclude_from_sim no)
			(in_bom yes)
			(on_board yes)
			(property "Reference" "#FLG"
				(at 0 1.905 0)
				(effects
					(font
						(size 1.27 1.27)
					)
					(hide yes)
				)
			)
			(property "Value" "PWR_FLAG"
				(at 0 3.81 0)
				(effects
					(font
						(size 1.27 1.27)
					)
				)
			)
			(property "Footprint" ""
				(at 0 0 0)
				(effects
					(font
						(size 1.27 1.27)
					)
					(hide yes)
				)
			)
			(property "Datasheet" "~"
				(at 0 0 0)
				(effects
					(font
						(size 1.27 1.27)
					)
					(hide yes)
				)
			)
			(property "Description" "Special symbol for telling ERC where power comes from"
				(at 0 0 0)
				(effects
					(font
						(size 1.27 1.27)
					)
					(hide yes)
				)
			)
			(property "ki_keywords" "flag power"
				(at 0 0 0)
				(effects
					(font
						(size 1.27 1.27)
					)
					(hide yes)
				)
			)
			(symbol "PWR_FLAG_0_0"
				(pin power_out line
					(at 0 0 90)
					(length 0)
					(name "~"
						(effects
							(font
								(size 1.27 1.27)
							)
						)
					)
					(number "1"
						(effects
							(font
								(size 1.27 1.27)
							)
						)
					)
				)
			)
			(symbol "PWR_FLAG_0_1"
				(polyline
					(pts
						(xy 0 0) (xy 0 1.27) (xy -1.016 1.905) (xy 0 2.54) (xy 1.016 1.905) (xy 0 1.27)
					)
					(stroke
						(width 0)
						(type default)
					)
					(fill
						(type none)
					)
				)
			)
		)
	)
	(junction
		(at 68.58 99.06)
		(diameter 0)
		(color 0 0 0 0)
		(uuid "2ffaaf65-92f8-41bf-bfc6-7ce6bc851f9b")
	)
	(junction
		(at 115.57 99.06)
		(diameter 0)
		(color 0 0 0 0)
		(uuid "3567696f-6b3d-45cd-8d87-8fea25bb0476")
	)
	(junction
		(at 77.47 120.65)
		(diameter 0)
		(color 0 0 0 0)
		(uuid "5af236ac-4888-4779-aabd-3e59b2620193")
	)
	(junction
		(at 102.87 99.06)
		(diameter 0)
		(color 0 0 0 0)
		(uuid "633de74c-7c95-4909-a453-e0d793cc0e96")
	)
	(junction
		(at 124.46 99.06)
		(diameter 0)
		(color 0 0 0 0)
		(uuid "732722c3-65eb-4b30-8670-b36204872b41")
	)
	(junction
		(at 77.47 99.06)
		(diameter 0)
		(color 0 0 0 0)
		(uuid "7400edb0-1ea3-4fa3-94c7-b193dc85f69a")
	)
	(junction
		(at 91.44 109.22)
		(diameter 0)
		(color 0 0 0 0)
		(uuid "76909ac9-7d42-4cc7-bb44-71ef90b6d521")
	)
	(junction
		(at 91.44 120.65)
		(diameter 0)
		(color 0 0 0 0)
		(uuid "b92a2010-2353-419c-b42a-bd77b4326e59")
	)
	(junction
		(at 102.87 120.65)
		(diameter 0)
		(color 0 0 0 0)
		(uuid "f40687cc-9bdf-4456-8404-b995b81f1e9b")
	)
	(junction
		(at 102.87 109.22)
		(diameter 0)
		(color 0 0 0 0)
		(uuid "fd6fff10-3708-4573-9c14-58f66051aa9d")
	)
	(wire
		(pts
			(xy 167.64 83.82) (xy 177.8 83.82)
		)
		(stroke
			(width 0)
			(type default)
		)
		(uuid "01e9edfa-b9fa-40d2-b44e-5360fca1bb1b")
	)
	(wire
		(pts
			(xy 210.82 115.57) (xy 210.82 101.6)
		)
		(stroke
			(width 0)
			(type default)
		)
		(uuid "02ed55a3-93bf-4cd2-9656-93d501df690a")
	)
	(wire
		(pts
			(xy 205.74 115.57) (xy 210.82 115.57)
		)
		(stroke
			(width 0)
			(type default)
		)
		(uuid "04214187-b9ef-4b14-849c-b2b1f5b425d5")
	)
	(wire
		(pts
			(xy 175.26 109.22) (xy 177.8 109.22)
		)
		(stroke
			(width 0)
			(type default)
		)
		(uuid "0831a75e-bddc-4e98-88c9-46f3ca527725")
	)
	(wire
		(pts
			(xy 68.58 113.03) (xy 68.58 120.65)
		)
		(stroke
			(width 0)
			(type default)
		)
		(uuid "0c399c13-67a6-4fd6-be26-d785646deee3")
	)
	(wire
		(pts
			(xy 77.47 120.65) (xy 91.44 120.65)
		)
		(stroke
			(width 0)
			(type default)
		)
		(uuid "0eafc1da-8f4c-4d8c-9dcd-dae784419af8")
	)
	(wire
		(pts
			(xy 167.64 88.9) (xy 163.83 88.9)
		)
		(stroke
			(width 0)
			(type default)
		)
		(uuid "0f4275b8-f12c-44e0-b98d-54a488a844c8")
	)
	(wire
		(pts
			(xy 213.36 87.63) (xy 213.36 96.52)
		)
		(stroke
			(width 0)
			(type default)
		)
		(uuid "138cb6d4-497a-47c0-b54a-f4a9634281a5")
	)
	(wire
		(pts
			(xy 77.47 99.06) (xy 77.47 105.41)
		)
		(stroke
			(width 0)
			(type default)
		)
		(uuid "1a90656a-2edd-4164-8965-caec6097615c")
	)
	(wire
		(pts
			(xy 87.63 87.63) (xy 77.47 87.63)
		)
		(stroke
			(width 0)
			(type default)
		)
		(uuid "1d267ae4-7a7b-40e1-9107-fab77ee5f208")
	)
	(wire
		(pts
			(xy 163.83 86.36) (xy 177.8 86.36)
		)
		(stroke
			(width 0)
			(type default)
		)
		(uuid "21b5ec7c-f61b-45c3-b530-e002815fcbd8")
	)
	(wire
		(pts
			(xy 77.47 87.63) (xy 77.47 99.06)
		)
		(stroke
			(width 0)
			(type default)
		)
		(uuid "28406de8-f72e-4c71-b5f2-5ac57d17a05f")
	)
	(wire
		(pts
			(xy 99.06 99.06) (xy 102.87 99.06)
		)
		(stroke
			(width 0)
			(type default)
		)
		(uuid "2b1c06e2-87eb-423d-8672-78f4e92748e8")
	)
	(wire
		(pts
			(xy 77.47 99.06) (xy 83.82 99.06)
		)
		(stroke
			(width 0)
			(type default)
		)
		(uuid "2c6ae152-47db-4d9e-977e-7601b4663ece")
	)
	(wire
		(pts
			(xy 95.25 87.63) (xy 102.87 87.63)
		)
		(stroke
			(width 0)
			(type default)
		)
		(uuid "320c5a2f-34b4-495d-8ffa-21705be7514f")
	)
	(wire
		(pts
			(xy 91.44 119.38) (xy 91.44 120.65)
		)
		(stroke
			(width 0)
			(type default)
		)
		(uuid "36860966-600d-44b4-8eda-50840efee4e9")
	)
	(wire
		(pts
			(xy 205.74 85.09) (xy 210.82 85.09)
		)
		(stroke
			(width 0)
			(type default)
		)
		(uuid "37d011b4-0156-4fe6-a185-33af120364f3")
	)
	(wire
		(pts
			(xy 124.46 99.06) (xy 127 99.06)
		)
		(stroke
			(width 0)
			(type default)
		)
		(uuid "3cafccfc-14ad-457c-bd37-0d8f1d5c60e6")
	)
	(wire
		(pts
			(xy 163.83 96.52) (xy 166.37 96.52)
		)
		(stroke
			(width 0)
			(type default)
		)
		(uuid "3d1bdfd9-956b-4757-b68e-174aebc2e51e")
	)
	(wire
		(pts
			(xy 68.58 99.06) (xy 68.58 105.41)
		)
		(stroke
			(width 0)
			(type default)
		)
		(uuid "3dde031e-6f49-417e-b2ef-236f2e221cef")
	)
	(wire
		(pts
			(xy 205.74 90.17) (xy 215.9 90.17)
		)
		(stroke
			(width 0)
			(type default)
		)
		(uuid "45ccf83c-284e-4f5e-8b3f-62667e13a750")
	)
	(wire
		(pts
			(xy 102.87 107.95) (xy 102.87 109.22)
		)
		(stroke
			(width 0)
			(type default)
		)
		(uuid "4b778e93-b2b5-4464-883a-37ef55814046")
	)
	(wire
		(pts
			(xy 124.46 115.57) (xy 124.46 120.65)
		)
		(stroke
			(width 0)
			(type default)
		)
		(uuid "4ffff4f8-0827-4dee-8738-585251d03083")
	)
	(wire
		(pts
			(xy 91.44 109.22) (xy 91.44 111.76)
		)
		(stroke
			(width 0)
			(type default)
		)
		(uuid "51f00d82-4eb4-40d3-ac55-3a4f31b76e55")
	)
	(wire
		(pts
			(xy 115.57 99.06) (xy 124.46 99.06)
		)
		(stroke
			(width 0)
			(type default)
		)
		(uuid "55b5d729-680e-4c77-94db-713b79baf752")
	)
	(wire
		(pts
			(xy 124.46 99.06) (xy 124.46 107.95)
		)
		(stroke
			(width 0)
			(type default)
		)
		(uuid "5f2f0b54-aeb8-4f19-bb6a-10d9e7b00925")
	)
	(wire
		(pts
			(xy 163.83 104.14) (xy 163.83 99.06)
		)
		(stroke
			(width 0)
			(type default)
		)
		(uuid "62bf4a77-197a-4305-aafb-bb12fcb49346")
	)
	(wire
		(pts
			(xy 68.58 120.65) (xy 77.47 120.65)
		)
		(stroke
			(width 0)
			(type default)
		)
		(uuid "635837bb-7577-49e5-abb5-eba104fb1b66")
	)
	(wire
		(pts
			(xy 102.87 99.06) (xy 102.87 100.33)
		)
		(stroke
			(width 0)
			(type default)
		)
		(uuid "641e8046-08ec-48f7-aefd-6580ace44659")
	)
	(wire
		(pts
			(xy 102.87 118.11) (xy 102.87 120.65)
		)
		(stroke
			(width 0)
			(type default)
		)
		(uuid "642ed9b5-5412-4037-bbd0-42c55f81bce7")
	)
	(wire
		(pts
			(xy 124.46 120.65) (xy 102.87 120.65)
		)
		(stroke
			(width 0)
			(type default)
		)
		(uuid "65990eaf-a8c6-4daa-9484-17a59841c0d8")
	)
	(wire
		(pts
			(xy 146.05 104.14) (xy 163.83 104.14)
		)
		(stroke
			(width 0)
			(type default)
		)
		(uuid "698d5525-53fa-414c-b93e-29e960dcb86a")
	)
	(wire
		(pts
			(xy 115.57 100.33) (xy 115.57 99.06)
		)
		(stroke
			(width 0)
			(type default)
		)
		(uuid "723c341e-7038-4c3b-b44b-b33284d3fcb4")
	)
	(wire
		(pts
			(xy 210.82 85.09) (xy 210.82 99.06)
		)
		(stroke
			(width 0)
			(type default)
		)
		(uuid "7273b761-4407-4b3b-b19b-9a146a91c736")
	)
	(wire
		(pts
			(xy 102.87 87.63) (xy 102.87 99.06)
		)
		(stroke
			(width 0)
			(type default)
		)
		(uuid "72e35ae3-0a31-4f43-89c4-72704a79234f")
	)
	(wire
		(pts
			(xy 163.83 93.98) (xy 175.26 93.98)
		)
		(stroke
			(width 0)
			(type default)
		)
		(uuid "74c0fd2e-31a5-4758-a5eb-71f01fa2b399")
	)
	(wire
		(pts
			(xy 77.47 113.03) (xy 77.47 120.65)
		)
		(stroke
			(width 0)
			(type default)
		)
		(uuid "7c7648ea-b8a6-4cf2-bc5c-2857f54e803f")
	)
	(wire
		(pts
			(xy 91.44 106.68) (xy 91.44 109.22)
		)
		(stroke
			(width 0)
			(type default)
		)
		(uuid "84fa7c0d-280d-438d-8893-2a29ed1065ce")
	)
	(wire
		(pts
			(xy 167.64 83.82) (xy 167.64 88.9)
		)
		(stroke
			(width 0)
			(type default)
		)
		(uuid "8bfb8d44-3441-4e04-b5d8-169459ce6117")
	)
	(wire
		(pts
			(xy 166.37 96.52) (xy 166.37 107.95)
		)
		(stroke
			(width 0)
			(type default)
		)
		(uuid "920a2243-5735-47e8-9610-6bdf3976b316")
	)
	(wire
		(pts
			(xy 102.87 109.22) (xy 102.87 110.49)
		)
		(stroke
			(width 0)
			(type default)
		)
		(uuid "9b54af98-3cf1-4505-a5c2-ee2e28fbf778")
	)
	(wire
		(pts
			(xy 205.74 110.49) (xy 215.9 110.49)
		)
		(stroke
			(width 0)
			(type default)
		)
		(uuid "9f119264-ca88-4ce5-ae8f-745c6bda0d0f")
	)
	(wire
		(pts
			(xy 171.45 91.44) (xy 171.45 111.76)
		)
		(stroke
			(width 0)
			(type default)
		)
		(uuid "a15de5c0-5cdf-4ec5-b9bd-edef342964d3")
	)
	(wire
		(pts
			(xy 215.9 104.14) (xy 213.36 104.14)
		)
		(stroke
			(width 0)
			(type default)
		)
		(uuid "a46c0ec6-56b1-4110-b510-af82cf19abce")
	)
	(wire
		(pts
			(xy 210.82 99.06) (xy 215.9 99.06)
		)
		(stroke
			(width 0)
			(type default)
		)
		(uuid "aa6f4b7a-dcb5-4911-8d04-fd563e1b3384")
	)
	(wire
		(pts
			(xy 163.83 91.44) (xy 171.45 91.44)
		)
		(stroke
			(width 0)
			(type default)
		)
		(uuid "ac6b91c5-a455-4157-8d69-64d7e43a17bb")
	)
	(wire
		(pts
			(xy 91.44 120.65) (xy 91.44 121.92)
		)
		(stroke
			(width 0)
			(type default)
		)
		(uuid "aea9c243-5a02-4b69-8798-95c2569a44c5")
	)
	(wire
		(pts
			(xy 213.36 113.03) (xy 205.74 113.03)
		)
		(stroke
			(width 0)
			(type default)
		)
		(uuid "b77406dd-da30-4ca4-b393-f3a90b933d6d")
	)
	(wire
		(pts
			(xy 213.36 104.14) (xy 213.36 113.03)
		)
		(stroke
			(width 0)
			(type default)
		)
		(uuid "bd39f9be-d25a-46c4-8ee7-8a7d54dae672")
	)
	(wire
		(pts
			(xy 115.57 107.95) (xy 115.57 109.22)
		)
		(stroke
			(width 0)
			(type default)
		)
		(uuid "cb18d14e-30fc-4f7d-ac8b-1601cf5ce770")
	)
	(wire
		(pts
			(xy 213.36 96.52) (xy 215.9 96.52)
		)
		(stroke
			(width 0)
			(type default)
		)
		(uuid "cce7d96a-6c8f-4d4e-b14d-86f94c7c2bac")
	)
	(wire
		(pts
			(xy 115.57 109.22) (xy 102.87 109.22)
		)
		(stroke
			(width 0)
			(type default)
		)
		(uuid "cf12a8a4-a3e1-481c-b9bc-3e0730265696")
	)
	(wire
		(pts
			(xy 171.45 111.76) (xy 177.8 111.76)
		)
		(stroke
			(width 0)
			(type default)
		)
		(uuid "d2c80f31-a303-4e34-9cc1-81a1572ac350")
	)
	(wire
		(pts
			(xy 102.87 120.65) (xy 91.44 120.65)
		)
		(stroke
			(width 0)
			(type default)
		)
		(uuid "d89b1346-2ddd-4ecd-a048-ef18276dffa5")
	)
	(wire
		(pts
			(xy 210.82 101.6) (xy 215.9 101.6)
		)
		(stroke
			(width 0)
			(type default)
		)
		(uuid "dce1d60a-ed8f-4bd3-9486-abf56db6341a")
	)
	(wire
		(pts
			(xy 68.58 99.06) (xy 77.47 99.06)
		)
		(stroke
			(width 0)
			(type default)
		)
		(uuid "eca2d362-d03a-475c-ad2d-ebb8109e9e53")
	)
	(wire
		(pts
			(xy 166.37 107.95) (xy 146.05 107.95)
		)
		(stroke
			(width 0)
			(type default)
		)
		(uuid "ef98b465-87f9-4f79-83d6-f84c1d33ae97")
	)
	(wire
		(pts
			(xy 102.87 109.22) (xy 91.44 109.22)
		)
		(stroke
			(width 0)
			(type default)
		)
		(uuid "f02f4def-c315-43cf-9529-1d8a25ec1be0")
	)
	(wire
		(pts
			(xy 102.87 99.06) (xy 115.57 99.06)
		)
		(stroke
			(width 0)
			(type default)
		)
		(uuid "f409f796-fe43-4403-ab60-64d1dfbc08b3")
	)
	(wire
		(pts
			(xy 175.26 93.98) (xy 175.26 109.22)
		)
		(stroke
			(width 0)
			(type default)
		)
		(uuid "f631a195-eea4-4dfd-ba6e-64747c64a172")
	)
	(wire
		(pts
			(xy 215.9 90.17) (xy 215.9 93.98)
		)
		(stroke
			(width 0)
			(type default)
		)
		(uuid "f93e905b-e267-4e24-97ed-9a8bf780b43a")
	)
	(wire
		(pts
			(xy 205.74 87.63) (xy 213.36 87.63)
		)
		(stroke
			(width 0)
			(type default)
		)
		(uuid "fb1db067-4f52-46d4-818b-000d7f8fb44c")
	)
	(wire
		(pts
			(xy 57.15 99.06) (xy 68.58 99.06)
		)
		(stroke
			(width 0)
			(type default)
		)
		(uuid "fbb58817-e63a-4c1b-aef1-32cf655980d3")
	)
	(wire
		(pts
			(xy 215.9 110.49) (xy 215.9 106.68)
		)
		(stroke
			(width 0)
			(type default)
		)
		(uuid "fe332ccd-d748-40bf-97f5-13311b01a994")
	)
	(rectangle
		(start 36.83 74.93)
		(end 148.59 135.89)
		(stroke
			(width 0)
			(type default)
		)
		(fill
			(type none)
		)
		(uuid 16f03107-086a-46cb-8f57-3b00ed5708a5)
	)
	(rectangle
		(start 173.99 76.2)
		(end 209.55 128.27)
		(stroke
			(width 0)
			(type default)
		)
		(fill
			(type none)
		)
		(uuid 26c36b7e-98d3-4390-811d-0cdca215f1d8)
	)
	(text "Power supply"
		(exclude_from_sim no)
		(at 127 133.35 0)
		(effects
			(font
				(size 1.27 1.27)
			)
			(justify left bottom)
		)
		(uuid "ba16db67-0127-4626-9861-55626f1c9bce")
	)
	(text "Relays channels"
		(exclude_from_sim no)
		(at 191.77 127 0)
		(effects
			(font
				(size 1.27 1.27)
			)
			(justify left bottom)
		)
		(uuid "dc1dd48d-b43b-414b-a71b-f536f2711f29")
	)
	(symbol
		(lib_id "Device:C")
		(at 77.47 109.22 0)
		(unit 1)
		(exclude_from_sim no)
		(in_bom yes)
		(on_board yes)
		(dnp no)
		(fields_autoplaced yes)
		(uuid "08989e4b-4b64-439f-8993-bf2ab22df365")
		(property "Reference" "C1"
			(at 81.28 107.95 0)
			(effects
				(font
					(size 1.27 1.27)
				)
				(justify left)
			)
		)
		(property "Value" "0.1uF"
			(at 81.28 110.49 0)
			(effects
				(font
					(size 1.27 1.27)
				)
				(justify left)
			)
		)
		(property "Footprint" "Capacitor_SMD:C_0603_1608Metric_Pad1.08x0.95mm_HandSolder"
			(at 78.4352 113.03 0)
			(effects
				(font
					(size 1.27 1.27)
				)
				(hide yes)
			)
		)
		(property "Datasheet" "~"
			(at 77.47 109.22 0)
			(effects
				(font
					(size 1.27 1.27)
				)
				(hide yes)
			)
		)
		(property "Description" "Unpolarized capacitor"
			(at 77.47 109.22 0)
			(effects
				(font
					(size 1.27 1.27)
				)
				(hide yes)
			)
		)
		(pin "2"
			(uuid "2ef679a5-de58-4e58-b08e-8f830644af3c")
		)
		(pin "1"
			(uuid "d0cf0bda-7165-4058-add3-a29f8e450f99")
		)
		(instances
			(project "lesson_8"
				(path "/68d4c7f9-9a0a-4ad6-b28a-634d774b34cc"
					(reference "C1")
					(unit 1)
				)
			)
		)
	)
	(symbol
		(lib_id "Connector:Screw_Terminal_01x06")
		(at 220.98 99.06 0)
		(unit 1)
		(exclude_from_sim no)
		(in_bom yes)
		(on_board yes)
		(dnp no)
		(fields_autoplaced yes)
		(uuid "3bb09d1e-0d67-44f8-9027-3747039b52a0")
		(property "Reference" "J3"
			(at 223.52 99.06 0)
			(effects
				(font
					(size 1.27 1.27)
				)
				(justify left)
			)
		)
		(property "Value" "Screw_Terminal_01x06"
			(at 223.52 101.6 0)
			(effects
				(font
					(size 1.27 1.27)
				)
				(justify left)
				(hide yes)
			)
		)
		(property "Footprint" "TerminalBlock_Phoenix:TerminalBlock_Phoenix_MKDS-1,5-6-5.08_1x06_P5.08mm_Horizontal"
			(at 220.98 99.06 0)
			(effects
				(font
					(size 1.27 1.27)
				)
				(hide yes)
			)
		)
		(property "Datasheet" "~"
			(at 220.98 99.06 0)
			(effects
				(font
					(size 1.27 1.27)
				)
				(hide yes)
			)
		)
		(property "Description" "Generic screw terminal, single row, 01x06, script generated (kicad-library-utils/schlib/autogen/connector/)"
			(at 220.98 99.06 0)
			(effects
				(font
					(size 1.27 1.27)
				)
				(hide yes)
			)
		)
		(pin "3"
			(uuid "b613fbcf-224b-4a35-9a64-a5e385825801")
		)
		(pin "4"
			(uuid "5505afc8-e09c-44e6-8e48-defdd3c6eed3")
		)
		(pin "2"
			(uuid "34aad553-6a29-4f23-8db4-090a2cc6122b")
		)
		(pin "1"
			(uuid "0c83565d-3130-4cfd-aa1c-09e791975225")
		)
		(pin "5"
			(uuid "47444691-54b4-4319-8e9d-8131eb1fd181")
		)
		(pin "6"
			(uuid "7366eb87-1bfc-45fe-95f7-c190f44fb70a")
		)
		(instances
			(project "lesson_8"
				(path "/68d4c7f9-9a0a-4ad6-b28a-634d774b34cc"
					(reference "J3")
					(unit 1)
				)
			)
		)
	)
	(symbol
		(lib_id "Device:R")
		(at 115.57 104.14 0)
		(unit 1)
		(exclude_from_sim no)
		(in_bom yes)
		(on_board yes)
		(dnp no)
		(fields_autoplaced yes)
		(uuid "3e036dd3-afe0-49dc-a74d-2da70187b6d7")
		(property "Reference" "R2"
			(at 118.11 102.87 0)
			(effects
				(font
					(size 1.27 1.27)
				)
				(justify left)
			)
		)
		(property "Value" "240"
			(at 118.11 105.41 0)
			(effects
				(font
					(size 1.27 1.27)
				)
				(justify left)
			)
		)
		(property "Footprint" "Resistor_SMD:R_0805_2012Metric"
			(at 113.792 104.14 90)
			(effects
				(font
					(size 1.27 1.27)
				)
				(hide yes)
			)
		)
		(property "Datasheet" "~"
			(at 115.57 104.14 0)
			(effects
				(font
					(size 1.27 1.27)
				)
				(hide yes)
			)
		)
		(property "Description" "Resistor"
			(at 115.57 104.14 0)
			(effects
				(font
					(size 1.27 1.27)
				)
				(hide yes)
			)
		)
		(pin "2"
			(uuid "cdb6cbec-e0fd-4fb5-a90f-faa33e0cf7a3")
		)
		(pin "1"
			(uuid "f8ed104b-a78d-4dfa-a81b-a52efac8fbe5")
		)
		(instances
			(project "lesson_8"
				(path "/68d4c7f9-9a0a-4ad6-b28a-634d774b34cc"
					(reference "R2")
					(unit 1)
				)
			)
		)
	)
	(symbol
		(lib_id "power:+5V")
		(at 127 99.06 270)
		(unit 1)
		(exclude_from_sim no)
		(in_bom yes)
		(on_board yes)
		(dnp no)
		(fields_autoplaced yes)
		(uuid "4a1a96c4-64ff-4c78-838a-87f6df4dd4da")
		(property "Reference" "#PWR06"
			(at 123.19 99.06 0)
			(effects
				(font
					(size 1.27 1.27)
				)
				(hide yes)
			)
		)
		(property "Value" "+5V"
			(at 130.81 99.06 90)
			(effects
				(font
					(size 1.27 1.27)
				)
				(justify left)
			)
		)
		(property "Footprint" ""
			(at 127 99.06 0)
			(effects
				(font
					(size 1.27 1.27)
				)
				(hide yes)
			)
		)
		(property "Datasheet" ""
			(at 127 99.06 0)
			(effects
				(font
					(size 1.27 1.27)
				)
				(hide yes)
			)
		)
		(property "Description" "Power symbol creates a global label with name \"+5V\""
			(at 127 99.06 0)
			(effects
				(font
					(size 1.27 1.27)
				)
				(hide yes)
			)
		)
		(pin "1"
			(uuid "51ffef25-5334-4ad6-8e14-891f50822b2a")
		)
		(instances
			(project "lesson_8"
				(path "/68d4c7f9-9a0a-4ad6-b28a-634d774b34cc"
					(reference "#PWR06")
					(unit 1)
				)
			)
		)
	)
	(symbol
		(lib_id "Diode:US1A")
		(at 91.44 87.63 0)
		(unit 1)
		(exclude_from_sim no)
		(in_bom yes)
		(on_board yes)
		(dnp no)
		(fields_autoplaced yes)
		(uuid "521275c2-42e9-4062-9f6a-c19c0ddedfcc")
		(property "Reference" "D6"
			(at 91.44 81.28 0)
			(effects
				(font
					(size 1.27 1.27)
				)
			)
		)
		(property "Value" "US1A"
			(at 91.44 83.82 0)
			(effects
				(font
					(size 1.27 1.27)
				)
			)
		)
		(property "Footprint" "Diode_SMD:D_SMA"
			(at 91.44 92.075 0)
			(effects
				(font
					(size 1.27 1.27)
				)
				(hide yes)
			)
		)
		(property "Datasheet" "https://www.diodes.com/assets/Datasheets/ds16008.pdf"
			(at 91.44 87.63 0)
			(effects
				(font
					(size 1.27 1.27)
				)
				(hide yes)
			)
		)
		(property "Description" "50V, 1A, General Purpose Rectifier Diode, SMA(DO-214AC)"
			(at 91.44 87.63 0)
			(effects
				(font
					(size 1.27 1.27)
				)
				(hide yes)
			)
		)
		(property "Sim.Device" "D"
			(at 91.44 87.63 0)
			(effects
				(font
					(size 1.27 1.27)
				)
				(hide yes)
			)
		)
		(property "Sim.Pins" "1=K 2=A"
			(at 91.44 87.63 0)
			(effects
				(font
					(size 1.27 1.27)
				)
				(hide yes)
			)
		)
		(pin "2"
			(uuid "1d817aa7-eee9-4a9f-9669-ad2de12c941e")
		)
		(pin "1"
			(uuid "0b9a3d3f-eea4-488b-9434-3bc125ba4157")
		)
		(instances
			(project "lesson_8"
				(path "/68d4c7f9-9a0a-4ad6-b28a-634d774b34cc"
					(reference "D6")
					(unit 1)
				)
			)
		)
	)
	(symbol
		(lib_id "Connector:Screw_Terminal_01x06")
		(at 158.75 93.98 180)
		(unit 1)
		(exclude_from_sim no)
		(in_bom yes)
		(on_board yes)
		(dnp no)
		(fields_autoplaced yes)
		(uuid "5e87f188-7dde-4a27-8e9b-5423afddf08e")
		(property "Reference" "J1"
			(at 158.75 82.55 0)
			(effects
				(font
					(size 1.27 1.27)
				)
			)
		)
		(property "Value" "Screw_Terminal_01x06"
			(at 156.21 91.44 0)
			(effects
				(font
					(size 1.27 1.27)
				)
				(justify left)
				(hide yes)
			)
		)
		(property "Footprint" "TerminalBlock_Phoenix:TerminalBlock_Phoenix_MKDS-1,5-6-5.08_1x06_P5.08mm_Horizontal"
			(at 158.75 93.98 0)
			(effects
				(font
					(size 1.27 1.27)
				)
				(hide yes)
			)
		)
		(property "Datasheet" "~"
			(at 158.75 93.98 0)
			(effects
				(font
					(size 1.27 1.27)
				)
				(hide yes)
			)
		)
		(property "Description" "Generic screw terminal, single row, 01x06, script generated (kicad-library-utils/schlib/autogen/connector/)"
			(at 158.75 93.98 0)
			(effects
				(font
					(size 1.27 1.27)
				)
				(hide yes)
			)
		)
		(pin "3"
			(uuid "db7902c5-95f8-4f5d-9be1-852ee1d1cd9b")
		)
		(pin "4"
			(uuid "da503063-e5a2-4ecc-9407-e2b5dbfad061")
		)
		(pin "2"
			(uuid "3007f46c-e3e6-4c0c-ad28-dd2128d61559")
		)
		(pin "1"
			(uuid "01b9c06d-e6d4-4050-bf3c-bf03d255a0e0")
		)
		(pin "5"
			(uuid "8bbd50bf-70d4-47fc-a586-d8b1aceb32e9")
		)
		(pin "6"
			(uuid "d28bd83a-336a-4cd8-be5c-2bb7710d2cb5")
		)
		(instances
			(project "lesson_8"
				(path "/68d4c7f9-9a0a-4ad6-b28a-634d774b34cc"
					(reference "J1")
					(unit 1)
				)
			)
		)
	)
	(symbol
		(lib_id "Device:C_Polarized")
		(at 102.87 114.3 0)
		(unit 1)
		(exclude_from_sim no)
		(in_bom yes)
		(on_board yes)
		(dnp no)
		(fields_autoplaced yes)
		(uuid "614994cf-6b67-46d1-92b2-0b1641758484")
		(property "Reference" "C3"
			(at 106.68 112.141 0)
			(effects
				(font
					(size 1.27 1.27)
				)
				(justify left)
			)
		)
		(property "Value" "10uF"
			(at 106.68 114.681 0)
			(effects
				(font
					(size 1.27 1.27)
				)
				(justify left)
			)
		)
		(property "Footprint" "Capacitor_Tantalum_SMD:CP_EIA-3528-12_Kemet-T"
			(at 103.8352 118.11 0)
			(effects
				(font
					(size 1.27 1.27)
				)
				(hide yes)
			)
		)
		(property "Datasheet" "~"
			(at 102.87 114.3 0)
			(effects
				(font
					(size 1.27 1.27)
				)
				(hide yes)
			)
		)
		(property "Description" "Polarized capacitor"
			(at 102.87 114.3 0)
			(effects
				(font
					(size 1.27 1.27)
				)
				(hide yes)
			)
		)
		(pin "2"
			(uuid "803cc894-bca2-4fd3-8b18-7124b14b8b9a")
		)
		(pin "1"
			(uuid "e9b0b727-a79d-4716-b92e-24093a0ecdfa")
		)
		(instances
			(project "lesson_8"
				(path "/68d4c7f9-9a0a-4ad6-b28a-634d774b34cc"
					(reference "C3")
					(unit 1)
				)
			)
		)
	)
	(symbol
		(lib_id "Device:C_Polarized")
		(at 68.58 109.22 0)
		(unit 1)
		(exclude_from_sim no)
		(in_bom yes)
		(on_board yes)
		(dnp no)
		(uuid "61926fc8-33f2-47c6-9c79-e07d15512090")
		(property "Reference" "C4"
			(at 58.42 107.95 0)
			(effects
				(font
					(size 1.27 1.27)
				)
				(justify left)
			)
		)
		(property "Value" "100uF"
			(at 58.42 110.49 0)
			(effects
				(font
					(size 1.27 1.27)
				)
				(justify left)
			)
		)
		(property "Footprint" "Capacitor_SMD:CP_Elec_8x10.5"
			(at 69.5452 113.03 0)
			(effects
				(font
					(size 1.27 1.27)
				)
				(hide yes)
			)
		)
		(property "Datasheet" "~"
			(at 68.58 109.22 0)
			(effects
				(font
					(size 1.27 1.27)
				)
				(hide yes)
			)
		)
		(property "Description" "Polarized capacitor"
			(at 68.58 109.22 0)
			(effects
				(font
					(size 1.27 1.27)
				)
				(hide yes)
			)
		)
		(pin "2"
			(uuid "4f8c3d4f-8d2c-4e64-af8b-0153b991559b")
		)
		(pin "1"
			(uuid "612d96a3-903b-4d1b-8aa3-5efc6c9e87a5")
		)
		(instances
			(project "lesson_8"
				(path "/68d4c7f9-9a0a-4ad6-b28a-634d774b34cc"
					(reference "C4")
					(unit 1)
				)
			)
		)
	)
	(symbol
		(lib_id "power:+12V")
		(at 57.15 99.06 90)
		(unit 1)
		(exclude_from_sim no)
		(in_bom yes)
		(on_board yes)
		(dnp no)
		(uuid "6de2f442-f2e7-4045-bc16-88601be423e5")
		(property "Reference" "#PWR03"
			(at 60.96 99.06 0)
			(effects
				(font
					(size 1.27 1.27)
				)
				(hide yes)
			)
		)
		(property "Value" "+12V"
			(at 53.34 99.06 90)
			(effects
				(font
					(size 1.27 1.27)
				)
				(justify left)
			)
		)
		(property "Footprint" ""
			(at 57.15 99.06 0)
			(effects
				(font
					(size 1.27 1.27)
				)
				(hide yes)
			)
		)
		(property "Datasheet" ""
			(at 57.15 99.06 0)
			(effects
				(font
					(size 1.27 1.27)
				)
				(hide yes)
			)
		)
		(property "Description" "Power symbol creates a global label with name \"+12V\""
			(at 57.15 99.06 0)
			(effects
				(font
					(size 1.27 1.27)
				)
				(hide yes)
			)
		)
		(pin "1"
			(uuid "f21d124b-5126-4a14-9cf9-6400f41fc4e8")
		)
		(instances
			(project "lesson_8"
				(path "/68d4c7f9-9a0a-4ad6-b28a-634d774b34cc"
					(reference "#PWR03")
					(unit 1)
				)
			)
		)
	)
	(symbol
		(lib_id "power:GND1")
		(at 132.08 81.28 0)
		(unit 1)
		(exclude_from_sim no)
		(in_bom yes)
		(on_board yes)
		(dnp no)
		(fields_autoplaced yes)
		(uuid "72cd9f02-ebb0-46ec-a530-78743b1ff2f0")
		(property "Reference" "#PWR07"
			(at 132.08 87.63 0)
			(effects
				(font
					(size 1.27 1.27)
				)
				(hide yes)
			)
		)
		(property "Value" "GND1"
			(at 132.08 86.36 0)
			(effects
				(font
					(size 1.27 1.27)
				)
			)
		)
		(property "Footprint" ""
			(at 132.08 81.28 0)
			(effects
				(font
					(size 1.27 1.27)
				)
				(hide yes)
			)
		)
		(property "Datasheet" ""
			(at 132.08 81.28 0)
			(effects
				(font
					(size 1.27 1.27)
				)
				(hide yes)
			)
		)
		(property "Description" "Power symbol creates a global label with name \"GND1\" , ground"
			(at 132.08 81.28 0)
			(effects
				(font
					(size 1.27 1.27)
				)
				(hide yes)
			)
		)
		(pin "1"
			(uuid "0e150082-f80d-4248-8399-359f943e5e60")
		)
		(instances
			(project "lesson_8"
				(path "/68d4c7f9-9a0a-4ad6-b28a-634d774b34cc"
					(reference "#PWR07")
					(unit 1)
				)
			)
		)
	)
	(symbol
		(lib_id "Diode:US1A")
		(at 102.87 104.14 270)
		(unit 1)
		(exclude_from_sim no)
		(in_bom yes)
		(on_board yes)
		(dnp no)
		(fields_autoplaced yes)
		(uuid "8d1f2e9e-efd5-41eb-964e-c42c28c0d4fd")
		(property "Reference" "D5"
			(at 105.41 102.87 90)
			(effects
				(font
					(size 1.27 1.27)
				)
				(justify left)
			)
		)
		(property "Value" "US1A"
			(at 105.41 105.41 90)
			(effects
				(font
					(size 1.27 1.27)
				)
				(justify left)
			)
		)
		(property "Footprint" "Diode_SMD:D_SMA"
			(at 98.425 104.14 0)
			(effects
				(font
					(size 1.27 1.27)
				)
				(hide yes)
			)
		)
		(property "Datasheet" "https://www.diodes.com/assets/Datasheets/ds16008.pdf"
			(at 102.87 104.14 0)
			(effects
				(font
					(size 1.27 1.27)
				)
				(hide yes)
			)
		)
		(property "Description" "50V, 1A, General Purpose Rectifier Diode, SMA(DO-214AC)"
			(at 102.87 104.14 0)
			(effects
				(font
					(size 1.27 1.27)
				)
				(hide yes)
			)
		)
		(property "Sim.Device" "D"
			(at 102.87 104.14 0)
			(effects
				(font
					(size 1.27 1.27)
				)
				(hide yes)
			)
		)
		(property "Sim.Pins" "1=K 2=A"
			(at 102.87 104.14 0)
			(effects
				(font
					(size 1.27 1.27)
				)
				(hide yes)
			)
		)
		(pin "2"
			(uuid "8cabff13-1f29-4d7d-b2ec-e77bc23806dc")
		)
		(pin "1"
			(uuid "f0f02f92-e7ef-4220-a530-e82314122976")
		)
		(instances
			(project "lesson_8"
				(path "/68d4c7f9-9a0a-4ad6-b28a-634d774b34cc"
					(reference "D5")
					(unit 1)
				)
			)
		)
	)
	(symbol
		(lib_id "power:+12V")
		(at 115.57 81.28 180)
		(unit 1)
		(exclude_from_sim no)
		(in_bom yes)
		(on_board yes)
		(dnp no)
		(fields_autoplaced yes)
		(uuid "9c78c711-c659-4594-9f82-e13d3abacd16")
		(property "Reference" "#PWR05"
			(at 115.57 77.47 0)
			(effects
				(font
					(size 1.27 1.27)
				)
				(hide yes)
			)
		)
		(property "Value" "+12V"
			(at 115.57 86.36 0)
			(effects
				(font
					(size 1.27 1.27)
				)
			)
		)
		(property "Footprint" ""
			(at 115.57 81.28 0)
			(effects
				(font
					(size 1.27 1.27)
				)
				(hide yes)
			)
		)
		(property "Datasheet" ""
			(at 115.57 81.28 0)
			(effects
				(font
					(size 1.27 1.27)
				)
				(hide yes)
			)
		)
		(property "Description" "Power symbol creates a global label with name \"+12V\""
			(at 115.57 81.28 0)
			(effects
				(font
					(size 1.27 1.27)
				)
				(hide yes)
			)
		)
		(pin "1"
			(uuid "649881d2-c17a-417a-9cf7-6006053f9c04")
		)
		(instances
			(project "lesson_8"
				(path "/68d4c7f9-9a0a-4ad6-b28a-634d774b34cc"
					(reference "#PWR05")
					(unit 1)
				)
			)
		)
	)
	(symbol
		(lib_id "Device:C_Polarized")
		(at 124.46 111.76 0)
		(unit 1)
		(exclude_from_sim no)
		(in_bom yes)
		(on_board yes)
		(dnp no)
		(fields_autoplaced yes)
		(uuid "a8309a7c-f31b-4be5-bb7a-93f8b58fe776")
		(property "Reference" "C2"
			(at 128.27 109.601 0)
			(effects
				(font
					(size 1.27 1.27)
				)
				(justify left)
			)
		)
		(property "Value" "1uF"
			(at 128.27 112.141 0)
			(effects
				(font
					(size 1.27 1.27)
				)
				(justify left)
			)
		)
		(property "Footprint" "Capacitor_Tantalum_SMD:CP_EIA-3528-12_Kemet-T"
			(at 125.4252 115.57 0)
			(effects
				(font
					(size 1.27 1.27)
				)
				(hide yes)
			)
		)
		(property "Datasheet" "~"
			(at 124.46 111.76 0)
			(effects
				(font
					(size 1.27 1.27)
				)
				(hide yes)
			)
		)
		(property "Description" "Polarized capacitor"
			(at 124.46 111.76 0)
			(effects
				(font
					(size 1.27 1.27)
				)
				(hide yes)
			)
		)
		(pin "2"
			(uuid "7e928ee3-2f62-4f26-87ce-b1aec1914754")
		)
		(pin "1"
			(uuid "533bc94c-222f-40dc-9353-437186b4a10f")
		)
		(instances
			(project "lesson_8"
				(path "/68d4c7f9-9a0a-4ad6-b28a-634d774b34cc"
					(reference "C2")
					(unit 1)
				)
			)
		)
	)
	(symbol
		(lib_id "power:GND1")
		(at 91.44 121.92 0)
		(unit 1)
		(exclude_from_sim no)
		(in_bom yes)
		(on_board yes)
		(dnp no)
		(fields_autoplaced yes)
		(uuid "ab672975-3245-4e1b-85e9-500b53ee6e52")
		(property "Reference" "#PWR04"
			(at 91.44 128.27 0)
			(effects
				(font
					(size 1.27 1.27)
				)
				(hide yes)
			)
		)
		(property "Value" "GND1"
			(at 91.44 127 0)
			(effects
				(font
					(size 1.27 1.27)
				)
			)
		)
		(property "Footprint" ""
			(at 91.44 121.92 0)
			(effects
				(font
					(size 1.27 1.27)
				)
				(hide yes)
			)
		)
		(property "Datasheet" ""
			(at 91.44 121.92 0)
			(effects
				(font
					(size 1.27 1.27)
				)
				(hide yes)
			)
		)
		(property "Description" "Power symbol creates a global label with name \"GND1\" , ground"
			(at 91.44 121.92 0)
			(effects
				(font
					(size 1.27 1.27)
				)
				(hide yes)
			)
		)
		(pin "1"
			(uuid "1227712e-0fcf-4f61-b577-e0eda2855ed8")
		)
		(instances
			(project "lesson_8"
				(path "/68d4c7f9-9a0a-4ad6-b28a-634d774b34cc"
					(reference "#PWR04")
					(unit 1)
				)
			)
		)
	)
	(symbol
		(lib_id "power:PWR_FLAG")
		(at 115.57 81.28 0)
		(unit 1)
		(exclude_from_sim no)
		(in_bom yes)
		(on_board yes)
		(dnp no)
		(uuid "b85d17eb-ac08-4c8b-b9c2-e85be313f000")
		(property "Reference" "#FLG01"
			(at 115.57 79.375 0)
			(effects
				(font
					(size 1.27 1.27)
				)
				(hide yes)
			)
		)
		(property "Value" "PWR_FLAG"
			(at 107.95 80.01 0)
			(effects
				(font
					(size 1.27 1.27)
				)
			)
		)
		(property "Footprint" ""
			(at 115.57 81.28 0)
			(effects
				(font
					(size 1.27 1.27)
				)
				(hide yes)
			)
		)
		(property "Datasheet" "~"
			(at 115.57 81.28 0)
			(effects
				(font
					(size 1.27 1.27)
				)
				(hide yes)
			)
		)
		(property "Description" "Special symbol for telling ERC where power comes from"
			(at 115.57 81.28 0)
			(effects
				(font
					(size 1.27 1.27)
				)
				(hide yes)
			)
		)
		(pin "1"
			(uuid "26928c33-492d-4bd8-a0b8-1ca6de48a9be")
		)
		(instances
			(project "lesson_8"
				(path "/68d4c7f9-9a0a-4ad6-b28a-634d774b34cc"
					(reference "#FLG01")
					(unit 1)
				)
			)
		)
	)
	(symbol
		(lib_id "Device:R")
		(at 91.44 115.57 0)
		(unit 1)
		(exclude_from_sim no)
		(in_bom yes)
		(on_board yes)
		(dnp no)
		(fields_autoplaced yes)
		(uuid "be0187dd-22ec-425d-b780-44e710dd66ff")
		(property "Reference" "R1"
			(at 93.98 114.3 0)
			(effects
				(font
					(size 1.27 1.27)
				)
				(justify left)
			)
		)
		(property "Value" "100"
			(at 93.98 116.84 0)
			(effects
				(font
					(size 1.27 1.27)
				)
				(justify left)
			)
		)
		(property "Footprint" "Resistor_SMD:R_0805_2012Metric"
			(at 89.662 115.57 90)
			(effects
				(font
					(size 1.27 1.27)
				)
				(hide yes)
			)
		)
		(property "Datasheet" "~"
			(at 91.44 115.57 0)
			(effects
				(font
					(size 1.27 1.27)
				)
				(hide yes)
			)
		)
		(property "Description" "Resistor"
			(at 91.44 115.57 0)
			(effects
				(font
					(size 1.27 1.27)
				)
				(hide yes)
			)
		)
		(pin "2"
			(uuid "1d4d11fd-0854-49a7-9551-0e3162db0513")
		)
		(pin "1"
			(uuid "58db6882-418b-4e33-b25c-b9917b3cfaad")
		)
		(instances
			(project "lesson_8"
				(path "/68d4c7f9-9a0a-4ad6-b28a-634d774b34cc"
					(reference "R1")
					(unit 1)
				)
			)
		)
	)
	(symbol
		(lib_id "Regulator_Linear:LM317_TO-220")
		(at 91.44 99.06 0)
		(unit 1)
		(exclude_from_sim no)
		(in_bom yes)
		(on_board yes)
		(dnp no)
		(fields_autoplaced yes)
		(uuid "c717cc64-6c7b-4ef5-aad1-7f24480bb343")
		(property "Reference" "U1"
			(at 91.44 92.71 0)
			(effects
				(font
					(size 1.27 1.27)
				)
			)
		)
		(property "Value" "LM317_TO-220"
			(at 91.44 95.25 0)
			(effects
				(font
					(size 1.27 1.27)
				)
			)
		)
		(property "Footprint" "Package_TO_SOT_THT:TO-220-3_Vertical"
			(at 91.44 92.71 0)
			(effects
				(font
					(size 1.27 1.27)
					(italic yes)
				)
				(hide yes)
			)
		)
		(property "Datasheet" "http://www.ti.com/lit/ds/symlink/lm317.pdf"
			(at 91.44 99.06 0)
			(effects
				(font
					(size 1.27 1.27)
				)
				(hide yes)
			)
		)
		(property "Description" "1.5A 35V Adjustable Linear Regulator, TO-220"
			(at 91.44 99.06 0)
			(effects
				(font
					(size 1.27 1.27)
				)
				(hide yes)
			)
		)
		(pin "2"
			(uuid "09e1f6a4-c299-4f03-bba6-b97b48422984")
		)
		(pin "1"
			(uuid "9a2a0025-c9e0-4010-90d9-472090c55677")
		)
		(pin "3"
			(uuid "fcb2feeb-2551-4c7b-9adf-3eff906f493a")
		)
		(instances
			(project "lesson_8"
				(path "/68d4c7f9-9a0a-4ad6-b28a-634d774b34cc"
					(reference "U1")
					(unit 1)
				)
			)
		)
	)
	(symbol
		(lib_id "power:PWR_FLAG")
		(at 132.08 81.28 0)
		(unit 1)
		(exclude_from_sim no)
		(in_bom yes)
		(on_board yes)
		(dnp no)
		(uuid "e402ec3f-ca67-4dad-8ef3-a7838dbcb9eb")
		(property "Reference" "#FLG02"
			(at 132.08 79.375 0)
			(effects
				(font
					(size 1.27 1.27)
				)
				(hide yes)
			)
		)
		(property "Value" "PWR_FLAG"
			(at 124.46 80.01 0)
			(effects
				(font
					(size 1.27 1.27)
				)
			)
		)
		(property "Footprint" ""
			(at 132.08 81.28 0)
			(effects
				(font
					(size 1.27 1.27)
				)
				(hide yes)
			)
		)
		(property "Datasheet" "~"
			(at 132.08 81.28 0)
			(effects
				(font
					(size 1.27 1.27)
				)
				(hide yes)
			)
		)
		(property "Description" "Special symbol for telling ERC where power comes from"
			(at 132.08 81.28 0)
			(effects
				(font
					(size 1.27 1.27)
				)
				(hide yes)
			)
		)
		(pin "1"
			(uuid "d10ac998-9a2a-457c-ae75-9c52c8175607")
		)
		(instances
			(project "lesson_8"
				(path "/68d4c7f9-9a0a-4ad6-b28a-634d774b34cc"
					(reference "#FLG02")
					(unit 1)
				)
			)
		)
	)
	(symbol
		(lib_id "power:GND1")
		(at 146.05 104.14 270)
		(unit 1)
		(exclude_from_sim no)
		(in_bom yes)
		(on_board yes)
		(dnp no)
		(uuid "f2cae0d3-1a05-4472-9c08-6be32d7fbe60")
		(property "Reference" "#PWR013"
			(at 139.7 104.14 0)
			(effects
				(font
					(size 1.27 1.27)
				)
				(hide yes)
			)
		)
		(property "Value" "GND1"
			(at 137.16 104.14 90)
			(effects
				(font
					(size 1.27 1.27)
				)
				(justify left)
			)
		)
		(property "Footprint" ""
			(at 146.05 104.14 0)
			(effects
				(font
					(size 1.27 1.27)
				)
				(hide yes)
			)
		)
		(property "Datasheet" ""
			(at 146.05 104.14 0)
			(effects
				(font
					(size 1.27 1.27)
				)
				(hide yes)
			)
		)
		(property "Description" "Power symbol creates a global label with name \"GND1\" , ground"
			(at 146.05 104.14 0)
			(effects
				(font
					(size 1.27 1.27)
				)
				(hide yes)
			)
		)
		(pin "1"
			(uuid "14d7d046-1a94-4358-b7ba-5d8d88b7794c")
		)
		(instances
			(project "lesson_8"
				(path "/68d4c7f9-9a0a-4ad6-b28a-634d774b34cc"
					(reference "#PWR013")
					(unit 1)
				)
			)
		)
	)
	(symbol
		(lib_id "power:+12V")
		(at 146.05 107.95 90)
		(unit 1)
		(exclude_from_sim no)
		(in_bom yes)
		(on_board yes)
		(dnp no)
		(uuid "fdf94a7f-aba5-4d57-8787-afd45d7ff197")
		(property "Reference" "#PWR012"
			(at 149.86 107.95 0)
			(effects
				(font
					(size 1.27 1.27)
				)
				(hide yes)
			)
		)
		(property "Value" "+12V"
			(at 137.16 107.95 90)
			(effects
				(font
					(size 1.27 1.27)
				)
				(justify right)
			)
		)
		(property "Footprint" ""
			(at 146.05 107.95 0)
			(effects
				(font
					(size 1.27 1.27)
				)
				(hide yes)
			)
		)
		(property "Datasheet" ""
			(at 146.05 107.95 0)
			(effects
				(font
					(size 1.27 1.27)
				)
				(hide yes)
			)
		)
		(property "Description" "Power symbol creates a global label with name \"+12V\""
			(at 146.05 107.95 0)
			(effects
				(font
					(size 1.27 1.27)
				)
				(hide yes)
			)
		)
		(pin "1"
			(uuid "e4b53418-7dab-450c-b026-11bd42580116")
		)
		(instances
			(project "lesson_8"
				(path "/68d4c7f9-9a0a-4ad6-b28a-634d774b34cc"
					(reference "#PWR012")
					(unit 1)
				)
			)
		)
	)
	(sheet
		(at 177.8 105.41)
		(size 27.94 13.97)
		(fields_autoplaced yes)
		(stroke
			(width 0.1524)
			(type solid)
		)
		(fill
			(color 0 0 0 0.0000)
		)
		(uuid "0476af52-edc1-4b00-ae6c-b6c027c78a8d")
		(property "Sheetname" "relay_2"
			(at 177.8 104.6984 0)
			(effects
				(font
					(size 1.27 1.27)
				)
				(justify left bottom)
			)
		)
		(property "Sheetfile" "relay.kicad_sch"
			(at 177.8 119.9646 0)
			(effects
				(font
					(size 1.27 1.27)
				)
				(justify left top)
			)
		)
		(pin "GND" input
			(at 177.8 109.22 180)
			(effects
				(font
					(size 1.27 1.27)
				)
				(justify left)
			)
			(uuid "177a1fa6-a73a-4e1b-aaca-900216cd1eea")
		)
		(pin "COM" input
			(at 205.74 113.03 0)
			(effects
				(font
					(size 1.27 1.27)
				)
				(justify right)
			)
			(uuid "92730810-92f8-4526-8fae-064fca1e52da")
		)
		(pin "NC" input
			(at 205.74 110.49 0)
			(effects
				(font
					(size 1.27 1.27)
				)
				(justify right)
			)
			(uuid "b436cc0c-58e3-440b-927a-06a80b75a0f7")
		)
		(pin "NO" input
			(at 205.74 115.57 0)
			(effects
				(font
					(size 1.27 1.27)
				)
				(justify right)
			)
			(uuid "1b3b8159-8b7a-4ff1-bb33-09f13938444c")
		)
		(pin "SIG" input
			(at 177.8 111.76 180)
			(effects
				(font
					(size 1.27 1.27)
				)
				(justify left)
			)
			(uuid "b6bb3369-f47a-4eed-aefc-fe0e43f470fe")
		)
		(instances
			(project "lesson_8"
				(path "/68d4c7f9-9a0a-4ad6-b28a-634d774b34cc"
					(page "3")
				)
			)
		)
	)
	(sheet
		(at 177.8 80.01)
		(size 27.94 13.97)
		(fields_autoplaced yes)
		(stroke
			(width 0.1524)
			(type solid)
		)
		(fill
			(color 0 0 0 0.0000)
		)
		(uuid "e2e676d9-f4eb-4ec2-96e1-c8812b287621")
		(property "Sheetname" "relay_1"
			(at 177.8 79.2984 0)
			(effects
				(font
					(size 1.27 1.27)
				)
				(justify left bottom)
			)
		)
		(property "Sheetfile" "relay.kicad_sch"
			(at 177.8 94.5646 0)
			(effects
				(font
					(size 1.27 1.27)
				)
				(justify left top)
			)
		)
		(pin "GND" input
			(at 177.8 83.82 180)
			(effects
				(font
					(size 1.27 1.27)
				)
				(justify left)
			)
			(uuid "f3b0876d-fb06-445e-b67d-1e0e2867ff1c")
		)
		(pin "COM" input
			(at 205.74 87.63 0)
			(effects
				(font
					(size 1.27 1.27)
				)
				(justify right)
			)
			(uuid "d0b201d8-2466-4c49-9245-cf7db58f7b87")
		)
		(pin "NC" input
			(at 205.74 85.09 0)
			(effects
				(font
					(size 1.27 1.27)
				)
				(justify right)
			)
			(uuid "d051faf2-a985-4fb2-a3bf-9f0b4e5d2835")
		)
		(pin "NO" input
			(at 205.74 90.17 0)
			(effects
				(font
					(size 1.27 1.27)
				)
				(justify right)
			)
			(uuid "172b2cfe-2d2e-4a40-92a1-166324ee4af0")
		)
		(pin "SIG" input
			(at 177.8 86.36 180)
			(effects
				(font
					(size 1.27 1.27)
				)
				(justify left)
			)
			(uuid "705fac10-1dab-4a39-b73e-de00bb8c3089")
		)
		(instances
			(project "lesson_8"
				(path "/68d4c7f9-9a0a-4ad6-b28a-634d774b34cc"
					(page "2")
				)
			)
		)
	)
	(sheet_instances
		(path "/"
			(page "1")
		)
	)
)